ic-013,スマートフォン用商品説明文欄に許可されていないURLの記載がありました。
k-3-708,スマートフォン用商品説明文欄に許可されていないURLの記載がありました。
k-1-1143,PC用販売説明文欄に許可されていないURLの記載がありました。
k-1-1143,スマートフォン用商品説明文欄に許可されていないURLの記載がありました。
n60-05-01,PC用商品説明文欄に許可されていないURLの記載がありました。
n60-05-01,スマートフォン用商品説明文欄に許可されていないURLの記載がありました。
ysob-56,PC用販売説明文欄に許可されていないURLの記載がありました。
ysob-56,スマートフォン用商品説明文欄に許可されていないURLの記載がありました。
501190s,PC用販売説明文欄に許可されていないURLの記載がありました。
501190s,スマートフォン用商品説明文欄に許可されていないURLの記載がありました。
mmt_con,PC用販売説明文欄に許可されていないURLの記載がありました。
mmt_con,スマートフォン用商品説明文欄に許可されていないURLの記載がありました。
