501200,許可されないHTMLタグ "tbody" が入力されています。
501200,許可されないHTMLタグ "tbody" が入力されています。
501350,許可されないHTMLタグ "tbody" が入力されています。
501350,許可されないHTMLタグ "tbody" が入力されています。
501400,許可されないHTMLタグ "tbody" が入力されています。
501400,許可されないHTMLタグ "tbody" が入力されています。
501401,許可されないHTMLタグ "tbody" が入力されています。
501401,許可されないHTMLタグ "tbody" が入力されています。
501402,許可されないHTMLタグ "tbody" が入力されています。
501402,許可されないHTMLタグ "tbody" が入力されています。
