ap1-401,HTMLタグ "img" は  "10"回まで使用可能です。
ap1-407,HTMLタグ "img" は  "10"回まで使用可能です。
ap1-408,HTMLタグ "img" は  "10"回まで使用可能です。
ap1-409,HTMLタグ "img" は  "10"回まで使用可能です。
ap1-410,HTMLタグ "img" は  "10"回まで使用可能です。
ap1-413,HTMLタグ "img" は  "10"回まで使用可能です。
ap1-414,HTMLタグ "img" は  "10"回まで使用可能です。
ap1-415,HTMLタグ "img" は  "10"回まで使用可能です。
ap1-416,HTMLタグ "img" は  "10"回まで使用可能です。
ap1-420,HTMLタグ "img" は  "10"回まで使用可能です。
ap1-421,HTMLタグ "img" は  "10"回まで使用可能です。
ap1-422,HTMLタグ "img" は  "10"回まで使用可能です。
ap1-423,HTMLタグ "img" は  "10"回まで使用可能です。
ap1-424,HTMLタグ "img" は  "10"回まで使用可能です。
ap1-425,HTMLタグ "img" は  "10"回まで使用可能です。
ap1-426,HTMLタグ "img" は  "10"回まで使用可能です。
ap1-427,HTMLタグ "img" は  "10"回まで使用可能です。
ap1-428,HTMLタグ "img" は  "10"回まで使用可能です。
ap1-449,HTMLタグ "img" は  "10"回まで使用可能です。
ap1-450-651,HTMLタグ "img" は  "10"回まで使用可能です。
ap1-451,HTMLタグ "img" は  "10"回まで使用可能です。
ap1-452,HTMLタグ "img" は  "10"回まで使用可能です。
ap1-453,HTMLタグ "img" は  "10"回まで使用可能です。
ap1-461,HTMLタグ "img" は  "10"回まで使用可能です。
ap1-462,HTMLタグ "img" は  "10"回まで使用可能です。
ap1-464,HTMLタグ "img" は  "10"回まで使用可能です。
ap1-467,HTMLタグ "img" は  "10"回まで使用可能です。
ap1-468,HTMLタグ "img" は  "10"回まで使用可能です。
ap1-469,HTMLタグ "img" は  "10"回まで使用可能です。
ap1-634,HTMLタグ "img" は  "10"回まで使用可能です。
ap1-635,HTMLタグ "img" は  "10"回まで使用可能です。
ap1-636,HTMLタグ "img" は  "10"回まで使用可能です。
ap1-637,HTMLタグ "img" は  "10"回まで使用可能です。
ap1-638,HTMLタグ "img" は  "10"回まで使用可能です。
ap1-639,HTMLタグ "img" は  "10"回まで使用可能です。
ap1-640,HTMLタグ "img" は  "10"回まで使用可能です。
ap1-641,HTMLタグ "img" は  "10"回まで使用可能です。
ap1-642,HTMLタグ "img" は  "10"回まで使用可能です。
ap1-643,HTMLタグ "img" は  "10"回まで使用可能です。
ap1-659,HTMLタグ "img" は  "10"回まで使用可能です。
ap1-663,HTMLタグ "img" は  "10"回まで使用可能です。
ap1-665,HTMLタグ "img" は  "10"回まで使用可能です。
ap1-691,HTMLタグ "img" は  "10"回まで使用可能です。
ap1-692,HTMLタグ "img" は  "10"回まで使用可能です。
ap1-841,HTMLタグ "img" は  "10"回まで使用可能です。
ap2-1805,HTMLタグ "img" は  "10"回まで使用可能です。
ap2-608,HTMLタグ "img" は  "10"回まで使用可能です。
ap2-609,HTMLタグ "img" は  "10"回まで使用可能です。
ap2-612,HTMLタグ "img" は  "10"回まで使用可能です。
ap2-613,HTMLタグ "img" は  "10"回まで使用可能です。
ap2-614,HTMLタグ "img" は  "10"回まで使用可能です。
ap2-615,HTMLタグ "img" は  "10"回まで使用可能です。
ap2-616,HTMLタグ "img" は  "10"回まで使用可能です。
ap2-618,HTMLタグ "img" は  "10"回まで使用可能です。
ap2-627,HTMLタグ "img" は  "10"回まで使用可能です。
ap2-628,HTMLタグ "img" は  "10"回まで使用可能です。
ap2-631,HTMLタグ "img" は  "10"回まで使用可能です。
ap2-633,HTMLタグ "img" は  "10"回まで使用可能です。
ap2-639,HTMLタグ "img" は  "10"回まで使用可能です。
ap2-640,HTMLタグ "img" は  "10"回まで使用可能です。
ap2-641,HTMLタグ "img" は  "10"回まで使用可能です。
ap2-642,HTMLタグ "img" は  "10"回まで使用可能です。
ap2-643,HTMLタグ "img" は  "10"回まで使用可能です。
ap2-644,HTMLタグ "img" は  "10"回まで使用可能です。
ap2-649,HTMLタグ "img" は  "10"回まで使用可能です。
ap2-650,HTMLタグ "img" は  "10"回まで使用可能です。
ap2-651,HTMLタグ "img" は  "10"回まで使用可能です。
ap2-652,HTMLタグ "img" は  "10"回まで使用可能です。
ap2-666,HTMLタグ "img" は  "10"回まで使用可能です。
ap2-667,HTMLタグ "img" は  "10"回まで使用可能です。
ap2-668,HTMLタグ "img" は  "10"回まで使用可能です。
ap2-669,HTMLタグ "img" は  "10"回まで使用可能です。
ap2-670,HTMLタグ "img" は  "10"回まで使用可能です。
ap2-671,HTMLタグ "img" は  "10"回まで使用可能です。
ap2-673,HTMLタグ "img" は  "10"回まで使用可能です。
ap2-676,HTMLタグ "img" は  "10"回まで使用可能です。
ap2-677,HTMLタグ "img" は  "10"回まで使用可能です。
ap2-678,HTMLタグ "img" は  "10"回まで使用可能です。
ap2-680,HTMLタグ "img" は  "10"回まで使用可能です。
ap2-682,HTMLタグ "img" は  "10"回まで使用可能です。
ap2-683,HTMLタグ "img" は  "10"回まで使用可能です。
ap2-685,HTMLタグ "img" は  "10"回まで使用可能です。
ap2-686,HTMLタグ "img" は  "10"回まで使用可能です。
ap2-687,HTMLタグ "img" は  "10"回まで使用可能です。
ap2-688,HTMLタグ "img" は  "10"回まで使用可能です。
ap2-689,HTMLタグ "img" は  "10"回まで使用可能です。
ap2-692,HTMLタグ "img" は  "10"回まで使用可能です。
ap2-735,HTMLタグ "img" は  "10"回まで使用可能です。
ap2-736,HTMLタグ "img" は  "10"回まで使用可能です。
ap2-737,HTMLタグ "img" は  "10"回まで使用可能です。
ap2-738,HTMLタグ "img" は  "10"回まで使用可能です。
ap2-742,HTMLタグ "img" は  "10"回まで使用可能です。
ap2-743,HTMLタグ "img" は  "10"回まで使用可能です。
ap2-744,HTMLタグ "img" は  "10"回まで使用可能です。
ap2-746,HTMLタグ "img" は  "10"回まで使用可能です。
ap2-749,HTMLタグ "img" は  "10"回まで使用可能です。
ap2-750,HTMLタグ "img" は  "10"回まで使用可能です。
ap2-751,HTMLタグ "img" は  "10"回まで使用可能です。
ap2-753,HTMLタグ "img" は  "10"回まで使用可能です。
ap2-760,HTMLタグ "img" は  "10"回まで使用可能です。
ap2-762,HTMLタグ "img" は  "10"回まで使用可能です。
ap2-783,HTMLタグ "img" は  "10"回まで使用可能です。
ap2-787,HTMLタグ "img" は  "10"回まで使用可能です。
ap2-789,HTMLタグ "img" は  "10"回まで使用可能です。
ap2-791,HTMLタグ "img" は  "10"回まで使用可能です。
ap2-793,HTMLタグ "img" は  "10"回まで使用可能です。
ap2-800,HTMLタグ "img" は  "10"回まで使用可能です。
ap2-801,HTMLタグ "img" は  "10"回まで使用可能です。
ap2-803,HTMLタグ "img" は  "10"回まで使用可能です。
ap2-804,HTMLタグ "img" は  "10"回まで使用可能です。
ap2-805,HTMLタグ "img" は  "10"回まで使用可能です。
ap2-806,HTMLタグ "img" は  "10"回まで使用可能です。
k-1-544,HTMLタグ "img" は  "10"回まで使用可能です。
k-1-557,HTMLタグ "img" は  "10"回まで使用可能です。
k-1-558,HTMLタグ "img" は  "10"回まで使用可能です。
k-1-559,HTMLタグ "img" は  "10"回まで使用可能です。
k-1-560,HTMLタグ "img" は  "10"回まで使用可能です。
k-1-561,HTMLタグ "img" は  "10"回まで使用可能です。
k-1-562,HTMLタグ "img" は  "10"回まで使用可能です。
k-1-563,HTMLタグ "img" は  "10"回まで使用可能です。
k-1-565,HTMLタグ "img" は  "10"回まで使用可能です。
k-1-566,HTMLタグ "img" は  "10"回まで使用可能です。
k-1-568,HTMLタグ "img" は  "10"回まで使用可能です。
k-1-569,PC用販売説明文が長すぎます。最大で10240byteまでです。
k-1-569,HTMLタグ "img" は  "10"回まで使用可能です。
k-1-570,HTMLタグ "img" は  "10"回まで使用可能です。
k-1-571,HTMLタグ "img" は  "10"回まで使用可能です。
k-1-616,HTMLタグ "img" は  "10"回まで使用可能です。
k-1-621,HTMLタグ "img" は  "10"回まで使用可能です。
k-1-624,HTMLタグ "img" は  "10"回まで使用可能です。
k-1-633,HTMLタグ "img" は  "10"回まで使用可能です。
k-1-634,HTMLタグ "img" は  "10"回まで使用可能です。
k-1-637,HTMLタグ "img" は  "10"回まで使用可能です。
k-1-642,HTMLタグ "img" は  "10"回まで使用可能です。
k-1-645,HTMLタグ "img" は  "10"回まで使用可能です。
k-1-648,HTMLタグ "img" は  "10"回まで使用可能です。
k-1-677,HTMLタグ "img" は  "10"回まで使用可能です。
k-1-680,HTMLタグ "img" は  "10"回まで使用可能です。
k-1-699,HTMLタグ "img" は  "10"回まで使用可能です。
k-1-700,HTMLタグ "img" は  "10"回まで使用可能です。
k-1-702,HTMLタグ "img" は  "10"回まで使用可能です。
k-1-706,HTMLタグ "img" は  "10"回まで使用可能です。
k-1-707,HTMLタグ "img" は  "10"回まで使用可能です。
k-1-712,HTMLタグ "img" は  "10"回まで使用可能です。
k-1-713-555,PC用販売説明文が長すぎます。最大で10240byteまでです。
k-1-713-555,HTMLタグ "img" は  "10"回まで使用可能です。
k-1-715,HTMLタグ "img" は  "10"回まで使用可能です。
k-1-717,HTMLタグ "img" は  "10"回まで使用可能です。
k-1-718,HTMLタグ "img" は  "10"回まで使用可能です。
k-1-719,HTMLタグ "img" は  "10"回まで使用可能です。
k-1-720,HTMLタグ "img" は  "10"回まで使用可能です。
k-1-721,HTMLタグ "img" は  "10"回まで使用可能です。
k-1-722,HTMLタグ "img" は  "10"回まで使用可能です。
k-1-725,HTMLタグ "img" は  "10"回まで使用可能です。
k-1-727,HTMLタグ "img" は  "10"回まで使用可能です。
k-1-728,HTMLタグ "img" は  "10"回まで使用可能です。
k-1-729,HTMLタグ "img" は  "10"回まで使用可能です。
k-1-730,HTMLタグ "img" は  "10"回まで使用可能です。
k-1-732,HTMLタグ "img" は  "10"回まで使用可能です。
k-1-733,HTMLタグ "img" は  "10"回まで使用可能です。
k-1-742,HTMLタグ "img" は  "10"回まで使用可能です。
k-1-746,HTMLタグ "img" は  "10"回まで使用可能です。
k-1-748,HTMLタグ "img" は  "10"回まで使用可能です。
k-1-750,HTMLタグ "img" は  "10"回まで使用可能です。
k-1-751,HTMLタグ "img" は  "10"回まで使用可能です。
k-1-752,HTMLタグ "img" は  "10"回まで使用可能です。
k-1-753,HTMLタグ "img" は  "10"回まで使用可能です。
k-1-754,HTMLタグ "img" は  "10"回まで使用可能です。
k-1-755,HTMLタグ "img" は  "10"回まで使用可能です。
k-1-757,HTMLタグ "img" は  "10"回まで使用可能です。
k-1-760,HTMLタグ "img" は  "10"回まで使用可能です。
k-1-761,HTMLタグ "img" は  "10"回まで使用可能です。
k-1-762,HTMLタグ "img" は  "10"回まで使用可能です。
k-1-763,HTMLタグ "img" は  "10"回まで使用可能です。
k-1-764,HTMLタグ "img" は  "10"回まで使用可能です。
k-1-765,HTMLタグ "img" は  "10"回まで使用可能です。
k-1-772,HTMLタグ "img" は  "10"回まで使用可能です。
k-1-773,HTMLタグ "img" は  "10"回まで使用可能です。
k-1-774,PC用販売説明文が長すぎます。最大で10240byteまでです。
k-1-774,HTMLタグ "img" は  "10"回まで使用可能です。
k-1-775,HTMLタグ "img" は  "10"回まで使用可能です。
k-1-776,HTMLタグ "img" は  "10"回まで使用可能です。
k-1-777,HTMLタグ "img" は  "10"回まで使用可能です。
k-1-778,HTMLタグ "img" は  "10"回まで使用可能です。
k-1-779,HTMLタグ "img" は  "10"回まで使用可能です。
k-1-780,HTMLタグ "img" は  "10"回まで使用可能です。
k-1-781,HTMLタグ "img" は  "10"回まで使用可能です。
k-1-785,HTMLタグ "img" は  "10"回まで使用可能です。
k-1-786,HTMLタグ "img" は  "10"回まで使用可能です。
k-1-787,HTMLタグ "img" は  "10"回まで使用可能です。
k-1-788,HTMLタグ "img" は  "10"回まで使用可能です。
k-1-789,HTMLタグ "img" は  "10"回まで使用可能です。
k-1-791,HTMLタグ "img" は  "10"回まで使用可能です。
k-1-792,HTMLタグ "img" は  "10"回まで使用可能です。
k-1-793,HTMLタグ "img" は  "10"回まで使用可能です。
k-1-794,HTMLタグ "img" は  "10"回まで使用可能です。
k-1-795,HTMLタグ "img" は  "10"回まで使用可能です。
k-1-796,HTMLタグ "img" は  "10"回まで使用可能です。
k-1-797,HTMLタグ "img" は  "10"回まで使用可能です。
k-1-800,HTMLタグ "img" は  "10"回まで使用可能です。
k-1-803,PC用販売説明文が長すぎます。最大で10240byteまでです。
k-1-803,HTMLタグ "img" は  "10"回まで使用可能です。
k-1-805,HTMLタグ "img" は  "10"回まで使用可能です。
k-1-807,HTMLタグ "img" は  "10"回まで使用可能です。
k-1-808,HTMLタグ "img" は  "10"回まで使用可能です。
k-1-809,HTMLタグ "img" は  "10"回まで使用可能です。
k-1-810,HTMLタグ "img" は  "10"回まで使用可能です。
k-1-811,HTMLタグ "img" は  "10"回まで使用可能です。
k-1-813,HTMLタグ "img" は  "10"回まで使用可能です。
k-1-821,HTMLタグ "img" は  "10"回まで使用可能です。
k-1-824,HTMLタグ "img" は  "10"回まで使用可能です。
k-1-825,HTMLタグ "img" は  "10"回まで使用可能です。
k-1-826,HTMLタグ "img" は  "10"回まで使用可能です。
k-1-827,HTMLタグ "img" は  "10"回まで使用可能です。
k-1-828,HTMLタグ "img" は  "10"回まで使用可能です。
k-1-829,HTMLタグ "img" は  "10"回まで使用可能です。
k-1-830,HTMLタグ "img" は  "10"回まで使用可能です。
k-1-831,HTMLタグ "img" は  "10"回まで使用可能です。
k-1-832,HTMLタグ "img" は  "10"回まで使用可能です。
k-1-833,PC用販売説明文が長すぎます。最大で10240byteまでです。
k-1-833,HTMLタグ "img" は  "10"回まで使用可能です。
k-1-834,HTMLタグ "img" は  "10"回まで使用可能です。
k-1-835,HTMLタグ "img" は  "10"回まで使用可能です。
k-2-3026,HTMLタグ "img" は  "10"回まで使用可能です。
k-2-3038,HTMLタグ "img" は  "10"回まで使用可能です。
k-2-540-725,HTMLタグ "img" は  "10"回まで使用可能です。
k-2-541-728,HTMLタグ "img" は  "10"回まで使用可能です。
k-2-557,HTMLタグ "img" は  "10"回まで使用可能です。
k-2-559,HTMLタグ "img" は  "10"回まで使用可能です。
k-2-561,HTMLタグ "img" は  "10"回まで使用可能です。
k-2-562,PC用販売説明文が長すぎます。最大で10240byteまでです。
k-2-562,HTMLタグ "img" は  "10"回まで使用可能です。
k-2-563,HTMLタグ "img" は  "10"回まで使用可能です。
k-2-564,HTMLタグ "img" は  "10"回まで使用可能です。
k-2-565,PC用販売説明文が長すぎます。最大で10240byteまでです。
k-2-565,HTMLタグ "img" は  "10"回まで使用可能です。
k-2-615,HTMLタグ "img" は  "10"回まで使用可能です。
k-2-617,HTMLタグ "img" は  "10"回まで使用可能です。
k-2-619,HTMLタグ "img" は  "10"回まで使用可能です。
k-2-620,HTMLタグ "img" は  "10"回まで使用可能です。
k-2-643,HTMLタグ "img" は  "10"回まで使用可能です。
k-2-645,HTMLタグ "img" は  "10"回まで使用可能です。
k-2-646,HTMLタグ "img" は  "10"回まで使用可能です。
k-2-647,HTMLタグ "img" は  "10"回まで使用可能です。
k-2-648,HTMLタグ "img" は  "10"回まで使用可能です。
k-2-650,HTMLタグ "img" は  "10"回まで使用可能です。
k-2-652,HTMLタグ "img" は  "10"回まで使用可能です。
k-2-713,HTMLタグ "img" は  "10"回まで使用可能です。
k-2-716,HTMLタグ "img" は  "10"回まで使用可能です。
k-2-721,HTMLタグ "img" は  "10"回まで使用可能です。
k-2-722,HTMLタグ "img" は  "10"回まで使用可能です。
k-2-724,HTMLタグ "img" は  "10"回まで使用可能です。
k-2-725,HTMLタグ "img" は  "10"回まで使用可能です。
k-2-726,HTMLタグ "img" は  "10"回まで使用可能です。
k-2-740,PC用販売説明文が長すぎます。最大で10240byteまでです。
k-2-761,HTMLタグ "img" は  "10"回まで使用可能です。
k-2-762,HTMLタグ "img" は  "10"回まで使用可能です。
k-2-763,HTMLタグ "img" は  "10"回まで使用可能です。
k-2-765,HTMLタグ "img" は  "10"回まで使用可能です。
k-2-766,HTMLタグ "img" は  "10"回まで使用可能です。
k-2-770,HTMLタグ "img" は  "10"回まで使用可能です。
k-2-772,HTMLタグ "img" は  "10"回まで使用可能です。
k-2-773,HTMLタグ "img" は  "10"回まで使用可能です。
k-2-775,HTMLタグ "img" は  "10"回まで使用可能です。
k-2-777,HTMLタグ "img" は  "10"回まで使用可能です。
k-2-780,HTMLタグ "img" は  "10"回まで使用可能です。
k-2-781,HTMLタグ "img" は  "10"回まで使用可能です。
k-2-782,HTMLタグ "img" は  "10"回まで使用可能です。
k-2-783,HTMLタグ "img" は  "10"回まで使用可能です。
k-2-784,HTMLタグ "img" は  "10"回まで使用可能です。
k-2-786,HTMLタグ "img" は  "10"回まで使用可能です。
k-2-787,HTMLタグ "img" は  "10"回まで使用可能です。
k-2-788,HTMLタグ "img" は  "10"回まで使用可能です。
k-2-789,HTMLタグ "img" は  "10"回まで使用可能です。
k-2-790,HTMLタグ "img" は  "10"回まで使用可能です。
k-2-793,HTMLタグ "img" は  "10"回まで使用可能です。
k-2-794,HTMLタグ "img" は  "10"回まで使用可能です。
k-2-798,HTMLタグ "img" は  "10"回まで使用可能です。
k-2-799,HTMLタグ "img" は  "10"回まで使用可能です。
k-2-800,HTMLタグ "img" は  "10"回まで使用可能です。
k-2-802,HTMLタグ "img" は  "10"回まで使用可能です。
k-2-803,HTMLタグ "img" は  "10"回まで使用可能です。
k-2-804,HTMLタグ "img" は  "10"回まで使用可能です。
k-2-805,HTMLタグ "img" は  "10"回まで使用可能です。
k-2-811,HTMLタグ "img" は  "10"回まで使用可能です。
k-2-813,HTMLタグ "img" は  "10"回まで使用可能です。
k-2-818,HTMLタグ "img" は  "10"回まで使用可能です。
k-2-820,HTMLタグ "img" は  "10"回まで使用可能です。
k-2-821,HTMLタグ "img" は  "10"回まで使用可能です。
k-2-822,HTMLタグ "img" は  "10"回まで使用可能です。
k-2-824,HTMLタグ "img" は  "10"回まで使用可能です。
k-2-825,HTMLタグ "img" は  "10"回まで使用可能です。
k-3-1066,HTMLタグ "img" は  "10"回まで使用可能です。
k-3-1072,HTMLタグ "img" は  "10"回まで使用可能です。
k-3-1073,HTMLタグ "img" は  "10"回まで使用可能です。
k-3-1076,HTMLタグ "img" は  "10"回まで使用可能です。
k-3-1077,HTMLタグ "img" は  "10"回まで使用可能です。
k-3-1078,HTMLタグ "img" は  "10"回まで使用可能です。
k-3-1079,HTMLタグ "img" は  "10"回まで使用可能です。
k-3-1080,HTMLタグ "img" は  "10"回まで使用可能です。
k-3-1081,HTMLタグ "img" は  "10"回まで使用可能です。
k-3-1082,HTMLタグ "img" は  "10"回まで使用可能です。
k-3-1083,HTMLタグ "img" は  "10"回まで使用可能です。
k-3-1084,HTMLタグ "img" は  "10"回まで使用可能です。
k-3-1085,HTMLタグ "img" は  "10"回まで使用可能です。
k-3-2069,HTMLタグ "img" は  "10"回まで使用可能です。
k-3-3004,HTMLタグ "img" は  "10"回まで使用可能です。
k-3-3005,HTMLタグ "img" は  "10"回まで使用可能です。
k-3-3009,HTMLタグ "img" は  "10"回まで使用可能です。
k-3-3010,HTMLタグ "img" は  "10"回まで使用可能です。
k-3-551,HTMLタグ "img" は  "10"回まで使用可能です。
k-3-555,HTMLタグ "img" は  "10"回まで使用可能です。
k-3-556,HTMLタグ "img" は  "10"回まで使用可能です。
k-3-557,HTMLタグ "img" は  "10"回まで使用可能です。
k-3-561,PC用販売説明文が長すぎます。最大で10240byteまでです。
k-3-562,HTMLタグ "img" は  "10"回まで使用可能です。
k-3-563,HTMLタグ "img" は  "10"回まで使用可能です。
k-3-566,HTMLタグ "img" は  "10"回まで使用可能です。
k-3-567,HTMLタグ "img" は  "10"回まで使用可能です。
k-3-568,HTMLタグ "img" は  "10"回まで使用可能です。
k-3-569,HTMLタグ "img" は  "10"回まで使用可能です。
k-3-570,HTMLタグ "img" は  "10"回まで使用可能です。
k-3-620,HTMLタグ "img" は  "10"回まで使用可能です。
k-3-621,HTMLタグ "img" は  "10"回まで使用可能です。
k-3-622,HTMLタグ "img" は  "10"回まで使用可能です。
k-3-623,HTMLタグ "img" は  "10"回まで使用可能です。
k-3-624,HTMLタグ "img" は  "10"回まで使用可能です。
k-3-627,HTMLタグ "img" は  "10"回まで使用可能です。
k-3-628,HTMLタグ "img" は  "10"回まで使用可能です。
k-3-629,HTMLタグ "img" は  "10"回まで使用可能です。
k-3-646,HTMLタグ "img" は  "10"回まで使用可能です。
k-3-647,HTMLタグ "img" は  "10"回まで使用可能です。
k-3-648,HTMLタグ "img" は  "10"回まで使用可能です。
k-3-650,HTMLタグ "img" は  "10"回まで使用可能です。
k-3-651,HTMLタグ "img" は  "10"回まで使用可能です。
k-3-652,HTMLタグ "img" は  "10"回まで使用可能です。
k-3-653,HTMLタグ "img" は  "10"回まで使用可能です。
k-3-654,HTMLタグ "img" は  "10"回まで使用可能です。
k-3-655,HTMLタグ "img" は  "10"回まで使用可能です。
k-3-656,HTMLタグ "img" は  "10"回まで使用可能です。
k-3-657,HTMLタグ "img" は  "10"回まで使用可能です。
k-3-658,HTMLタグ "img" は  "10"回まで使用可能です。
k-3-659,HTMLタグ "img" は  "10"回まで使用可能です。
k-3-660,HTMLタグ "img" は  "10"回まで使用可能です。
k-3-700,HTMLタグ "img" は  "10"回まで使用可能です。
k-3-701,HTMLタグ "img" は  "10"回まで使用可能です。
k-3-702,HTMLタグ "img" は  "10"回まで使用可能です。
k-3-703,HTMLタグ "img" は  "10"回まで使用可能です。
k-3-705,HTMLタグ "img" は  "10"回まで使用可能です。
k-3-706,HTMLタグ "img" は  "10"回まで使用可能です。
k-3-710,HTMLタグ "img" は  "10"回まで使用可能です。
k-3-711,HTMLタグ "img" は  "10"回まで使用可能です。
k-3-712,HTMLタグ "img" は  "10"回まで使用可能です。
k-3-713,HTMLタグ "img" は  "10"回まで使用可能です。
k-3-714,HTMLタグ "img" は  "10"回まで使用可能です。
k-3-715,HTMLタグ "img" は  "10"回まで使用可能です。
k-3-719,HTMLタグ "img" は  "10"回まで使用可能です。
k-3-720,HTMLタグ "img" は  "10"回まで使用可能です。
k-3-721,HTMLタグ "img" は  "10"回まで使用可能です。
k-3-722,HTMLタグ "img" は  "10"回まで使用可能です。
k-3-723,HTMLタグ "img" は  "10"回まで使用可能です。
k-3-726,HTMLタグ "img" は  "10"回まで使用可能です。
k-3-730,HTMLタグ "img" は  "10"回まで使用可能です。
k-3-731,HTMLタグ "img" は  "10"回まで使用可能です。
k-3-732,HTMLタグ "img" は  "10"回まで使用可能です。
k-3-733,HTMLタグ "img" は  "10"回まで使用可能です。
k-3-736,HTMLタグ "img" は  "10"回まで使用可能です。
k-3-737,HTMLタグ "img" は  "10"回まで使用可能です。
k-3-739,HTMLタグ "img" は  "10"回まで使用可能です。
k-3-740,HTMLタグ "img" は  "10"回まで使用可能です。
k-3-743,PC用販売説明文が長すぎます。最大で10240byteまでです。
k-3-744,HTMLタグ "img" は  "10"回まで使用可能です。
k-3-745,HTMLタグ "img" は  "10"回まで使用可能です。
k-3-749,HTMLタグ "img" は  "10"回まで使用可能です。
k-3-767,HTMLタグ "img" は  "10"回まで使用可能です。
k-3-768,HTMLタグ "img" は  "10"回まで使用可能です。
k-3-769,HTMLタグ "img" は  "10"回まで使用可能です。
k-3-770,HTMLタグ "img" は  "10"回まで使用可能です。
k-3-771,HTMLタグ "img" は  "10"回まで使用可能です。
k-3-772,HTMLタグ "img" は  "10"回まで使用可能です。
k-3-773,HTMLタグ "img" は  "10"回まで使用可能です。
k-3-775,HTMLタグ "img" は  "10"回まで使用可能です。
k-3-776,HTMLタグ "img" は  "10"回まで使用可能です。
k-3-777,HTMLタグ "img" は  "10"回まで使用可能です。
k-3-778,HTMLタグ "img" は  "10"回まで使用可能です。
k-3-781,HTMLタグ "img" は  "10"回まで使用可能です。
k-3-784,HTMLタグ "img" は  "10"回まで使用可能です。
k-3-786,HTMLタグ "img" は  "10"回まで使用可能です。
k-3-788,HTMLタグ "img" は  "10"回まで使用可能です。
k-3-789,HTMLタグ "img" は  "10"回まで使用可能です。
k-3-791,HTMLタグ "img" は  "10"回まで使用可能です。
k-3-792,HTMLタグ "img" は  "10"回まで使用可能です。
k-3-793,HTMLタグ "img" は  "10"回まで使用可能です。
k-3-794,HTMLタグ "img" は  "10"回まで使用可能です。
k-3-795,HTMLタグ "img" は  "10"回まで使用可能です。
k-3-796,HTMLタグ "img" は  "10"回まで使用可能です。
k-3-797,HTMLタグ "img" は  "10"回まで使用可能です。
k-3-798,HTMLタグ "img" は  "10"回まで使用可能です。
k-3-799,HTMLタグ "img" は  "10"回まで使用可能です。
k-3-800,HTMLタグ "img" は  "10"回まで使用可能です。
k-3-801,HTMLタグ "img" は  "10"回まで使用可能です。
k-3-804,HTMLタグ "img" は  "10"回まで使用可能です。
k-3-805,HTMLタグ "img" は  "10"回まで使用可能です。
k-3-807,HTMLタグ "img" は  "10"回まで使用可能です。
k-3-809,HTMLタグ "img" は  "10"回まで使用可能です。
k-3-811,HTMLタグ "img" は  "10"回まで使用可能です。
k-3-812,HTMLタグ "img" は  "10"回まで使用可能です。
k-3-814,HTMLタグ "img" は  "10"回まで使用可能です。
k-3-816,HTMLタグ "img" は  "10"回まで使用可能です。
k-3-819,HTMLタグ "img" は  "10"回まで使用可能です。
k-3-822,HTMLタグ "img" は  "10"回まで使用可能です。
