ymm0645,1つのカテゴリに同じ商品が属するような設定はできません。,雑煮椀 うさぎ唐草 黒内朱 総朱 ペア,"メニュー\予算で選ぶ\3,001円~5,000円",3
ymm0645,1つの商品は６カテゴリ以上に属する事はできません。,雑煮椀 うさぎ唐草 黒内朱 総朱 ペア,"メニュー\予算で選ぶ\3,001円~5,000円",3
ymm0645,1つのカテゴリに同じ商品が属するような設定はできません。,雑煮椀 うさぎ唐草 黒内朱 総朱 ペア,メニュー\食卓で使う\食べる\汁椀・吸物椀,3
ymm0645,1つの商品は６カテゴリ以上に属する事はできません。,雑煮椀 うさぎ唐草 黒内朱 総朱 ペア,メニュー\食卓で使う\食べる\汁椀・吸物椀,3
ymm0645,1つのカテゴリに同じ商品が属するような設定はできません。,雑煮椀 うさぎ唐草 黒内朱 総朱 ペア,メニュー\産地で選ぶ\石川県\山中漆器,3
ymm0645,1つの商品は６カテゴリ以上に属する事はできません。,雑煮椀 うさぎ唐草 黒内朱 総朱 ペア,メニュー\産地で選ぶ\石川県\山中漆器,3
ymm0645,1つのカテゴリに同じ商品が属するような設定はできません。,雑煮椀 うさぎ唐草 黒内朱 総朱 ペア,メニュー\祝う\祝い事\結婚祝い,3
ymm0645,1つの商品は６カテゴリ以上に属する事はできません。,雑煮椀 うさぎ唐草 黒内朱 総朱 ペア,メニュー\祝う\祝い事\結婚祝い,3
ymm0645,1つのカテゴリに同じ商品が属するような設定はできません。,雑煮椀 うさぎ唐草 黒内朱 総朱 ペア,メニュー\祝う\祝い事\内祝い\その他内祝い,3
ymm0645,1つの商品は６カテゴリ以上に属する事はできません。,雑煮椀 うさぎ唐草 黒内朱 総朱 ペア,メニュー\祝う\祝い事\内祝い\その他内祝い,3
