w50-18,カテゴリの更新はできません。カテゴリ名称を変更したい場合は該当削除してから、再度カテゴリを新規登録してください。商品を別のカテゴリに入れたい場合は、商品とカテゴリの紐付けを削除し、再度商品とカテゴリの紐付けを行ってください。,【山中漆器】茶托 ダルマ型 溜塗 5枚セット 湯呑 コースター,メニュー\食卓で使う\置く\茶托,3
w50-9,カテゴリの更新はできません。カテゴリ名称を変更したい場合は該当削除してから、再度カテゴリを新規登録してください。商品を別のカテゴリに入れたい場合は、商品とカテゴリの紐付けを削除し、再度商品とカテゴリの紐付けを行ってください。,【山中漆器】茶托 栃 象谷 拭漆 5枚セット 湯呑 コースター,メニュー\食卓で使う\置く\茶托,2
w51-15,カテゴリの更新はできません。カテゴリ名称を変更したい場合は該当削除してから、再度カテゴリを新規登録してください。商品を別のカテゴリに入れたい場合は、商品とカテゴリの紐付けを削除し、再度商品とカテゴリの紐付けを行ってください。,【山中漆器】KEURAプレート(S) 5枚セット 茶托 湯呑 コースター,メニュー\食卓で使う\置く\茶托,5
w51-4,カテゴリの更新はできません。カテゴリ名称を変更したい場合は該当削除してから、再度カテゴリを新規登録してください。商品を別のカテゴリに入れたい場合は、商品とカテゴリの紐付けを削除し、再度商品とカテゴリの紐付けを行ってください。,【山中漆器】茶托 白木塗 5枚セット 湯呑 コースター,メニュー\食卓で使う\置く\茶托,4
ysmt-27,カテゴリの更新はできません。カテゴリ名称を変更したい場合は該当削除してから、再度カテゴリを新規登録してください。商品を別のカテゴリに入れたい場合は、商品とカテゴリの紐付けを削除し、再度商品とカテゴリの紐付けを行ってください。,【 山中漆器 】栓55乱筋厚茶托 茜 5P,メニュー\食卓で使う\置く\茶托,1
ysmt-28,カテゴリの更新はできません。カテゴリ名称を変更したい場合は該当削除してから、再度カテゴリを新規登録してください。商品を別のカテゴリに入れたい場合は、商品とカテゴリの紐付けを削除し、再度商品とカテゴリの紐付けを行ってください。,【 山中漆器 】栓55乱筋厚茶托 神代 5P,メニュー\食卓で使う\置く\茶托,1
ysob-15,カテゴリの更新はできません。カテゴリ名称を変更したい場合は該当削除してから、再度カテゴリを新規登録してください。商品を別のカテゴリに入れたい場合は、商品とカテゴリの紐付けを削除し、再度商品とカテゴリの紐付けを行ってください。,【 山中漆器 】茶托 焼桐 長角,メニュー\食卓で使う\置く\茶托,1
ysob-16,カテゴリの更新はできません。カテゴリ名称を変更したい場合は該当削除してから、再度カテゴリを新規登録してください。商品を別のカテゴリに入れたい場合は、商品とカテゴリの紐付けを削除し、再度商品とカテゴリの紐付けを行ってください。,【 山中漆器 】4.0 茶托 栃 象谷 拭き漆 5枚,メニュー\食卓で使う\置く\茶托,1
ysob-18,カテゴリの更新はできません。カテゴリ名称を変更したい場合は該当削除してから、再度カテゴリを新規登録してください。商品を別のカテゴリに入れたい場合は、商品とカテゴリの紐付けを削除し、再度商品とカテゴリの紐付けを行ってください。,【 山中漆器 】4.2 茶托 羽反 溜 5枚,メニュー\食卓で使う\置く\茶托,1
ysob-19,カテゴリの更新はできません。カテゴリ名称を変更したい場合は該当削除してから、再度カテゴリを新規登録してください。商品を別のカテゴリに入れたい場合は、商品とカテゴリの紐付けを削除し、再度商品とカテゴリの紐付けを行ってください。,【 山中漆器 】4.5茶托 桔梗型 根来 5枚,メニュー\食卓で使う\置く\茶托,1
ysob-63,カテゴリの更新はできません。カテゴリ名称を変更したい場合は該当削除してから、再度カテゴリを新規登録してください。商品を別のカテゴリに入れたい場合は、商品とカテゴリの紐付けを削除し、再度商品とカテゴリの紐付けを行ってください。,【 山中漆器 】角茶托 欅 拭き漆 5枚,メニュー\食卓で使う\置く\茶托,1
ysob-64,カテゴリの更新はできません。カテゴリ名称を変更したい場合は該当削除してから、再度カテゴリを新規登録してください。商品を別のカテゴリに入れたい場合は、商品とカテゴリの紐付けを削除し、再度商品とカテゴリの紐付けを行ってください。,【 山中漆器 】隅切茶托 杉 黒塗 5枚,メニュー\食卓で使う\置く\茶托,1
ysob-65,カテゴリの更新はできません。カテゴリ名称を変更したい場合は該当削除してから、再度カテゴリを新規登録してください。商品を別のカテゴリに入れたい場合は、商品とカテゴリの紐付けを削除し、再度商品とカテゴリの紐付けを行ってください。,【 山中漆器 】4.0 茶托 欅 平目 独楽 5枚,メニュー\食卓で使う\置く\茶托,1
ysob-66,カテゴリの更新はできません。カテゴリ名称を変更したい場合は該当削除してから、再度カテゴリを新規登録してください。商品を別のカテゴリに入れたい場合は、商品とカテゴリの紐付けを削除し、再度商品とカテゴリの紐付けを行ってください。,【 山中漆器 】4.5 茶托 欅 だるま型 赤すリ,メニュー\食卓で使う\置く\茶托,1
ysob-67,カテゴリの更新はできません。カテゴリ名称を変更したい場合は該当削除してから、再度カテゴリを新規登録してください。商品を別のカテゴリに入れたい場合は、商品とカテゴリの紐付けを削除し、再度商品とカテゴリの紐付けを行ってください。,【 山中漆器 】4.5 茶托 欅 黒 七宝 5枚,メニュー\食卓で使う\置く\茶托,1
