12058,1つのカテゴリに同じ商品が属するような設定はできません。,南部鉄器 急須ポワール黒 ギフト プレゼント 新築祝い 退職祝い 還暦祝い 誕生日祝い,メニュー\食卓で使う\飲む\ポット・急須,999999999
12326,1つのカテゴリに同じ商品が属するような設定はできません。,南部鉄器 急須5型線引ダマン青 ギフト プレゼント 新築祝い 退職祝い 還暦祝い 誕生日祝い,メニュー\食卓で使う\飲む\ポット・急須,999999999
12363,1つのカテゴリに同じ商品が属するような設定はできません。,南部鉄器 急須3型線引ダマン青 ギフト プレゼント 新築祝い 退職祝い 還暦祝い 誕生日祝い,メニュー\食卓で使う\飲む\ポット・急須,999999999
12426,1つのカテゴリに同じ商品が属するような設定はできません。,南部鉄器 急須5型線引若草 ギフト プレゼント 新築祝い 退職祝い 還暦祝い 誕生日祝い,メニュー\食卓で使う\飲む\ポット・急須,999999999
12463,1つのカテゴリに同じ商品が属するような設定はできません。,南部鉄器 急須3型線引若草 ギフト プレゼント 新築祝い 退職祝い 還暦祝い 誕生日祝い,メニュー\食卓で使う\飲む\ポット・急須,999999999
12627,1つのカテゴリに同じ商品が属するような設定はできません。,南部鉄器 急須マロン赤茶艶消 ギフト プレゼント 新築祝い 退職祝い 還暦祝い 誕生日祝い,メニュー\食卓で使う\飲む\ポット・急須,999999999
12727,1つのカテゴリに同じ商品が属するような設定はできません。,南部鉄器 急須マロン若草艶消 ギフト プレゼント 新築祝い 退職祝い 還暦祝い 誕生日祝い,メニュー\食卓で使う\飲む\ポット・急須,999999999
1522-02,1つのカテゴリに同じ商品が属するような設定はできません。,五膳箸揃 果実,メニュー\食卓で使う\食べる\箸,999999999
17093,1つのカテゴリに同じ商品が属するような設定はできません。,トリベット（小）黒艶消,メニュー\食卓で使う\置く\鍋敷き,999999999
17093,1つのカテゴリに同じ商品が属するような設定はできません。,南部鉄器 トリベット（小）黒艶消 ギフト プレゼント 新築祝い 退職祝い 還暦祝い 誕生日祝い,メニュー\食卓で使う\飲む\ポット・急須,999999999
17193,1つのカテゴリに同じ商品が属するような設定はできません。,トリベット（小）赤茶艶消,メニュー\食卓で使う\置く\鍋敷き,999999999
17193,1つのカテゴリに同じ商品が属するような設定はできません。,南部鉄器 トリベット（小）赤茶艶消 ギフト プレゼント 新築祝い 退職祝い 還暦祝い 誕生日祝い,メニュー\食卓で使う\飲む\ポット・急須,999999999
17493,1つのカテゴリに同じ商品が属するような設定はできません。,トリベット（小）若草艶消,メニュー\食卓で使う\置く\鍋敷き,999999999
17493,1つのカテゴリに同じ商品が属するような設定はできません。,南部鉄器 トリベット（小）若草艶消 ギフト プレゼント 新築祝い 退職祝い 還暦祝い 誕生日祝い,メニュー\食卓で使う\飲む\ポット・急須,999999999
2v-711,1つのカテゴリに同じ商品が属するような設定はできません。,山中漆器 漆芸マウスパッド 赤富士 (黒),メニュー\書斎で使う\マウスパッド,999999999
2v-712,1つのカテゴリに同じ商品が属するような設定はできません。,山中漆器 漆芸マウスパッド 波 (黒),メニュー\書斎で使う\マウスパッド,999999999
2v-719,1つのカテゴリに同じ商品が属するような設定はできません。,山中漆器 漆芸マウスパッド 風神雷神 (金),メニュー\書斎で使う\マウスパッド,999999999
2v-723,1つのカテゴリに同じ商品が属するような設定はできません。,山中漆器 漆芸マウスパッド 富士桜 (赤),メニュー\書斎で使う\マウスパッド,999999999
2v-727,1つのカテゴリに同じ商品が属するような設定はできません。,山中漆器 漆芸マウスパッド 紅富士 (赤),メニュー\書斎で使う\マウスパッド,999999999
3l-624,1つのカテゴリに同じ商品が属するような設定はできません。,山中漆器 ボールペン 富士桜 (黒),メニュー\書斎で使う\ペン,999999999
3l-706,1つのカテゴリに同じ商品が属するような設定はできません。,山中漆器 ボールペン 春秋 (黒),メニュー\書斎で使う\ペン,999999999
3v-339,1つのカテゴリに同じ商品が属するような設定はできません。,山中漆器 漆芸カードケース 富士桜,メニュー\書斎で使う\カードケース,999999999
3v-341,1つのカテゴリに同じ商品が属するような設定はできません。,山中漆器 漆芸カードケース 赤富士,メニュー\書斎で使う\カードケース,999999999
3v-342,1つのカテゴリに同じ商品が属するような設定はできません。,山中漆器 漆芸カードケース 波,メニュー\書斎で使う\カードケース,999999999
3v-348,1つのカテゴリに同じ商品が属するような設定はできません。,山中漆器 漆芸カードケース 三保の松原と富士山,メニュー\書斎で使う\カードケース,999999999
3v-351,1つのカテゴリに同じ商品が属するような設定はできません。,山中漆器 漆芸カードケース 雅鶴,メニュー\書斎で使う\カードケース,999999999
4-03,1つのカテゴリに同じ商品が属するような設定はできません。,高岡銅器 タンブラー ロング ギフト プレゼント 退職祝い 還暦祝い,メニュー\食卓で使う\呑む\ビアカップ,999999999
4l-217,1つのカテゴリに同じ商品が属するような設定はできません。,山中漆器 漆芸ルーペ 富士桜 (黒),メニュー\書斎で使う\ルーペ,999999999
4l-221,1つのカテゴリに同じ商品が属するような設定はできません。,山中漆器 漆芸ルーペ 赤富士 (黒),メニュー\書斎で使う\ルーペ,999999999
4l-222,1つのカテゴリに同じ商品が属するような設定はできません。,山中漆器 漆芸ルーペ 波 (黒),メニュー\書斎で使う\ルーペ,999999999
4l-225,1つのカテゴリに同じ商品が属するような設定はできません。,山中漆器 漆芸ルーペ 波 (赤),メニュー\書斎で使う\ルーペ,999999999
4l-229,1つのカテゴリに同じ商品が属するような設定はできません。,山中漆器 漆芸ルーペ 風神雷神 (金),メニュー\書斎で使う\ルーペ,999999999
4l-613,1つのカテゴリに同じ商品が属するような設定はできません。,山中漆器 ボールペン 風神雷神 (黒),メニュー\書斎で使う\ペン,999999999
501190,1つのカテゴリに同じ商品が属するような設定はできません。,箸置 - [８] - ２ヶ入 錫 能作 ギフト プレゼント 引き出物,メニュー\食卓で使う\置く\箸置き,999999999
501240,1つのカテゴリに同じ商品が属するような設定はできません。,能作 片口-ちょろりん,メニュー\食卓で使う\呑む\徳利・盃,999999999
501300,1つのカテゴリに同じ商品が属するような設定はできません。,能作 竹形酒器揃え お猪口 徳利 退職祝い 還暦祝い,メニュー\食卓で使う\呑む\徳利・盃,999999999
501330,1つのカテゴリに同じ商品が属するような設定はできません。,能作 ビアカップ ギフト プレゼント 退職祝い 還暦祝い,メニュー\食卓で使う\呑む\ビアカップ,999999999
501331,1つのカテゴリに同じ商品が属するような設定はできません。,能作 ビアカップ L ギフト プレゼント 退職祝い 還暦祝い,メニュー\食卓で使う\呑む\ビアカップ,999999999
501332,1つのカテゴリに同じ商品が属するような設定はできません。,能作 カップ ギフト プレゼント 退職祝い 還暦祝い,メニュー\食卓で使う\呑む\ビアカップ,999999999
501340,1つのカテゴリに同じ商品が属するような設定はできません。,能作 タンブラー ギフト プレゼント 退職祝い 還暦祝い,メニュー\食卓で使う\呑む\タンブラー,999999999
501341,1つのカテゴリに同じ商品が属するような設定はできません。,能作 NAJIMIタンブラー ギフト プレゼント 退職祝い 還暦祝い,メニュー\食卓で使う\呑む\タンブラー,999999999
501712,1つのカテゴリに同じ商品が属するような設定はできません。,能作 箸置き 結び ギフト プレゼント 内祝い 引き出物 新築祝い,メニュー\食卓で使う\置く\箸置き,999999999
501770,1つのカテゴリに同じ商品が属するような設定はできません。,能作 箸置き 桜 5ヶ入 ギフト プレゼント 内祝い 引き出物 新築祝い,メニュー\食卓で使う\置く\箸置き,999999999
505221057-5s,1つのカテゴリに同じ商品が属するような設定はできません。,S&B Espresso Cup 5 set,メニュー\食卓で使う\飲む\コップ・グラス,999999999
505221066-5s,1つのカテゴリに同じ商品が属するような設定はできません。,S&B Mug 5 set,メニュー\食卓で使う\飲む\マグカップ,999999999
505221069,1つのカテゴリに同じ商品が属するような設定はできません。,S＆B Mug LightBrown マグ カップ ギフト プレゼント 結婚祝い 引き出物 内祝,メニュー\食卓で使う\飲む\マグカップ,999999999
505221070,1つのカテゴリに同じ商品が属するような設定はできません。,S＆B Mug White マグ カップ ギフト プレゼント 結婚祝い 引き出物 内祝,メニュー\食卓で使う\飲む\マグカップ,999999999
505221077,1つのカテゴリに同じ商品が属するような設定はできません。,S＆B Tea Pot Blue ギフト プレゼント 新築祝い 結婚祝い,メニュー\食卓で使う\飲む\ポット・急須,999999999
511220,1つのカテゴリに同じ商品が属するような設定はできません。,能作 片口-小 金箔,メニュー\食卓で使う\呑む\徳利・盃,999999999
6l-201,1つのカテゴリに同じ商品が属するような設定はできません。,山中漆器 ボールペン 紅富士 (金),メニュー\書斎で使う\ペン,999999999
7l-918,1つのカテゴリに同じ商品が属するような設定はできません。,山中漆器 漆芸USBメモリ 富士桜,メニュー\書斎で使う\USBメモリ,999999999
7l-919,1つのカテゴリに同じ商品が属するような設定はできません。,山中漆器 漆芸USBメモリ 金閣寺,メニュー\書斎で使う\USBメモリ,999999999
7l-920,1つのカテゴリに同じ商品が属するような設定はできません。,山中漆器 漆芸USBメモリ 日本橋,メニュー\書斎で使う\USBメモリ,999999999
7l-921,1つのカテゴリに同じ商品が属するような設定はできません。,山中漆器 漆芸USBメモリ 赤富士,メニュー\書斎で使う\USBメモリ,999999999
7l-926,1つのカテゴリに同じ商品が属するような設定はできません。,山中漆器 漆芸USBメモリ 雅鶴,メニュー\書斎で使う\USBメモリ,999999999
9a-230,1つのカテゴリに同じ商品が属するような設定はできません。,山中漆器 汁椀ペア マロン 水目桜 お椀 ギフト プレゼント,メニュー\食卓で使う\食べる\ボウル,999999999
ck-27,1つのカテゴリに同じ商品が属するような設定はできません。,伊賀焼 キャセロールマイン アメ ギフト プレゼント 新築祝い 長谷園,メニュー\台所で使う\鍋・釜,999999999
ck-28,1つのカテゴリに同じ商品が属するような設定はできません。,伊賀焼 キャセロールマイン用 耐熱プレート 黒 ギフト プレゼント 新築祝い 長谷園,メニュー\食卓で使う\置く\鍋敷き,999999999
ck-33,1つのカテゴリに同じ商品が属するような設定はできません。,伊賀焼 薬味入れ ちびかまど ギフト プレゼント 引き出物 内祝 新築祝い 出産祝い 長谷園,メニュー\食卓で使う\小物\調味料入れ,999999999
ck-34,1つのカテゴリに同じ商品が属するような設定はできません。,伊賀焼 薬味入れ ちびタジン ギフト プレゼント 引き出物 内祝 新築祝い 出産祝い 長谷園,メニュー\食卓で使う\小物\調味料入れ,999999999
ck-35,1つのカテゴリに同じ商品が属するような設定はできません。,伊賀焼 薬味入れ ちびどなべ アメ ギフト プレゼント 引き出物 内祝 新築祝い 出産祝い 長谷園,メニュー\食卓で使う\小物\調味料入れ,999999999
ck-36,1つのカテゴリに同じ商品が属するような設定はできません。,伊賀焼 薬味入れ ちびどなべ シロ ギフト プレゼント 引き出物 内祝 新築祝い 出産祝い 長谷園,メニュー\食卓で使う\小物\調味料入れ,999999999
ct-01,1つのカテゴリに同じ商品が属するような設定はできません。,かまどさん 三合炊き,メニュー\台所で使う\鍋・釜,999999999
ct-03,1つのカテゴリに同じ商品が属するような設定はできません。,かまどさん 二合炊き,メニュー\台所で使う\鍋・釜,999999999
k-4-1109,1つのカテゴリに同じ商品が属するような設定はできません。,九谷焼 ペアフリーカップ 金銀彩,メニュー\食卓で使う\呑む\フリーカップ,999999999
k-4-1115,1つのカテゴリに同じ商品が属するような設定はできません。,九谷焼 ペアフリーカップ 銀彩,メニュー\食卓で使う\呑む\フリーカップ,999999999
k-4-1176,1つのカテゴリに同じ商品が属するような設定はできません。,九谷焼 ペアワインカップ 花紋,メニュー\食卓で使う\呑む\ワイングラス,999999999
k-4-1177,1つのカテゴリに同じ商品が属するような設定はできません。,九谷焼 ペアワインカップ 椿尽くし,メニュー\食卓で使う\呑む\ワイングラス,999999999
k-4-1178,1つのカテゴリに同じ商品が属するような設定はできません。,九谷焼 ペアワインカップ 色変り花詰,メニュー\食卓で使う\呑む\ワイングラス,999999999
k-4-1756,1つのカテゴリに同じ商品が属するような設定はできません。,九谷焼 4号ふくろう 花盛,メニュー\飾る\置物\ふくろう,999999999
k-4-184,1つのカテゴリに同じ商品が属するような設定はできません。,九谷焼 8号お皿セット 古九谷花鳥,メニュー\食卓で使う\食べる\皿,999999999
k-4-330,1つのカテゴリに同じ商品が属するような設定はできません。,九谷焼 夫婦茶椀 青磁椿,メニュー\食卓で使う\食べる\茶碗,999999999
k-4-375,1つのカテゴリに同じ商品が属するような設定はできません。,九谷焼 お茶碗・湯呑ペアセット 銀彩,メニュー\食卓で使う\飲む\湯呑,999999999
k-4-375,1つのカテゴリに同じ商品が属するような設定はできません。,九谷焼 お茶碗・湯呑ペアセット 銀彩,メニュー\食卓で使う\食べる\茶碗,999999999
k-4-545,1つのカテゴリに同じ商品が属するような設定はできません。,醤油差し 富士としだれ桜,メニュー\食卓で使う\小物\醤油さし,999999999
k-4-551-h,1つのカテゴリに同じ商品が属するような設定はできません。,醤油差し・赤絵花柄,メニュー\食卓で使う\小物\醤油さし,999999999
k-4-555,1つのカテゴリに同じ商品が属するような設定はできません。,九谷焼 スプーンセット 絵変り,メニュー\食卓で使う\食べる\スプーン,999999999
k-4-556,1つのカテゴリに同じ商品が属するような設定はできません。,九谷焼 ﾍﾟｱ折鶴箸置 金箔ちらし,メニュー\食卓で使う\置く\箸置き,999999999
k-4-566,1つのカテゴリに同じ商品が属するような設定はできません。,箸置 赤絵小紋 ギフト プレゼント 引き出物,メニュー\食卓で使う\置く\箸置き,999999999
k-4-609,1つのカテゴリに同じ商品が属するような設定はできません。,九谷焼 ポット急須 銀彩金箔ちらし,メニュー\食卓で使う\飲む\ポット・急須,999999999
k-4-643,1つのカテゴリに同じ商品が属するような設定はできません。,九谷焼 湯呑 ふくろう,メニュー\食卓で使う\飲む\湯呑,999999999
k-4-724,1つのカテゴリに同じ商品が属するような設定はできません。,九谷焼 夫婦湯呑 郷愁,メニュー\食卓で使う\飲む\湯呑,999999999
k-4-888,1つのカテゴリに同じ商品が属するような設定はできません。,九谷焼 マグカップ 萩,メニュー\食卓で使う\飲む\マグカップ,999999999
k-4-967,1つのカテゴリに同じ商品が属するような設定はできません。,九谷焼 ペアマグカップ 絆,メニュー\食卓で使う\飲む\マグカップ,999999999
k-4-976,1つのカテゴリに同じ商品が属するような設定はできません。,九谷焼 ペアマグカップ 銀彩金箔ちらし,メニュー\食卓で使う\飲む\マグカップ,999999999
n-02,1つのカテゴリに同じ商品が属するような設定はできません。,箸置 吉祥紋様5客セット,メニュー\食卓で使う\置く\箸置き,999999999
od-1-b,1つのカテゴリに同じ商品が属するような設定はできません。,デュエット マグ S ブラウン マグカップ ギフト プレゼント 結婚祝い 新築祝い 内祝 引き出物,メニュー\食卓で使う\飲む\マグカップ,999999999
od-1-w,1つのカテゴリに同じ商品が属するような設定はできません。,デュエット マグ S ホワイト マグカップ ギフト プレゼント 結婚祝い 新築祝い 内祝 引き出物,メニュー\食卓で使う\飲む\マグカップ,999999999
od-7-b,1つのカテゴリに同じ商品が属するような設定はできません。,デュエット マグ L ブラウン ギフト プレゼント マグカップ 結婚祝い 新築祝い 内祝 引き出物,メニュー\食卓で使う\飲む\マグカップ,999999999
od-7-w,1つのカテゴリに同じ商品が属するような設定はできません。,デュエット マグ L ホワイト ギフト プレゼント マグカップ 結婚祝い 新築祝い 内祝 引き出物,メニュー\食卓で使う\飲む\マグカップ,999999999
om-1,1つのカテゴリに同じ商品が属するような設定はできません。,モデラート カップ＆ソーサー コーヒー カップ 結婚祝い 出産祝い 内祝 引き出物,メニュー\食卓で使う\飲む\コーヒーカップ,999999999
om-10,1つのカテゴリに同じ商品が属するような設定はできません。,モデラート マグ コーヒー マグカップ 結婚祝い 出産祝い 内祝 引き出物,メニュー\食卓で使う\飲む\マグカップ,999999999
om-10,1つのカテゴリに同じ商品が属するような設定はできません。,モデラート マグ コーヒー マグカップ 結婚祝い 出産祝い 内祝 引き出物,メニュー\食卓で使う\飲む\コーヒーカップ,999999999
om-2,1つのカテゴリに同じ商品が属するような設定はできません。,モデラート ハイカップ＆ソーサー コーヒー カップ 結婚祝い 出産祝い 内祝 引き出物,メニュー\食卓で使う\飲む\コーヒーカップ,999999999
om-4,1つのカテゴリに同じ商品が属するような設定はできません。,モデラート シュガー 砂糖入れ コーヒー 結婚祝い 出産祝い 内祝 引き出物,メニュー\食卓で使う\飲む\コーヒーカップ,999999999
u113-13-14,1つのカテゴリに同じ商品が属するような設定はできません。,【 山中漆器 】夫婦箸 凛,メニュー\食卓で使う\食べる\箸,999999999
w128-13,1つのカテゴリに同じ商品が属するような設定はできません。,山中漆器 小判盆付 お子様椀揃え 女の子 お椀 子ども,メニュー\食卓で使う\食べる\茶碗,999999999
w128-13,1つのカテゴリに同じ商品が属するような設定はできません。,山中漆器 小判盆付 お子様椀揃え 女の子 お椀 子ども,メニュー\食卓で使う\食べる\ボウル,999999999
w128-13,1つのカテゴリに同じ商品が属するような設定はできません。,山中漆器 小判盆付 お子様椀揃え 女の子 お椀 子ども,メニュー\食卓で使う\置く\お盆,999999999
w128-13,1つの商品は６カテゴリ以上に属する事はできません。,山中漆器 小判盆付 お子様椀揃え 女の子 お椀 子ども,メニュー\食卓で使う\置く\お盆,999999999
w128-14,1つのカテゴリに同じ商品が属するような設定はできません。,山中漆器 小判盆付 お子様椀揃え 男の子 お椀 子ども,メニュー\食卓で使う\食べる\茶碗,999999999
w128-14,1つのカテゴリに同じ商品が属するような設定はできません。,山中漆器 小判盆付 お子様椀揃え 男の子 お椀 子ども,メニュー\食卓で使う\食べる\ボウル,999999999
w128-14,1つのカテゴリに同じ商品が属するような設定はできません。,山中漆器 小判盆付 お子様椀揃え 男の子 お椀 子ども,メニュー\食卓で使う\置く\お盆,999999999
w128-14,1つの商品は６カテゴリ以上に属する事はできません。,山中漆器 小判盆付 お子様椀揃え 男の子 お椀 子ども,メニュー\食卓で使う\置く\お盆,999999999
w86-2,1つのカテゴリに同じ商品が属するような設定はできません。,山中漆器 欅 しっとりカップ ブラウン(L) 金線 ギフト プレゼント 退職祝い 還暦祝い カップ コップ,メニュー\食卓で使う\飲む\コップ・グラス,999999999
w86-4,1つのカテゴリに同じ商品が属するような設定はできません。,しっとりカップ ナチュラル(L),メニュー\食卓で使う\飲む\コップ・グラス,999999999
w86-5,1つのカテゴリに同じ商品が属するような設定はできません。,山中漆器 欅 しっとりカップ カラフル (S) ギフト プレゼント 出産祝い 子ども カップ コップ,メニュー\食卓で使う\飲む\コップ・グラス,999999999
w96-4,1つのカテゴリに同じ商品が属するような設定はできません。,山中漆器 うすびきボウル 欅 白拭漆 お椀 ギフト プレゼント,メニュー\食卓で使う\食べる\ボウル,999999999
yd-15-b,1つのカテゴリに同じ商品が属するような設定はできません。,楊枝だるま マフラー ブルー 爪楊枝 楊枝入れ ギフト プレゼント 引き出物 内祝 結婚祝い 新築祝い,メニュー\食卓で使う\小物\楊枝入れ,999999999
yd-15-g,1つのカテゴリに同じ商品が属するような設定はできません。,楊枝だるま マフラー  グリーン 爪楊枝 楊枝入れ ギフト プレゼント 引き出物 内祝 結婚祝い 新築祝い,メニュー\食卓で使う\小物\楊枝入れ,999999999
yd-15-p,1つのカテゴリに同じ商品が属するような設定はできません。,楊枝だるま マフラー ピンク 爪楊枝 楊枝入れ ギフト プレゼント 引き出物 内祝 結婚祝い 新築祝い,メニュー\食卓で使う\小物\楊枝入れ,999999999
yd-2,1つのカテゴリに同じ商品が属するような設定はできません。,楊枝だるま 爪楊枝 楊枝入れ ギフト プレゼント 引き出物 内祝 結婚祝い 新築祝い,メニュー\食卓で使う\小物\楊枝入れ,999999999
