1616001s,商品画像名（ALT）欄で指定できる画像名ALTは9つまでです。
1616002s,商品画像名（ALT）欄で指定できる画像名ALTは9つまでです。
1616002s,商品画像URL欄で指定できる画像は9つまでです。
1616003s,商品画像名（ALT）欄で指定できる画像名ALTは9つまでです。
1616003s,商品画像URL欄で指定できる画像は9つまでです。
1616004s,商品画像名（ALT）欄で指定できる画像名ALTは9つまでです。
1616004s,商品画像URL欄で指定できる画像は9つまでです。
1616005s,商品画像名（ALT）欄で指定できる画像名ALTは9つまでです。
1616006s,商品画像名（ALT）欄で指定できる画像名ALTは9つまでです。
1616006s,商品画像URL欄で指定できる画像は9つまでです。
1616007s,5番目の商品画像URL欄にご利用いただけない文字が入っています。詳しくはオンラインマニュアルをご参照ください。
1616007s,商品画像URL欄で指定できる画像は9つまでです。
1616008s,3番目の商品画像URLが正しくありません。URLをご確認ください。
1616008s,7番目の商品画像URLの画像ファイルが正しくありません。画像ファイルは gif/jpg/jpeg/png であることを確認してください。
1616008s,商品画像URL欄で指定できる画像は9つまでです。
1616009s,商品画像URL欄で指定できる画像は9つまでです。
505221045,商品画像名（ALT）欄で指定できる画像名ALTは9つまでです。
505221047,商品画像名（ALT）欄で指定できる画像名ALTは9つまでです。
505221072,2番目の商品画像URL欄にご利用いただけない文字が入っています。詳しくはオンラインマニュアルをご参照ください。
505221072,商品画像URL欄には改行データを含めることはできません。改行コードなどを削除して再度ご登録ください。
505221072,HTMLタグ "table"に使用不可能な文字  "%"が使用されています。
