ap2-1766,PC用販売説明文欄に許可されていないURLの記載がありました。
k-2-1776,PC用販売説明文欄に許可されていないURLの記載がありました。
k-2-1791,PC用販売説明文欄に許可されていないURLの記載がありました。
k-2-1792,PC用販売説明文欄に許可されていないURLの記載がありました。
k-2-1799,PC用販売説明文欄に許可されていないURLの記載がありました。
k-2-1802,PC用販売説明文欄に許可されていないURLの記載がありました。
k-2-3125,PC用販売説明文欄に許可されていないURLの記載がありました。
k-3-1824,PC用販売説明文欄に許可されていないURLの記載がありました。
k-3-1832,PC用販売説明文欄に許可されていないURLの記載がありました。
k-3-1834,PC用販売説明文欄に許可されていないURLの記載がありました。
k-3-1835,PC用販売説明文欄に許可されていないURLの記載がありました。
k-4-1778,PC用販売説明文欄に許可されていないURLの記載がありました。
k-4-1779,PC用販売説明文欄に許可されていないURLの記載がありました。
k-4-1781,PC用販売説明文欄に許可されていないURLの記載がありました。
k-4-1783,PC用販売説明文欄に許可されていないURLの記載がありました。
k-4-1785,PC用販売説明文欄に許可されていないURLの記載がありました。
k-4-1786,PC用販売説明文欄に許可されていないURLの記載がありました。
k-4-1787,PC用販売説明文欄に許可されていないURLの記載がありました。
k-4-1788,PC用販売説明文欄に許可されていないURLの記載がありました。
k-4-1789,PC用販売説明文欄に許可されていないURLの記載がありました。
k-4-1790,PC用販売説明文欄に許可されていないURLの記載がありました。
k-4-1792,PC用販売説明文欄に許可されていないURLの記載がありました。
k-4-1794,PC用販売説明文欄に許可されていないURLの記載がありました。
k-4-1796,PC用販売説明文欄に許可されていないURLの記載がありました。
k-4-1798,PC用販売説明文欄に許可されていないURLの記載がありました。
k-4-1800,PC用販売説明文欄に許可されていないURLの記載がありました。
k-4-1801,PC用販売説明文欄に許可されていないURLの記載がありました。
k-4-1802,PC用販売説明文欄に許可されていないURLの記載がありました。
sd-22,PC用販売説明文欄に許可されていないURLの記載がありました。
sd-23,PC用販売説明文欄に許可されていないURLの記載がありました。
sd-25,PC用販売説明文欄に許可されていないURLの記載がありました。
sd-26,PC用販売説明文欄に許可されていないURLの記載がありました。
sd-28,PC用販売説明文欄に許可されていないURLの記載がありました。
sd-29,PC用販売説明文欄に許可されていないURLの記載がありました。
sd-30,PC用販売説明文欄に許可されていないURLの記載がありました。
sd-33,PC用販売説明文欄に許可されていないURLの記載がありました。
sd-35,PC用販売説明文欄に許可されていないURLの記載がありました。
sd-36,PC用販売説明文欄に許可されていないURLの記載がありました。
sd-37,PC用販売説明文欄に許可されていないURLの記載がありました。
sd-39,PC用販売説明文欄に許可されていないURLの記載がありました。
