504220069,6番目の商品画像URLの画像ファイルが正しくありません。画像ファイルは gif/jpg/jpeg/png であることを確認してください。
[INFO],古い全商品ディレクトリIDが入力されていた商品を新しい全商品ディレクトリIDに変換いたしました。自動変換サポート期間内にCSVファイルに新しい全商品ディレクトリIDを入力して商品更新をするよう変更をお願いいたします。
504220070,6番目の商品画像URLの画像ファイルが正しくありません。画像ファイルは gif/jpg/jpeg/png であることを確認してください。
504220069-n,6番目の商品画像URLの画像ファイルが正しくありません。画像ファイルは gif/jpg/jpeg/png であることを確認してください。
504220070-n,6番目の商品画像URLの画像ファイルが正しくありません。画像ファイルは gif/jpg/jpeg/png であることを確認してください。
504220070-n,あす楽配送管理番号欄に「削除」を指示する0が入力されました。新規登録時に0はご入力いただけません。
