504220001-5s,許可されないHTMLタグ "tbody" が入力されています。
504220001-5s,許可されないHTMLタグ "tbody" が入力されています。
504220001-6ss,許可されないHTMLタグ "tbody" が入力されています。
504220001-6ss,許可されないHTMLタグ "tbody" が入力されています。
504220002-5s,許可されないHTMLタグ "tbody" が入力されています。
504220002-5s,許可されないHTMLタグ "tbody" が入力されています。
504220011-5s,許可されないHTMLタグ "tbody" が入力されています。
504220011-5s,許可されないHTMLタグ "tbody" が入力されています。
504220011-6ss,許可されないHTMLタグ "tbody" が入力されています。
504220011-6ss,許可されないHTMLタグ "tbody" が入力されています。
504220012-5s,許可されないHTMLタグ "tbody" が入力されています。
504220012-5s,許可されないHTMLタグ "tbody" が入力されています。
504220017-5s,許可されないHTMLタグ "tbody" が入力されています。
504220017-5s,許可されないHTMLタグ "tbody" が入力されています。
504220017-6ss,許可されないHTMLタグ "tbody" が入力されています。
504220017-6ss,許可されないHTMLタグ "tbody" が入力されています。
504220018-5s,許可されないHTMLタグ "tbody" が入力されています。
504220018-5s,許可されないHTMLタグ "tbody" が入力されています。
505221078,許可されないHTMLタグ "tbody" が入力されています。
505221078,許可されないHTMLタグ "tbody" が入力されています。
504220069,許可されないHTMLタグ "tbody" が入力されています。
504220069,許可されないHTMLタグ "tbody" が入力されています。
504220070,許可されないHTMLタグ "tbody" が入力されています。
504220070,許可されないHTMLタグ "tbody" が入力されています。
