k-1-1658,"コントロールカラム欄に入力可能な文字はn（新規）、u（更新・変更）、d（削除）だけです。
※オークション商品の一括登録では、u（更新・変更）は入力できません。",【お子様の名入れサービス】,"木札【大】を希望(+税抜2,000円)"
k-1-1658,"コントロールカラム欄に入力可能な文字はn（新規）、u（更新・変更）、d（削除）だけです。
※オークション商品の一括登録では、u（更新・変更）は入力できません。",【お子様の名入れサービス】,"木札【小】を希望(+税抜1,500円)"
k-1-1658,"コントロールカラム欄に入力可能な文字はn（新規）、u（更新・変更）、d（削除）だけです。
※オークション商品の一括登録では、u（更新・変更）は入力できません。",【お子様の名入れサービス】,"木札【中】を希望(+税抜1,500円)"
k-1-1665,"コントロールカラム欄に入力可能な文字はn（新規）、u（更新・変更）、d（削除）だけです。
※オークション商品の一括登録では、u（更新・変更）は入力できません。",【お子様の名入れサービス】,"木札【大】を希望(+税抜2,000円)"
k-1-1665,"コントロールカラム欄に入力可能な文字はn（新規）、u（更新・変更）、d（削除）だけです。
※オークション商品の一括登録では、u（更新・変更）は入力できません。",【お子様の名入れサービス】,"木札【小】を希望(+税抜1,500円)"
k-1-1665,"コントロールカラム欄に入力可能な文字はn（新規）、u（更新・変更）、d（削除）だけです。
※オークション商品の一括登録では、u（更新・変更）は入力できません。",【お子様の名入れサービス】,"木札【中】を希望(+税抜1,500円)"
k-1-1666,"コントロールカラム欄に入力可能な文字はn（新規）、u（更新・変更）、d（削除）だけです。
※オークション商品の一括登録では、u（更新・変更）は入力できません。",【お子様の名入れサービス】,"木札【大】を希望(+税抜2,000円)"
k-1-1666,"コントロールカラム欄に入力可能な文字はn（新規）、u（更新・変更）、d（削除）だけです。
※オークション商品の一括登録では、u（更新・変更）は入力できません。",【お子様の名入れサービス】,"木札【小】を希望(+税抜1,500円)"
k-1-1666,"コントロールカラム欄に入力可能な文字はn（新規）、u（更新・変更）、d（削除）だけです。
※オークション商品の一括登録では、u（更新・変更）は入力できません。",【お子様の名入れサービス】,"木札【中】を希望(+税抜1,500円)"
k-2-1805,"コントロールカラム欄に入力可能な文字はn（新規）、u（更新・変更）、d（削除）だけです。
※オークション商品の一括登録では、u（更新・変更）は入力できません。",【お子様の名入れサービス】,"木札【大】を希望(+税抜2,000円)"
k-2-1805,"コントロールカラム欄に入力可能な文字はn（新規）、u（更新・変更）、d（削除）だけです。
※オークション商品の一括登録では、u（更新・変更）は入力できません。",【お子様の名入れサービス】,"木札【小】を希望(+税抜1,500円)"
k-2-1805,"コントロールカラム欄に入力可能な文字はn（新規）、u（更新・変更）、d（削除）だけです。
※オークション商品の一括登録では、u（更新・変更）は入力できません。",【お子様の名入れサービス】,"木札【中】を希望(+税抜1,500円)"
k-2-1806,"コントロールカラム欄に入力可能な文字はn（新規）、u（更新・変更）、d（削除）だけです。
※オークション商品の一括登録では、u（更新・変更）は入力できません。",【お子様の名入れサービス】,"木札【大】を希望(+税抜2,000円)"
k-2-1806,"コントロールカラム欄に入力可能な文字はn（新規）、u（更新・変更）、d（削除）だけです。
※オークション商品の一括登録では、u（更新・変更）は入力できません。",【お子様の名入れサービス】,"木札【小】を希望(+税抜1,500円)"
k-2-1806,"コントロールカラム欄に入力可能な文字はn（新規）、u（更新・変更）、d（削除）だけです。
※オークション商品の一括登録では、u（更新・変更）は入力できません。",【お子様の名入れサービス】,"木札【中】を希望(+税抜1,500円)"
k-2-1807,"コントロールカラム欄に入力可能な文字はn（新規）、u（更新・変更）、d（削除）だけです。
※オークション商品の一括登録では、u（更新・変更）は入力できません。",【お子様の名入れサービス】,"木札【大】を希望(+税抜2,000円)"
k-2-1807,"コントロールカラム欄に入力可能な文字はn（新規）、u（更新・変更）、d（削除）だけです。
※オークション商品の一括登録では、u（更新・変更）は入力できません。",【お子様の名入れサービス】,"木札【小】を希望(+税抜1,500円)"
k-2-1807,"コントロールカラム欄に入力可能な文字はn（新規）、u（更新・変更）、d（削除）だけです。
※オークション商品の一括登録では、u（更新・変更）は入力できません。",【お子様の名入れサービス】,"木札【中】を希望(+税抜1,500円)"
k-2-1809,"コントロールカラム欄に入力可能な文字はn（新規）、u（更新・変更）、d（削除）だけです。
※オークション商品の一括登録では、u（更新・変更）は入力できません。",【お子様の名入れサービス】,"木札【大】を希望(+税抜2,000円)"
k-2-1809,"コントロールカラム欄に入力可能な文字はn（新規）、u（更新・変更）、d（削除）だけです。
※オークション商品の一括登録では、u（更新・変更）は入力できません。",【お子様の名入れサービス】,"木札【小】を希望(+税抜1,500円)"
k-2-1809,"コントロールカラム欄に入力可能な文字はn（新規）、u（更新・変更）、d（削除）だけです。
※オークション商品の一括登録では、u（更新・変更）は入力できません。",【お子様の名入れサービス】,"木札【中】を希望(+税抜1,500円)"
k-2-1810,"コントロールカラム欄に入力可能な文字はn（新規）、u（更新・変更）、d（削除）だけです。
※オークション商品の一括登録では、u（更新・変更）は入力できません。",【お子様の名入れサービス】,"木札【大】を希望(+税抜2,000円)"
k-2-1810,"コントロールカラム欄に入力可能な文字はn（新規）、u（更新・変更）、d（削除）だけです。
※オークション商品の一括登録では、u（更新・変更）は入力できません。",【お子様の名入れサービス】,"木札【小】を希望(+税抜1,500円)"
k-2-1810,"コントロールカラム欄に入力可能な文字はn（新規）、u（更新・変更）、d（削除）だけです。
※オークション商品の一括登録では、u（更新・変更）は入力できません。",【お子様の名入れサービス】,"木札【中】を希望(+税抜1,500円)"
k-2-1811,"コントロールカラム欄に入力可能な文字はn（新規）、u（更新・変更）、d（削除）だけです。
※オークション商品の一括登録では、u（更新・変更）は入力できません。",【お子様の名入れサービス】,"木札【大】を希望(+税抜2,000円)"
k-2-1811,"コントロールカラム欄に入力可能な文字はn（新規）、u（更新・変更）、d（削除）だけです。
※オークション商品の一括登録では、u（更新・変更）は入力できません。",【お子様の名入れサービス】,"木札【小】を希望(+税抜1,500円)"
k-2-1811,"コントロールカラム欄に入力可能な文字はn（新規）、u（更新・変更）、d（削除）だけです。
※オークション商品の一括登録では、u（更新・変更）は入力できません。",【お子様の名入れサービス】,"木札【中】を希望(+税抜1,500円)"
k-2-1812,"コントロールカラム欄に入力可能な文字はn（新規）、u（更新・変更）、d（削除）だけです。
※オークション商品の一括登録では、u（更新・変更）は入力できません。",【お子様の名入れサービス】,"木札【大】を希望(+税抜2,000円)"
k-2-1812,"コントロールカラム欄に入力可能な文字はn（新規）、u（更新・変更）、d（削除）だけです。
※オークション商品の一括登録では、u（更新・変更）は入力できません。",【お子様の名入れサービス】,"木札【小】を希望(+税抜1,500円)"
k-2-1812,"コントロールカラム欄に入力可能な文字はn（新規）、u（更新・変更）、d（削除）だけです。
※オークション商品の一括登録では、u（更新・変更）は入力できません。",【お子様の名入れサービス】,"木札【中】を希望(+税抜1,500円)"
k-2-1814,"コントロールカラム欄に入力可能な文字はn（新規）、u（更新・変更）、d（削除）だけです。
※オークション商品の一括登録では、u（更新・変更）は入力できません。",【お子様の名入れサービス】,"木札【大】を希望(+税抜2,000円)"
k-2-1814,"コントロールカラム欄に入力可能な文字はn（新規）、u（更新・変更）、d（削除）だけです。
※オークション商品の一括登録では、u（更新・変更）は入力できません。",【お子様の名入れサービス】,"木札【小】を希望(+税抜1,500円)"
k-2-1814,"コントロールカラム欄に入力可能な文字はn（新規）、u（更新・変更）、d（削除）だけです。
※オークション商品の一括登録では、u（更新・変更）は入力できません。",【お子様の名入れサービス】,"木札【中】を希望(+税抜1,500円)"
k-2-1816,"コントロールカラム欄に入力可能な文字はn（新規）、u（更新・変更）、d（削除）だけです。
※オークション商品の一括登録では、u（更新・変更）は入力できません。",【お子様の名入れサービス】,"木札【大】を希望(+税抜2,000円)"
k-2-1816,"コントロールカラム欄に入力可能な文字はn（新規）、u（更新・変更）、d（削除）だけです。
※オークション商品の一括登録では、u（更新・変更）は入力できません。",【お子様の名入れサービス】,"木札【小】を希望(+税抜1,500円)"
k-2-1816,"コントロールカラム欄に入力可能な文字はn（新規）、u（更新・変更）、d（削除）だけです。
※オークション商品の一括登録では、u（更新・変更）は入力できません。",【お子様の名入れサービス】,"木札【中】を希望(+税抜1,500円)"
k-3-1845,"コントロールカラム欄に入力可能な文字はn（新規）、u（更新・変更）、d（削除）だけです。
※オークション商品の一括登録では、u（更新・変更）は入力できません。",【お子様の名入れサービス】,"木札【大】を希望(+税抜2,000円)"
k-3-1845,"コントロールカラム欄に入力可能な文字はn（新規）、u（更新・変更）、d（削除）だけです。
※オークション商品の一括登録では、u（更新・変更）は入力できません。",【お子様の名入れサービス】,"木札【小】を希望(+税抜1,500円)"
k-3-1845,"コントロールカラム欄に入力可能な文字はn（新規）、u（更新・変更）、d（削除）だけです。
※オークション商品の一括登録では、u（更新・変更）は入力できません。",【お子様の名入れサービス】,"木札【中】を希望(+税抜1,500円)"
k-3-1846,"コントロールカラム欄に入力可能な文字はn（新規）、u（更新・変更）、d（削除）だけです。
※オークション商品の一括登録では、u（更新・変更）は入力できません。",【お子様の名入れサービス】,"木札【大】を希望(+税抜2,000円)"
k-3-1846,"コントロールカラム欄に入力可能な文字はn（新規）、u（更新・変更）、d（削除）だけです。
※オークション商品の一括登録では、u（更新・変更）は入力できません。",【お子様の名入れサービス】,"木札【小】を希望(+税抜1,500円)"
k-3-1846,"コントロールカラム欄に入力可能な文字はn（新規）、u（更新・変更）、d（削除）だけです。
※オークション商品の一括登録では、u（更新・変更）は入力できません。",【お子様の名入れサービス】,"木札【中】を希望(+税抜1,500円)"
k-3-1848,"コントロールカラム欄に入力可能な文字はn（新規）、u（更新・変更）、d（削除）だけです。
※オークション商品の一括登録では、u（更新・変更）は入力できません。",【お子様の名入れサービス】,"木札【大】を希望(+税抜2,000円)"
k-3-1848,"コントロールカラム欄に入力可能な文字はn（新規）、u（更新・変更）、d（削除）だけです。
※オークション商品の一括登録では、u（更新・変更）は入力できません。",【お子様の名入れサービス】,"木札【小】を希望(+税抜1,500円)"
k-3-1848,"コントロールカラム欄に入力可能な文字はn（新規）、u（更新・変更）、d（削除）だけです。
※オークション商品の一括登録では、u（更新・変更）は入力できません。",【お子様の名入れサービス】,"木札【中】を希望(+税抜1,500円)"
k-3-1849,"コントロールカラム欄に入力可能な文字はn（新規）、u（更新・変更）、d（削除）だけです。
※オークション商品の一括登録では、u（更新・変更）は入力できません。",【お子様の名入れサービス】,"木札【大】を希望(+税抜2,000円)"
k-3-1849,"コントロールカラム欄に入力可能な文字はn（新規）、u（更新・変更）、d（削除）だけです。
※オークション商品の一括登録では、u（更新・変更）は入力できません。",【お子様の名入れサービス】,"木札【小】を希望(+税抜1,500円)"
k-3-1849,"コントロールカラム欄に入力可能な文字はn（新規）、u（更新・変更）、d（削除）だけです。
※オークション商品の一括登録では、u（更新・変更）は入力できません。",【お子様の名入れサービス】,"木札【中】を希望(+税抜1,500円)"
k-3-1850,"コントロールカラム欄に入力可能な文字はn（新規）、u（更新・変更）、d（削除）だけです。
※オークション商品の一括登録では、u（更新・変更）は入力できません。",【お子様の名入れサービス】,"木札【大】を希望(+税抜2,000円)"
k-3-1850,"コントロールカラム欄に入力可能な文字はn（新規）、u（更新・変更）、d（削除）だけです。
※オークション商品の一括登録では、u（更新・変更）は入力できません。",【お子様の名入れサービス】,"木札【小】を希望(+税抜1,500円)"
k-3-1850,"コントロールカラム欄に入力可能な文字はn（新規）、u（更新・変更）、d（削除）だけです。
※オークション商品の一括登録では、u（更新・変更）は入力できません。",【お子様の名入れサービス】,"木札【中】を希望(+税抜1,500円)"
k-3-1851,"コントロールカラム欄に入力可能な文字はn（新規）、u（更新・変更）、d（削除）だけです。
※オークション商品の一括登録では、u（更新・変更）は入力できません。",【お子様の名入れサービス】,"木札【大】を希望(+税抜2,000円)"
k-3-1851,"コントロールカラム欄に入力可能な文字はn（新規）、u（更新・変更）、d（削除）だけです。
※オークション商品の一括登録では、u（更新・変更）は入力できません。",【お子様の名入れサービス】,"木札【小】を希望(+税抜1,500円)"
k-3-1851,"コントロールカラム欄に入力可能な文字はn（新規）、u（更新・変更）、d（削除）だけです。
※オークション商品の一括登録では、u（更新・変更）は入力できません。",【お子様の名入れサービス】,"木札【中】を希望(+税抜1,500円)"
k-3-1856,"コントロールカラム欄に入力可能な文字はn（新規）、u（更新・変更）、d（削除）だけです。
※オークション商品の一括登録では、u（更新・変更）は入力できません。",【お子様の名入れサービス】,"木札【大】を希望(+税抜2,000円)"
k-3-1857,"コントロールカラム欄に入力可能な文字はn（新規）、u（更新・変更）、d（削除）だけです。
※オークション商品の一括登録では、u（更新・変更）は入力できません。",【お子様の名入れサービス】,"木札【大】を希望(+税抜2,000円)"
k-3-1857,"コントロールカラム欄に入力可能な文字はn（新規）、u（更新・変更）、d（削除）だけです。
※オークション商品の一括登録では、u（更新・変更）は入力できません。",【お子様の名入れサービス】,"木札【小】を希望(+税抜1,500円)"
k-3-1857,"コントロールカラム欄に入力可能な文字はn（新規）、u（更新・変更）、d（削除）だけです。
※オークション商品の一括登録では、u（更新・変更）は入力できません。",【お子様の名入れサービス】,"木札【中】を希望(+税抜1,500円)"
sd-05,"コントロールカラム欄に入力可能な文字はn（新規）、u（更新・変更）、d（削除）だけです。
※オークション商品の一括登録では、u（更新・変更）は入力できません。",【お子様の名入れサービス】,"木札【小】を希望(+税抜1,500円)"
sd-05,"コントロールカラム欄に入力可能な文字はn（新規）、u（更新・変更）、d（削除）だけです。
※オークション商品の一括登録では、u（更新・変更）は入力できません。",【お子様の名入れサービス】,"木札【中】を希望(+税抜1,500円)"
sd-07,"コントロールカラム欄に入力可能な文字はn（新規）、u（更新・変更）、d（削除）だけです。
※オークション商品の一括登録では、u（更新・変更）は入力できません。",【お子様の名入れサービス】,"木札【大】を希望(+税抜2,000円)"
sd-07,"コントロールカラム欄に入力可能な文字はn（新規）、u（更新・変更）、d（削除）だけです。
※オークション商品の一括登録では、u（更新・変更）は入力できません。",【お子様の名入れサービス】,"木札【小】を希望(+税抜1,500円)"
sd-07,"コントロールカラム欄に入力可能な文字はn（新規）、u（更新・変更）、d（削除）だけです。
※オークション商品の一括登録では、u（更新・変更）は入力できません。",【お子様の名入れサービス】,"木札【中】を希望(+税抜1,500円)"
sd-08,"コントロールカラム欄に入力可能な文字はn（新規）、u（更新・変更）、d（削除）だけです。
※オークション商品の一括登録では、u（更新・変更）は入力できません。",【お子様の名入れサービス】,"木札【大】を希望(+税抜2,000円)"
sd-08,"コントロールカラム欄に入力可能な文字はn（新規）、u（更新・変更）、d（削除）だけです。
※オークション商品の一括登録では、u（更新・変更）は入力できません。",【お子様の名入れサービス】,"木札【小】を希望(+税抜1,500円)"
sd-08,"コントロールカラム欄に入力可能な文字はn（新規）、u（更新・変更）、d（削除）だけです。
※オークション商品の一括登録では、u（更新・変更）は入力できません。",【お子様の名入れサービス】,"木札【中】を希望(+税抜1,500円)"
sd-09,"コントロールカラム欄に入力可能な文字はn（新規）、u（更新・変更）、d（削除）だけです。
※オークション商品の一括登録では、u（更新・変更）は入力できません。",【お子様の名入れサービス】,"木札【大】を希望(+税抜2,000円)"
sd-09,"コントロールカラム欄に入力可能な文字はn（新規）、u（更新・変更）、d（削除）だけです。
※オークション商品の一括登録では、u（更新・変更）は入力できません。",【お子様の名入れサービス】,"木札【小】を希望(+税抜1,500円)"
sd-09,"コントロールカラム欄に入力可能な文字はn（新規）、u（更新・変更）、d（削除）だけです。
※オークション商品の一括登録では、u（更新・変更）は入力できません。",【お子様の名入れサービス】,"木札【中】を希望(+税抜1,500円)"
sd-10,"コントロールカラム欄に入力可能な文字はn（新規）、u（更新・変更）、d（削除）だけです。
※オークション商品の一括登録では、u（更新・変更）は入力できません。",【お子様の名入れサービス】,"木札【大】を希望(+税抜2,000円)"
sd-10,"コントロールカラム欄に入力可能な文字はn（新規）、u（更新・変更）、d（削除）だけです。
※オークション商品の一括登録では、u（更新・変更）は入力できません。",【お子様の名入れサービス】,"木札【小】を希望(+税抜1,500円)"
sd-10,"コントロールカラム欄に入力可能な文字はn（新規）、u（更新・変更）、d（削除）だけです。
※オークション商品の一括登録では、u（更新・変更）は入力できません。",【お子様の名入れサービス】,"木札【中】を希望(+税抜1,500円)"
sd-12,"コントロールカラム欄に入力可能な文字はn（新規）、u（更新・変更）、d（削除）だけです。
※オークション商品の一括登録では、u（更新・変更）は入力できません。",【お子様の名入れサービス】,"木札【小】を希望(+税抜1,500円)"
sd-12,"コントロールカラム欄に入力可能な文字はn（新規）、u（更新・変更）、d（削除）だけです。
※オークション商品の一括登録では、u（更新・変更）は入力できません。",【お子様の名入れサービス】,"木札【中】を希望(+税抜1,500円)"
sd-14,"コントロールカラム欄に入力可能な文字はn（新規）、u（更新・変更）、d（削除）だけです。
※オークション商品の一括登録では、u（更新・変更）は入力できません。",【お子様の名入れサービス】,"木札【小】を希望(+税抜1,500円)"
sd-14,"コントロールカラム欄に入力可能な文字はn（新規）、u（更新・変更）、d（削除）だけです。
※オークション商品の一括登録では、u（更新・変更）は入力できません。",【お子様の名入れサービス】,"木札【中】を希望(+税抜1,500円)"
sd-15,"コントロールカラム欄に入力可能な文字はn（新規）、u（更新・変更）、d（削除）だけです。
※オークション商品の一括登録では、u（更新・変更）は入力できません。",【お子様の名入れサービス】,"木札【小】を希望(+税抜1,500円)"
sd-15,"コントロールカラム欄に入力可能な文字はn（新規）、u（更新・変更）、d（削除）だけです。
※オークション商品の一括登録では、u（更新・変更）は入力できません。",【お子様の名入れサービス】,"木札【中】を希望(+税抜1,500円)"
sd-16,"コントロールカラム欄に入力可能な文字はn（新規）、u（更新・変更）、d（削除）だけです。
※オークション商品の一括登録では、u（更新・変更）は入力できません。",【お子様の名入れサービス】,"木札【小】を希望(+税抜1,500円)"
sd-16,"コントロールカラム欄に入力可能な文字はn（新規）、u（更新・変更）、d（削除）だけです。
※オークション商品の一括登録では、u（更新・変更）は入力できません。",【お子様の名入れサービス】,"木札【中】を希望(+税抜1,500円)"
sd-18,"コントロールカラム欄に入力可能な文字はn（新規）、u（更新・変更）、d（削除）だけです。
※オークション商品の一括登録では、u（更新・変更）は入力できません。",【お子様の名入れサービス】,"木札【小】を希望(+税抜1,500円)"
sd-18,"コントロールカラム欄に入力可能な文字はn（新規）、u（更新・変更）、d（削除）だけです。
※オークション商品の一括登録では、u（更新・変更）は入力できません。",【お子様の名入れサービス】,"木札【中】を希望(+税抜1,500円)"
