223-001,Select/Checkbox用選択肢欄に既に登録されているものがあります。同じ選択肢名は登録できません。,【1.購入目的をお選び下さい】,下記よりお選び下さい↓↓
223-001,Select/Checkbox用選択肢欄に既に登録されているものがあります。同じ選択肢名は登録できません。,【1.購入目的をお選び下さい】,自宅用
223-001,Select/Checkbox用選択肢欄に既に登録されているものがあります。同じ選択肢名は登録できません。,【1.購入目的をお選び下さい】,ギフト用
223-001,Select/Checkbox用選択肢欄に既に登録されているものがあります。同じ選択肢名は登録できません。,【1.購入目的をお選び下さい】,ギフト用(海外)
223-001,Select/Checkbox用選択肢欄に既に登録されているものがあります。同じ選択肢名は登録できません。,【2.用途をお選び下さい】,下記よりお選び下さい↓↓
223-001,Select/Checkbox用選択肢欄に既に登録されているものがあります。同じ選択肢名は登録できません。,【2.用途をお選び下さい】,結婚祝い
223-001,Select/Checkbox用選択肢欄に既に登録されているものがあります。同じ選択肢名は登録できません。,【2.用途をお選び下さい】,結婚記念日(金婚式等)
223-001,Select/Checkbox用選択肢欄に既に登録されているものがあります。同じ選択肢名は登録できません。,【2.用途をお選び下さい】,出産祝い
223-001,Select/Checkbox用選択肢欄に既に登録されているものがあります。同じ選択肢名は登録できません。,【2.用途をお選び下さい】,新築祝い
223-001,Select/Checkbox用選択肢欄に既に登録されているものがあります。同じ選択肢名は登録できません。,【2.用途をお選び下さい】,退職祝い
223-001,Select/Checkbox用選択肢欄に既に登録されているものがあります。同じ選択肢名は登録できません。,【2.用途をお選び下さい】,長寿祝い(還暦等)
223-001,Select/Checkbox用選択肢欄に既に登録されているものがあります。同じ選択肢名は登録できません。,【2.用途をお選び下さい】,内祝(結婚)
223-001,Select/Checkbox用選択肢欄に既に登録されているものがあります。同じ選択肢名は登録できません。,【2.用途をお選び下さい】,内祝(出産)
223-001,Select/Checkbox用選択肢欄に既に登録されているものがあります。同じ選択肢名は登録できません。,【2.用途をお選び下さい】,内祝(新築)
223-001,Select/Checkbox用選択肢欄に既に登録されているものがあります。同じ選択肢名は登録できません。,【2.用途をお選び下さい】,内祝(その他)
223-001,Select/Checkbox用選択肢欄に既に登録されているものがあります。同じ選択肢名は登録できません。,【2.用途をお選び下さい】,-------------------------------
223-001,Select/Checkbox用選択肢欄に既に登録されているものがあります。同じ選択肢名は登録できません。,【2.用途をお選び下さい】,開店開業記念
223-001,Select/Checkbox用選択肢欄に既に登録されているものがあります。同じ選択肢名は登録できません。,【2.用途をお選び下さい】,株式上場記念
223-001,Select/Checkbox用選択肢欄に既に登録されているものがあります。同じ選択肢名は登録できません。,【2.用途をお選び下さい】,社内褒章
223-001,Select/Checkbox用選択肢欄に既に登録されているものがあります。同じ選択肢名は登録できません。,【2.用途をお選び下さい】,創業創立記念
223-001,Select/Checkbox用選択肢欄に既に登録されているものがあります。同じ選択肢名は登録できません。,【2.用途をお選び下さい】,周年記念
223-001,Select/Checkbox用選択肢欄に既に登録されているものがあります。同じ選択肢名は登録できません。,【2.用途をお選び下さい】,その他法人ギフト
223-001,Select/Checkbox用選択肢欄に既に登録されているものがあります。同じ選択肢名は登録できません。,【2.用途をお選び下さい】,-------------------------------
223-001,Select/Checkbox用選択肢欄に既に登録されているものがあります。同じ選択肢名は登録できません。,【2.用途をお選び下さい】,初任給
223-001,Select/Checkbox用選択肢欄に既に登録されているものがあります。同じ選択肢名は登録できません。,【2.用途をお選び下さい】,端午の節句
223-001,Select/Checkbox用選択肢欄に既に登録されているものがあります。同じ選択肢名は登録できません。,【2.用途をお選び下さい】,母の日
223-001,Select/Checkbox用選択肢欄に既に登録されているものがあります。同じ選択肢名は登録できません。,【2.用途をお選び下さい】,父の日
223-001,Select/Checkbox用選択肢欄に既に登録されているものがあります。同じ選択肢名は登録できません。,【2.用途をお選び下さい】,敬老の日
223-001,Select/Checkbox用選択肢欄に既に登録されているものがあります。同じ選択肢名は登録できません。,【3.贈る相手をお選び下さい】,下記よりお選び下さい↓↓
223-001,Select/Checkbox用選択肢欄に既に登録されているものがあります。同じ選択肢名は登録できません。,【3.贈る相手をお選び下さい】,知人
223-001,Select/Checkbox用選択肢欄に既に登録されているものがあります。同じ選択肢名は登録できません。,【3.贈る相手をお選び下さい】,両親
223-001,Select/Checkbox用選択肢欄に既に登録されているものがあります。同じ選択肢名は登録できません。,【3.贈る相手をお選び下さい】,父
223-001,Select/Checkbox用選択肢欄に既に登録されているものがあります。同じ選択肢名は登録できません。,【3.贈る相手をお選び下さい】,母
223-001,Select/Checkbox用選択肢欄に既に登録されているものがあります。同じ選択肢名は登録できません。,【3.贈る相手をお選び下さい】,兄弟
223-001,Select/Checkbox用選択肢欄に既に登録されているものがあります。同じ選択肢名は登録できません。,【3.贈る相手をお選び下さい】,姉妹
223-001,Select/Checkbox用選択肢欄に既に登録されているものがあります。同じ選択肢名は登録できません。,【3.贈る相手をお選び下さい】,親戚
223-001,Select/Checkbox用選択肢欄に既に登録されているものがあります。同じ選択肢名は登録できません。,【3.贈る相手をお選び下さい】,彼氏、夫
223-001,Select/Checkbox用選択肢欄に既に登録されているものがあります。同じ選択肢名は登録できません。,【3.贈る相手をお選び下さい】,彼女、妻
223-001,Select/Checkbox用選択肢欄に既に登録されているものがあります。同じ選択肢名は登録できません。,【3.贈る相手をお選び下さい】,祖父母
223-001,Select/Checkbox用選択肢欄に既に登録されているものがあります。同じ選択肢名は登録できません。,【3.贈る相手をお選び下さい】,祖父
223-001,Select/Checkbox用選択肢欄に既に登録されているものがあります。同じ選択肢名は登録できません。,【3.贈る相手をお選び下さい】,祖母
223-001,Select/Checkbox用選択肢欄に既に登録されているものがあります。同じ選択肢名は登録できません。,【3.贈る相手をお選び下さい】,--------------------------------
223-001,Select/Checkbox用選択肢欄に既に登録されているものがあります。同じ選択肢名は登録できません。,【3.贈る相手をお選び下さい】,上司
223-001,Select/Checkbox用選択肢欄に既に登録されているものがあります。同じ選択肢名は登録できません。,【3.贈る相手をお選び下さい】,同僚
223-001,Select/Checkbox用選択肢欄に既に登録されているものがあります。同じ選択肢名は登録できません。,【3.贈る相手をお選び下さい】,部下
223-001,Select/Checkbox用選択肢欄に既に登録されているものがあります。同じ選択肢名は登録できません。,【3.贈る相手をお選び下さい】,取引先
223-001,Select/Checkbox用選択肢欄に既に登録されているものがあります。同じ選択肢名は登録できません。,※【1~3】をお選びいただきますと、[ 備考欄 ]でご指定いただく熨斗紙や包装紙等が適しているかを当店のギフトアドバイザーが確認させていただきます。,了解しました
223-001,選択肢名は40個までしか登録できません。,【1.購入目的をお選び下さい】,下記よりお選び下さい↓↓
223-001,同じ選択肢名は登録できません。,【2.用途をお選び下さい】,-------------------------------
223-002,同じ選択肢名は登録できません。,【2.用途をお選び下さい】,-------------------------------
223-003,同じ選択肢名は登録できません。,【2.用途をお選び下さい】,-------------------------------
223-004,同じ選択肢名は登録できません。,【2.用途をお選び下さい】,-------------------------------
223-005,同じ選択肢名は登録できません。,【2.用途をお選び下さい】,-------------------------------
223-006,同じ選択肢名は登録できません。,【2.用途をお選び下さい】,-------------------------------
223-007,同じ選択肢名は登録できません。,【2.用途をお選び下さい】,-------------------------------
223-008,同じ選択肢名は登録できません。,【2.用途をお選び下さい】,-------------------------------
223-009,同じ選択肢名は登録できません。,【2.用途をお選び下さい】,-------------------------------
223-010,同じ選択肢名は登録できません。,【2.用途をお選び下さい】,-------------------------------
223-012,同じ選択肢名は登録できません。,【2.用途をお選び下さい】,-------------------------------
223-013,同じ選択肢名は登録できません。,【2.用途をお選び下さい】,-------------------------------
223-014,同じ選択肢名は登録できません。,【2.用途をお選び下さい】,-------------------------------
223-015,同じ選択肢名は登録できません。,【2.用途をお選び下さい】,-------------------------------
223-016,同じ選択肢名は登録できません。,【2.用途をお選び下さい】,-------------------------------
223-017,同じ選択肢名は登録できません。,【2.用途をお選び下さい】,-------------------------------
223-017,同じ選択肢名は登録できません。,※【1~3】をお選びいただきますと、[ 備考欄 ]でご指定いただく熨斗紙や包装紙等が適しているかを当店のギフトアドバイザーが確認させていただきます。,了解しました
2v-700,同じ選択肢名は登録できません。,【2.用途をお選び下さい】,-------------------------------
2v-700-02,同じ選択肢名は登録できません。,【2.用途をお選び下さい】,-------------------------------
2v-700-03,同じ選択肢名は登録できません。,【2.用途をお選び下さい】,-------------------------------
3l-600,同じ選択肢名は登録できません。,【2.用途をお選び下さい】,-------------------------------
3v-300,同じ選択肢名は登録できません。,【2.用途をお選び下さい】,-------------------------------
3v-300-02,同じ選択肢名は登録できません。,【2.用途をお選び下さい】,-------------------------------
4l-200,同じ選択肢名は登録できません。,【2.用途をお選び下さい】,-------------------------------
4l-200-02,同じ選択肢名は登録できません。,【2.用途をお選び下さい】,-------------------------------
4l-200-03,同じ選択肢名は登録できません。,【2.用途をお選び下さい】,-------------------------------
4l-600,同じ選択肢名は登録できません。,【2.用途をお選び下さい】,-------------------------------
6l-200,同じ選択肢名は登録できません。,【2.用途をお選び下さい】,-------------------------------
7l-900,同じ選択肢名は登録できません。,【2.用途をお選び下さい】,-------------------------------
7v-531,同じ選択肢名は登録できません。,【2.用途をお選び下さい】,-------------------------------
7v-532,同じ選択肢名は登録できません。,【2.用途をお選び下さい】,-------------------------------
