hs-bl-ch-en,"コントロールカラム欄に入力可能な文字はn（新規）、u（更新・変更）、d（削除）だけです。
※オークション商品の一括登録では、u（更新・変更）は入力できません。",※お熨斗をご希望の方へ、お客様にご指定いただく熨斗の【表書き】、【種類（蝶結び or 結び切り）】などが適切かどうかの参考にさせていただきますので下記の【1~3】をお選びください。お熨斗のご指定はカート内の備考欄でお願い致します。,了解しました
hs-bl-ch-en,"コントロールカラム欄に入力可能な文字はn（新規）、u（更新・変更）、d（削除）だけです。
※オークション商品の一括登録では、u（更新・変更）は入力できません。", 【1.購入目的をお選び下さい】,下記よりお選び下さい↓↓
hs-bl-ch-en,"コントロールカラム欄に入力可能な文字はn（新規）、u（更新・変更）、d（削除）だけです。
※オークション商品の一括登録では、u（更新・変更）は入力できません。", 【1.購入目的をお選び下さい】,自宅用
hs-bl-ch-en,"コントロールカラム欄に入力可能な文字はn（新規）、u（更新・変更）、d（削除）だけです。
※オークション商品の一括登録では、u（更新・変更）は入力できません。", 【1.購入目的をお選び下さい】,ギフト用
hs-bl-ch-en,"コントロールカラム欄に入力可能な文字はn（新規）、u（更新・変更）、d（削除）だけです。
※オークション商品の一括登録では、u（更新・変更）は入力できません。", 【1.購入目的をお選び下さい】,ギフト用(海外)
hs-bl-ch-en,"コントロールカラム欄に入力可能な文字はn（新規）、u（更新・変更）、d（削除）だけです。
※オークション商品の一括登録では、u（更新・変更）は入力できません。", 【2.用途をお選び下さい】,下記よりお選び下さい↓↓
hs-bl-ch-en,"コントロールカラム欄に入力可能な文字はn（新規）、u（更新・変更）、d（削除）だけです。
※オークション商品の一括登録では、u（更新・変更）は入力できません。", 【2.用途をお選び下さい】,結婚祝い
hs-bl-ch-en,"コントロールカラム欄に入力可能な文字はn（新規）、u（更新・変更）、d（削除）だけです。
※オークション商品の一括登録では、u（更新・変更）は入力できません。", 【2.用途をお選び下さい】,結婚記念日(銀婚式)
hs-bl-ch-en,"コントロールカラム欄に入力可能な文字はn（新規）、u（更新・変更）、d（削除）だけです。
※オークション商品の一括登録では、u（更新・変更）は入力できません。", 【2.用途をお選び下さい】,結婚記念日(金婚式)
hs-bl-ch-en,"コントロールカラム欄に入力可能な文字はn（新規）、u（更新・変更）、d（削除）だけです。
※オークション商品の一括登録では、u（更新・変更）は入力できません。", 【2.用途をお選び下さい】,結婚記念日(その他)
hs-bl-ch-en,"コントロールカラム欄に入力可能な文字はn（新規）、u（更新・変更）、d（削除）だけです。
※オークション商品の一括登録では、u（更新・変更）は入力できません。", 【2.用途をお選び下さい】,出産祝い
hs-bl-ch-en,"コントロールカラム欄に入力可能な文字はn（新規）、u（更新・変更）、d（削除）だけです。
※オークション商品の一括登録では、u（更新・変更）は入力できません。", 【2.用途をお選び下さい】,新築祝い
hs-bl-ch-en,"コントロールカラム欄に入力可能な文字はn（新規）、u（更新・変更）、d（削除）だけです。
※オークション商品の一括登録では、u（更新・変更）は入力できません。", 【2.用途をお選び下さい】,退職祝い
hs-bl-ch-en,"コントロールカラム欄に入力可能な文字はn（新規）、u（更新・変更）、d（削除）だけです。
※オークション商品の一括登録では、u（更新・変更）は入力できません。", 【2.用途をお選び下さい】,長寿祝い(還暦)
hs-bl-ch-en,"コントロールカラム欄に入力可能な文字はn（新規）、u（更新・変更）、d（削除）だけです。
※オークション商品の一括登録では、u（更新・変更）は入力できません。", 【2.用途をお選び下さい】,長寿祝い(古希)
hs-bl-ch-en,"コントロールカラム欄に入力可能な文字はn（新規）、u（更新・変更）、d（削除）だけです。
※オークション商品の一括登録では、u（更新・変更）は入力できません。", 【2.用途をお選び下さい】,長寿祝い(喜寿)
hs-bl-ch-en,"コントロールカラム欄に入力可能な文字はn（新規）、u（更新・変更）、d（削除）だけです。
※オークション商品の一括登録では、u（更新・変更）は入力できません。", 【2.用途をお選び下さい】,長寿祝い(米寿)
hs-bl-ch-en,"コントロールカラム欄に入力可能な文字はn（新規）、u（更新・変更）、d（削除）だけです。
※オークション商品の一括登録では、u（更新・変更）は入力できません。", 【2.用途をお選び下さい】,長寿祝い(その他)
hs-bl-ch-en,"コントロールカラム欄に入力可能な文字はn（新規）、u（更新・変更）、d（削除）だけです。
※オークション商品の一括登録では、u（更新・変更）は入力できません。", 【2.用途をお選び下さい】,内祝(結婚)
hs-bl-ch-en,"コントロールカラム欄に入力可能な文字はn（新規）、u（更新・変更）、d（削除）だけです。
※オークション商品の一括登録では、u（更新・変更）は入力できません。", 【2.用途をお選び下さい】,内祝(出産)
hs-bl-ch-en,"コントロールカラム欄に入力可能な文字はn（新規）、u（更新・変更）、d（削除）だけです。
※オークション商品の一括登録では、u（更新・変更）は入力できません。", 【2.用途をお選び下さい】,内祝(新築)
hs-bl-ch-en,"コントロールカラム欄に入力可能な文字はn（新規）、u（更新・変更）、d（削除）だけです。
※オークション商品の一括登録では、u（更新・変更）は入力できません。", 【2.用途をお選び下さい】,内祝(その他)
hs-bl-ch-en,"コントロールカラム欄に入力可能な文字はn（新規）、u（更新・変更）、d（削除）だけです。
※オークション商品の一括登録では、u（更新・変更）は入力できません。", 【2.用途をお選び下さい】,--------------------------------
hs-bl-ch-en,"コントロールカラム欄に入力可能な文字はn（新規）、u（更新・変更）、d（削除）だけです。
※オークション商品の一括登録では、u（更新・変更）は入力できません。", 【2.用途をお選び下さい】,開店開業記念
hs-bl-ch-en,"コントロールカラム欄に入力可能な文字はn（新規）、u（更新・変更）、d（削除）だけです。
※オークション商品の一括登録では、u（更新・変更）は入力できません。", 【2.用途をお選び下さい】,株式上場記念
hs-bl-ch-en,"コントロールカラム欄に入力可能な文字はn（新規）、u（更新・変更）、d（削除）だけです。
※オークション商品の一括登録では、u（更新・変更）は入力できません。", 【2.用途をお選び下さい】,社内褒章
hs-bl-ch-en,"コントロールカラム欄に入力可能な文字はn（新規）、u（更新・変更）、d（削除）だけです。
※オークション商品の一括登録では、u（更新・変更）は入力できません。", 【2.用途をお選び下さい】,創業創立記念
hs-bl-ch-en,"コントロールカラム欄に入力可能な文字はn（新規）、u（更新・変更）、d（削除）だけです。
※オークション商品の一括登録では、u（更新・変更）は入力できません。", 【2.用途をお選び下さい】,周年記念
hs-bl-ch-en,"コントロールカラム欄に入力可能な文字はn（新規）、u（更新・変更）、d（削除）だけです。
※オークション商品の一括登録では、u（更新・変更）は入力できません。", 【2.用途をお選び下さい】,その他法人ギフト
hs-bl-ch-en,"コントロールカラム欄に入力可能な文字はn（新規）、u（更新・変更）、d（削除）だけです。
※オークション商品の一括登録では、u（更新・変更）は入力できません。", 【2.用途をお選び下さい】,-------------------------------
hs-bl-ch-en,"コントロールカラム欄に入力可能な文字はn（新規）、u（更新・変更）、d（削除）だけです。
※オークション商品の一括登録では、u（更新・変更）は入力できません。", 【2.用途をお選び下さい】,初任給
hs-bl-ch-en,"コントロールカラム欄に入力可能な文字はn（新規）、u（更新・変更）、d（削除）だけです。
※オークション商品の一括登録では、u（更新・変更）は入力できません。", 【2.用途をお選び下さい】,端午の節句
hs-bl-ch-en,"コントロールカラム欄に入力可能な文字はn（新規）、u（更新・変更）、d（削除）だけです。
※オークション商品の一括登録では、u（更新・変更）は入力できません。", 【2.用途をお選び下さい】,母の日
hs-bl-ch-en,"コントロールカラム欄に入力可能な文字はn（新規）、u（更新・変更）、d（削除）だけです。
※オークション商品の一括登録では、u（更新・変更）は入力できません。", 【2.用途をお選び下さい】,父の日
hs-bl-ch-en,"コントロールカラム欄に入力可能な文字はn（新規）、u（更新・変更）、d（削除）だけです。
※オークション商品の一括登録では、u（更新・変更）は入力できません。", 【2.用途をお選び下さい】,敬老の日
hs-bl-ch-en,"コントロールカラム欄に入力可能な文字はn（新規）、u（更新・変更）、d（削除）だけです。
※オークション商品の一括登録では、u（更新・変更）は入力できません。", 【3.贈る相手をお選び下さい】,下記よりお選び下さい↓↓
hs-bl-ch-en,"コントロールカラム欄に入力可能な文字はn（新規）、u（更新・変更）、d（削除）だけです。
※オークション商品の一括登録では、u（更新・変更）は入力できません。", 【3.贈る相手をお選び下さい】,知人
hs-bl-ch-en,"コントロールカラム欄に入力可能な文字はn（新規）、u（更新・変更）、d（削除）だけです。
※オークション商品の一括登録では、u（更新・変更）は入力できません。", 【3.贈る相手をお選び下さい】,両親
hs-bl-ch-en,"コントロールカラム欄に入力可能な文字はn（新規）、u（更新・変更）、d（削除）だけです。
※オークション商品の一括登録では、u（更新・変更）は入力できません。", 【3.贈る相手をお選び下さい】,父
hs-bl-ch-en,"コントロールカラム欄に入力可能な文字はn（新規）、u（更新・変更）、d（削除）だけです。
※オークション商品の一括登録では、u（更新・変更）は入力できません。", 【3.贈る相手をお選び下さい】,母
hs-bl-ch-en,"コントロールカラム欄に入力可能な文字はn（新規）、u（更新・変更）、d（削除）だけです。
※オークション商品の一括登録では、u（更新・変更）は入力できません。", 【3.贈る相手をお選び下さい】,兄弟
hs-bl-ch-en,"コントロールカラム欄に入力可能な文字はn（新規）、u（更新・変更）、d（削除）だけです。
※オークション商品の一括登録では、u（更新・変更）は入力できません。", 【3.贈る相手をお選び下さい】,姉妹
hs-bl-ch-en,"コントロールカラム欄に入力可能な文字はn（新規）、u（更新・変更）、d（削除）だけです。
※オークション商品の一括登録では、u（更新・変更）は入力できません。", 【3.贈る相手をお選び下さい】,親戚
hs-bl-ch-en,"コントロールカラム欄に入力可能な文字はn（新規）、u（更新・変更）、d（削除）だけです。
※オークション商品の一括登録では、u（更新・変更）は入力できません。", 【3.贈る相手をお選び下さい】,彼氏、夫
hs-bl-ch-en,"コントロールカラム欄に入力可能な文字はn（新規）、u（更新・変更）、d（削除）だけです。
※オークション商品の一括登録では、u（更新・変更）は入力できません。", 【3.贈る相手をお選び下さい】,彼女、妻
hs-bl-ch-en,"コントロールカラム欄に入力可能な文字はn（新規）、u（更新・変更）、d（削除）だけです。
※オークション商品の一括登録では、u（更新・変更）は入力できません。", 【3.贈る相手をお選び下さい】,祖父母
hs-bl-ch-en,"コントロールカラム欄に入力可能な文字はn（新規）、u（更新・変更）、d（削除）だけです。
※オークション商品の一括登録では、u（更新・変更）は入力できません。", 【3.贈る相手をお選び下さい】,祖父
hs-bl-ch-en,"コントロールカラム欄に入力可能な文字はn（新規）、u（更新・変更）、d（削除）だけです。
※オークション商品の一括登録では、u（更新・変更）は入力できません。", 【3.贈る相手をお選び下さい】,祖母
hs-bl-ch-en,"コントロールカラム欄に入力可能な文字はn（新規）、u（更新・変更）、d（削除）だけです。
※オークション商品の一括登録では、u（更新・変更）は入力できません。", 【3.贈る相手をお選び下さい】,--------------------------------
hs-bl-ch-en,"コントロールカラム欄に入力可能な文字はn（新規）、u（更新・変更）、d（削除）だけです。
※オークション商品の一括登録では、u（更新・変更）は入力できません。", 【3.贈る相手をお選び下さい】,上司
hs-bl-ch-en,"コントロールカラム欄に入力可能な文字はn（新規）、u（更新・変更）、d（削除）だけです。
※オークション商品の一括登録では、u（更新・変更）は入力できません。", 【3.贈る相手をお選び下さい】,同僚
hs-bl-ch-en,"コントロールカラム欄に入力可能な文字はn（新規）、u（更新・変更）、d（削除）だけです。
※オークション商品の一括登録では、u（更新・変更）は入力できません。", 【3.贈る相手をお選び下さい】,部下
hs-bl-ch-en,"コントロールカラム欄に入力可能な文字はn（新規）、u（更新・変更）、d（削除）だけです。
※オークション商品の一括登録では、u（更新・変更）は入力できません。", 【3.贈る相手をお選び下さい】,取引先
hs-bl-ch-rin,"コントロールカラム欄に入力可能な文字はn（新規）、u（更新・変更）、d（削除）だけです。
※オークション商品の一括登録では、u（更新・変更）は入力できません。",※お熨斗をご希望の方へ、お客様にご指定いただく熨斗の【表書き】、【種類（蝶結び or 結び切り）】などが適切かどうかの参考にさせていただきますので下記の【1~3】をお選びください。お熨斗のご指定はカート内の備考欄でお願い致します。,了解しました
hs-bl-ch-rin,"コントロールカラム欄に入力可能な文字はn（新規）、u（更新・変更）、d（削除）だけです。
※オークション商品の一括登録では、u（更新・変更）は入力できません。", 【1.購入目的をお選び下さい】,下記よりお選び下さい↓↓
hs-bl-ch-rin,"コントロールカラム欄に入力可能な文字はn（新規）、u（更新・変更）、d（削除）だけです。
※オークション商品の一括登録では、u（更新・変更）は入力できません。", 【1.購入目的をお選び下さい】,自宅用
hs-bl-ch-rin,"コントロールカラム欄に入力可能な文字はn（新規）、u（更新・変更）、d（削除）だけです。
※オークション商品の一括登録では、u（更新・変更）は入力できません。", 【1.購入目的をお選び下さい】,ギフト用
hs-bl-ch-rin,"コントロールカラム欄に入力可能な文字はn（新規）、u（更新・変更）、d（削除）だけです。
※オークション商品の一括登録では、u（更新・変更）は入力できません。", 【1.購入目的をお選び下さい】,ギフト用(海外)
hs-bl-ch-rin,"コントロールカラム欄に入力可能な文字はn（新規）、u（更新・変更）、d（削除）だけです。
※オークション商品の一括登録では、u（更新・変更）は入力できません。", 【2.用途をお選び下さい】,下記よりお選び下さい↓↓
hs-bl-ch-rin,"コントロールカラム欄に入力可能な文字はn（新規）、u（更新・変更）、d（削除）だけです。
※オークション商品の一括登録では、u（更新・変更）は入力できません。", 【2.用途をお選び下さい】,結婚祝い
hs-bl-ch-rin,"コントロールカラム欄に入力可能な文字はn（新規）、u（更新・変更）、d（削除）だけです。
※オークション商品の一括登録では、u（更新・変更）は入力できません。", 【2.用途をお選び下さい】,結婚記念日(銀婚式)
hs-bl-ch-rin,"コントロールカラム欄に入力可能な文字はn（新規）、u（更新・変更）、d（削除）だけです。
※オークション商品の一括登録では、u（更新・変更）は入力できません。", 【2.用途をお選び下さい】,結婚記念日(金婚式)
hs-bl-ch-rin,"コントロールカラム欄に入力可能な文字はn（新規）、u（更新・変更）、d（削除）だけです。
※オークション商品の一括登録では、u（更新・変更）は入力できません。", 【2.用途をお選び下さい】,結婚記念日(その他)
hs-bl-ch-rin,"コントロールカラム欄に入力可能な文字はn（新規）、u（更新・変更）、d（削除）だけです。
※オークション商品の一括登録では、u（更新・変更）は入力できません。", 【2.用途をお選び下さい】,出産祝い
hs-bl-ch-rin,"コントロールカラム欄に入力可能な文字はn（新規）、u（更新・変更）、d（削除）だけです。
※オークション商品の一括登録では、u（更新・変更）は入力できません。", 【2.用途をお選び下さい】,新築祝い
hs-bl-ch-rin,"コントロールカラム欄に入力可能な文字はn（新規）、u（更新・変更）、d（削除）だけです。
※オークション商品の一括登録では、u（更新・変更）は入力できません。", 【2.用途をお選び下さい】,退職祝い
hs-bl-ch-rin,"コントロールカラム欄に入力可能な文字はn（新規）、u（更新・変更）、d（削除）だけです。
※オークション商品の一括登録では、u（更新・変更）は入力できません。", 【2.用途をお選び下さい】,長寿祝い(還暦)
hs-bl-ch-rin,"コントロールカラム欄に入力可能な文字はn（新規）、u（更新・変更）、d（削除）だけです。
※オークション商品の一括登録では、u（更新・変更）は入力できません。", 【2.用途をお選び下さい】,長寿祝い(古希)
hs-bl-ch-rin,"コントロールカラム欄に入力可能な文字はn（新規）、u（更新・変更）、d（削除）だけです。
※オークション商品の一括登録では、u（更新・変更）は入力できません。", 【2.用途をお選び下さい】,長寿祝い(喜寿)
hs-bl-ch-rin,"コントロールカラム欄に入力可能な文字はn（新規）、u（更新・変更）、d（削除）だけです。
※オークション商品の一括登録では、u（更新・変更）は入力できません。", 【2.用途をお選び下さい】,長寿祝い(米寿)
hs-bl-ch-rin,"コントロールカラム欄に入力可能な文字はn（新規）、u（更新・変更）、d（削除）だけです。
※オークション商品の一括登録では、u（更新・変更）は入力できません。", 【2.用途をお選び下さい】,長寿祝い(その他)
hs-bl-ch-rin,"コントロールカラム欄に入力可能な文字はn（新規）、u（更新・変更）、d（削除）だけです。
※オークション商品の一括登録では、u（更新・変更）は入力できません。", 【2.用途をお選び下さい】,内祝(結婚)
hs-bl-ch-rin,"コントロールカラム欄に入力可能な文字はn（新規）、u（更新・変更）、d（削除）だけです。
※オークション商品の一括登録では、u（更新・変更）は入力できません。", 【2.用途をお選び下さい】,内祝(出産)
hs-bl-ch-rin,"コントロールカラム欄に入力可能な文字はn（新規）、u（更新・変更）、d（削除）だけです。
※オークション商品の一括登録では、u（更新・変更）は入力できません。", 【2.用途をお選び下さい】,内祝(新築)
hs-bl-ch-rin,"コントロールカラム欄に入力可能な文字はn（新規）、u（更新・変更）、d（削除）だけです。
※オークション商品の一括登録では、u（更新・変更）は入力できません。", 【2.用途をお選び下さい】,内祝(その他)
hs-bl-ch-rin,"コントロールカラム欄に入力可能な文字はn（新規）、u（更新・変更）、d（削除）だけです。
※オークション商品の一括登録では、u（更新・変更）は入力できません。", 【2.用途をお選び下さい】,--------------------------------
hs-bl-ch-rin,"コントロールカラム欄に入力可能な文字はn（新規）、u（更新・変更）、d（削除）だけです。
※オークション商品の一括登録では、u（更新・変更）は入力できません。", 【2.用途をお選び下さい】,開店開業記念
hs-bl-ch-rin,"コントロールカラム欄に入力可能な文字はn（新規）、u（更新・変更）、d（削除）だけです。
※オークション商品の一括登録では、u（更新・変更）は入力できません。", 【2.用途をお選び下さい】,株式上場記念
hs-bl-ch-rin,"コントロールカラム欄に入力可能な文字はn（新規）、u（更新・変更）、d（削除）だけです。
※オークション商品の一括登録では、u（更新・変更）は入力できません。", 【2.用途をお選び下さい】,社内褒章
hs-bl-ch-rin,"コントロールカラム欄に入力可能な文字はn（新規）、u（更新・変更）、d（削除）だけです。
※オークション商品の一括登録では、u（更新・変更）は入力できません。", 【2.用途をお選び下さい】,創業創立記念
hs-bl-ch-rin,"コントロールカラム欄に入力可能な文字はn（新規）、u（更新・変更）、d（削除）だけです。
※オークション商品の一括登録では、u（更新・変更）は入力できません。", 【2.用途をお選び下さい】,周年記念
hs-bl-ch-rin,"コントロールカラム欄に入力可能な文字はn（新規）、u（更新・変更）、d（削除）だけです。
※オークション商品の一括登録では、u（更新・変更）は入力できません。", 【2.用途をお選び下さい】,その他法人ギフト
hs-bl-ch-rin,"コントロールカラム欄に入力可能な文字はn（新規）、u（更新・変更）、d（削除）だけです。
※オークション商品の一括登録では、u（更新・変更）は入力できません。", 【2.用途をお選び下さい】,-------------------------------
hs-bl-ch-rin,"コントロールカラム欄に入力可能な文字はn（新規）、u（更新・変更）、d（削除）だけです。
※オークション商品の一括登録では、u（更新・変更）は入力できません。", 【2.用途をお選び下さい】,初任給
hs-bl-ch-rin,"コントロールカラム欄に入力可能な文字はn（新規）、u（更新・変更）、d（削除）だけです。
※オークション商品の一括登録では、u（更新・変更）は入力できません。", 【2.用途をお選び下さい】,端午の節句
hs-bl-ch-rin,"コントロールカラム欄に入力可能な文字はn（新規）、u（更新・変更）、d（削除）だけです。
※オークション商品の一括登録では、u（更新・変更）は入力できません。", 【2.用途をお選び下さい】,母の日
hs-bl-ch-rin,"コントロールカラム欄に入力可能な文字はn（新規）、u（更新・変更）、d（削除）だけです。
※オークション商品の一括登録では、u（更新・変更）は入力できません。", 【2.用途をお選び下さい】,父の日
hs-bl-ch-rin,"コントロールカラム欄に入力可能な文字はn（新規）、u（更新・変更）、d（削除）だけです。
※オークション商品の一括登録では、u（更新・変更）は入力できません。", 【2.用途をお選び下さい】,敬老の日
hs-bl-ch-rin,"コントロールカラム欄に入力可能な文字はn（新規）、u（更新・変更）、d（削除）だけです。
※オークション商品の一括登録では、u（更新・変更）は入力できません。", 【3.贈る相手をお選び下さい】,下記よりお選び下さい↓↓
hs-bl-ch-rin,"コントロールカラム欄に入力可能な文字はn（新規）、u（更新・変更）、d（削除）だけです。
※オークション商品の一括登録では、u（更新・変更）は入力できません。", 【3.贈る相手をお選び下さい】,知人
hs-bl-ch-rin,"コントロールカラム欄に入力可能な文字はn（新規）、u（更新・変更）、d（削除）だけです。
※オークション商品の一括登録では、u（更新・変更）は入力できません。", 【3.贈る相手をお選び下さい】,両親
hs-bl-ch-rin,"コントロールカラム欄に入力可能な文字はn（新規）、u（更新・変更）、d（削除）だけです。
※オークション商品の一括登録では、u（更新・変更）は入力できません。", 【3.贈る相手をお選び下さい】,父
hs-bl-ch-rin,"コントロールカラム欄に入力可能な文字はn（新規）、u（更新・変更）、d（削除）だけです。
※オークション商品の一括登録では、u（更新・変更）は入力できません。", 【3.贈る相手をお選び下さい】,母
hs-bl-ch-rin,"コントロールカラム欄に入力可能な文字はn（新規）、u（更新・変更）、d（削除）だけです。
※オークション商品の一括登録では、u（更新・変更）は入力できません。", 【3.贈る相手をお選び下さい】,兄弟
hs-bl-ch-rin,"コントロールカラム欄に入力可能な文字はn（新規）、u（更新・変更）、d（削除）だけです。
※オークション商品の一括登録では、u（更新・変更）は入力できません。", 【3.贈る相手をお選び下さい】,姉妹
hs-bl-ch-rin,"コントロールカラム欄に入力可能な文字はn（新規）、u（更新・変更）、d（削除）だけです。
※オークション商品の一括登録では、u（更新・変更）は入力できません。", 【3.贈る相手をお選び下さい】,親戚
hs-bl-ch-rin,"コントロールカラム欄に入力可能な文字はn（新規）、u（更新・変更）、d（削除）だけです。
※オークション商品の一括登録では、u（更新・変更）は入力できません。", 【3.贈る相手をお選び下さい】,彼氏、夫
hs-bl-ch-rin,"コントロールカラム欄に入力可能な文字はn（新規）、u（更新・変更）、d（削除）だけです。
※オークション商品の一括登録では、u（更新・変更）は入力できません。", 【3.贈る相手をお選び下さい】,彼女、妻
hs-bl-ch-rin,"コントロールカラム欄に入力可能な文字はn（新規）、u（更新・変更）、d（削除）だけです。
※オークション商品の一括登録では、u（更新・変更）は入力できません。", 【3.贈る相手をお選び下さい】,祖父母
hs-bl-ch-rin,"コントロールカラム欄に入力可能な文字はn（新規）、u（更新・変更）、d（削除）だけです。
※オークション商品の一括登録では、u（更新・変更）は入力できません。", 【3.贈る相手をお選び下さい】,祖父
hs-bl-ch-rin,"コントロールカラム欄に入力可能な文字はn（新規）、u（更新・変更）、d（削除）だけです。
※オークション商品の一括登録では、u（更新・変更）は入力できません。", 【3.贈る相手をお選び下さい】,祖母
hs-bl-ch-rin,"コントロールカラム欄に入力可能な文字はn（新規）、u（更新・変更）、d（削除）だけです。
※オークション商品の一括登録では、u（更新・変更）は入力できません。", 【3.贈る相手をお選び下さい】,--------------------------------
hs-bl-ch-rin,"コントロールカラム欄に入力可能な文字はn（新規）、u（更新・変更）、d（削除）だけです。
※オークション商品の一括登録では、u（更新・変更）は入力できません。", 【3.贈る相手をお選び下さい】,上司
hs-bl-ch-rin,"コントロールカラム欄に入力可能な文字はn（新規）、u（更新・変更）、d（削除）だけです。
※オークション商品の一括登録では、u（更新・変更）は入力できません。", 【3.贈る相手をお選び下さい】,同僚
hs-bl-ch-rin,"コントロールカラム欄に入力可能な文字はn（新規）、u（更新・変更）、d（削除）だけです。
※オークション商品の一括登録では、u（更新・変更）は入力できません。", 【3.贈る相手をお選び下さい】,部下
hs-bl-ch-rin,"コントロールカラム欄に入力可能な文字はn（新規）、u（更新・変更）、d（削除）だけです。
※オークション商品の一括登録では、u（更新・変更）は入力できません。", 【3.贈る相手をお選び下さい】,取引先
hs-bl-ch-sou,"コントロールカラム欄に入力可能な文字はn（新規）、u（更新・変更）、d（削除）だけです。
※オークション商品の一括登録では、u（更新・変更）は入力できません。",※お熨斗をご希望の方へ、お客様にご指定いただく熨斗の【表書き】、【種類（蝶結び or 結び切り）】などが適切かどうかの参考にさせていただきますので下記の【1~3】をお選びください。お熨斗のご指定はカート内の備考欄でお願い致します。,了解しました
hs-bl-ch-sou,"コントロールカラム欄に入力可能な文字はn（新規）、u（更新・変更）、d（削除）だけです。
※オークション商品の一括登録では、u（更新・変更）は入力できません。", 【1.購入目的をお選び下さい】,下記よりお選び下さい↓↓
hs-bl-ch-sou,"コントロールカラム欄に入力可能な文字はn（新規）、u（更新・変更）、d（削除）だけです。
※オークション商品の一括登録では、u（更新・変更）は入力できません。", 【1.購入目的をお選び下さい】,自宅用
hs-bl-ch-sou,"コントロールカラム欄に入力可能な文字はn（新規）、u（更新・変更）、d（削除）だけです。
※オークション商品の一括登録では、u（更新・変更）は入力できません。", 【1.購入目的をお選び下さい】,ギフト用
hs-bl-ch-sou,"コントロールカラム欄に入力可能な文字はn（新規）、u（更新・変更）、d（削除）だけです。
※オークション商品の一括登録では、u（更新・変更）は入力できません。", 【1.購入目的をお選び下さい】,ギフト用(海外)
hs-bl-ch-sou,"コントロールカラム欄に入力可能な文字はn（新規）、u（更新・変更）、d（削除）だけです。
※オークション商品の一括登録では、u（更新・変更）は入力できません。", 【2.用途をお選び下さい】,下記よりお選び下さい↓↓
hs-bl-ch-sou,"コントロールカラム欄に入力可能な文字はn（新規）、u（更新・変更）、d（削除）だけです。
※オークション商品の一括登録では、u（更新・変更）は入力できません。", 【2.用途をお選び下さい】,結婚祝い
hs-bl-ch-sou,"コントロールカラム欄に入力可能な文字はn（新規）、u（更新・変更）、d（削除）だけです。
※オークション商品の一括登録では、u（更新・変更）は入力できません。", 【2.用途をお選び下さい】,結婚記念日(銀婚式)
hs-bl-ch-sou,"コントロールカラム欄に入力可能な文字はn（新規）、u（更新・変更）、d（削除）だけです。
※オークション商品の一括登録では、u（更新・変更）は入力できません。", 【2.用途をお選び下さい】,結婚記念日(金婚式)
hs-bl-ch-sou,"コントロールカラム欄に入力可能な文字はn（新規）、u（更新・変更）、d（削除）だけです。
※オークション商品の一括登録では、u（更新・変更）は入力できません。", 【2.用途をお選び下さい】,結婚記念日(その他)
hs-bl-ch-sou,"コントロールカラム欄に入力可能な文字はn（新規）、u（更新・変更）、d（削除）だけです。
※オークション商品の一括登録では、u（更新・変更）は入力できません。", 【2.用途をお選び下さい】,出産祝い
hs-bl-ch-sou,"コントロールカラム欄に入力可能な文字はn（新規）、u（更新・変更）、d（削除）だけです。
※オークション商品の一括登録では、u（更新・変更）は入力できません。", 【2.用途をお選び下さい】,新築祝い
hs-bl-ch-sou,"コントロールカラム欄に入力可能な文字はn（新規）、u（更新・変更）、d（削除）だけです。
※オークション商品の一括登録では、u（更新・変更）は入力できません。", 【2.用途をお選び下さい】,退職祝い
hs-bl-ch-sou,"コントロールカラム欄に入力可能な文字はn（新規）、u（更新・変更）、d（削除）だけです。
※オークション商品の一括登録では、u（更新・変更）は入力できません。", 【2.用途をお選び下さい】,長寿祝い(還暦)
hs-bl-ch-sou,"コントロールカラム欄に入力可能な文字はn（新規）、u（更新・変更）、d（削除）だけです。
※オークション商品の一括登録では、u（更新・変更）は入力できません。", 【2.用途をお選び下さい】,長寿祝い(古希)
hs-bl-ch-sou,"コントロールカラム欄に入力可能な文字はn（新規）、u（更新・変更）、d（削除）だけです。
※オークション商品の一括登録では、u（更新・変更）は入力できません。", 【2.用途をお選び下さい】,長寿祝い(喜寿)
hs-bl-ch-sou,"コントロールカラム欄に入力可能な文字はn（新規）、u（更新・変更）、d（削除）だけです。
※オークション商品の一括登録では、u（更新・変更）は入力できません。", 【2.用途をお選び下さい】,長寿祝い(米寿)
hs-bl-ch-sou,"コントロールカラム欄に入力可能な文字はn（新規）、u（更新・変更）、d（削除）だけです。
※オークション商品の一括登録では、u（更新・変更）は入力できません。", 【2.用途をお選び下さい】,長寿祝い(その他)
hs-bl-ch-sou,"コントロールカラム欄に入力可能な文字はn（新規）、u（更新・変更）、d（削除）だけです。
※オークション商品の一括登録では、u（更新・変更）は入力できません。", 【2.用途をお選び下さい】,内祝(結婚)
hs-bl-ch-sou,"コントロールカラム欄に入力可能な文字はn（新規）、u（更新・変更）、d（削除）だけです。
※オークション商品の一括登録では、u（更新・変更）は入力できません。", 【2.用途をお選び下さい】,内祝(出産)
hs-bl-ch-sou,"コントロールカラム欄に入力可能な文字はn（新規）、u（更新・変更）、d（削除）だけです。
※オークション商品の一括登録では、u（更新・変更）は入力できません。", 【2.用途をお選び下さい】,内祝(新築)
hs-bl-ch-sou,"コントロールカラム欄に入力可能な文字はn（新規）、u（更新・変更）、d（削除）だけです。
※オークション商品の一括登録では、u（更新・変更）は入力できません。", 【2.用途をお選び下さい】,内祝(その他)
hs-bl-ch-sou,"コントロールカラム欄に入力可能な文字はn（新規）、u（更新・変更）、d（削除）だけです。
※オークション商品の一括登録では、u（更新・変更）は入力できません。", 【2.用途をお選び下さい】,--------------------------------
hs-bl-ch-sou,"コントロールカラム欄に入力可能な文字はn（新規）、u（更新・変更）、d（削除）だけです。
※オークション商品の一括登録では、u（更新・変更）は入力できません。", 【2.用途をお選び下さい】,開店開業記念
hs-bl-ch-sou,"コントロールカラム欄に入力可能な文字はn（新規）、u（更新・変更）、d（削除）だけです。
※オークション商品の一括登録では、u（更新・変更）は入力できません。", 【2.用途をお選び下さい】,株式上場記念
hs-bl-ch-sou,"コントロールカラム欄に入力可能な文字はn（新規）、u（更新・変更）、d（削除）だけです。
※オークション商品の一括登録では、u（更新・変更）は入力できません。", 【2.用途をお選び下さい】,社内褒章
hs-bl-ch-sou,"コントロールカラム欄に入力可能な文字はn（新規）、u（更新・変更）、d（削除）だけです。
※オークション商品の一括登録では、u（更新・変更）は入力できません。", 【2.用途をお選び下さい】,創業創立記念
hs-bl-ch-sou,"コントロールカラム欄に入力可能な文字はn（新規）、u（更新・変更）、d（削除）だけです。
※オークション商品の一括登録では、u（更新・変更）は入力できません。", 【2.用途をお選び下さい】,周年記念
hs-bl-ch-sou,"コントロールカラム欄に入力可能な文字はn（新規）、u（更新・変更）、d（削除）だけです。
※オークション商品の一括登録では、u（更新・変更）は入力できません。", 【2.用途をお選び下さい】,その他法人ギフト
hs-bl-ch-sou,"コントロールカラム欄に入力可能な文字はn（新規）、u（更新・変更）、d（削除）だけです。
※オークション商品の一括登録では、u（更新・変更）は入力できません。", 【2.用途をお選び下さい】,-------------------------------
hs-bl-ch-sou,"コントロールカラム欄に入力可能な文字はn（新規）、u（更新・変更）、d（削除）だけです。
※オークション商品の一括登録では、u（更新・変更）は入力できません。", 【2.用途をお選び下さい】,初任給
hs-bl-ch-sou,"コントロールカラム欄に入力可能な文字はn（新規）、u（更新・変更）、d（削除）だけです。
※オークション商品の一括登録では、u（更新・変更）は入力できません。", 【2.用途をお選び下さい】,端午の節句
hs-bl-ch-sou,"コントロールカラム欄に入力可能な文字はn（新規）、u（更新・変更）、d（削除）だけです。
※オークション商品の一括登録では、u（更新・変更）は入力できません。", 【2.用途をお選び下さい】,母の日
hs-bl-ch-sou,"コントロールカラム欄に入力可能な文字はn（新規）、u（更新・変更）、d（削除）だけです。
※オークション商品の一括登録では、u（更新・変更）は入力できません。", 【2.用途をお選び下さい】,父の日
hs-bl-ch-sou,"コントロールカラム欄に入力可能な文字はn（新規）、u（更新・変更）、d（削除）だけです。
※オークション商品の一括登録では、u（更新・変更）は入力できません。", 【2.用途をお選び下さい】,敬老の日
hs-bl-ch-sou,"コントロールカラム欄に入力可能な文字はn（新規）、u（更新・変更）、d（削除）だけです。
※オークション商品の一括登録では、u（更新・変更）は入力できません。", 【3.贈る相手をお選び下さい】,下記よりお選び下さい↓↓
hs-bl-ch-sou,"コントロールカラム欄に入力可能な文字はn（新規）、u（更新・変更）、d（削除）だけです。
※オークション商品の一括登録では、u（更新・変更）は入力できません。", 【3.贈る相手をお選び下さい】,知人
hs-bl-ch-sou,"コントロールカラム欄に入力可能な文字はn（新規）、u（更新・変更）、d（削除）だけです。
※オークション商品の一括登録では、u（更新・変更）は入力できません。", 【3.贈る相手をお選び下さい】,両親
hs-bl-ch-sou,"コントロールカラム欄に入力可能な文字はn（新規）、u（更新・変更）、d（削除）だけです。
※オークション商品の一括登録では、u（更新・変更）は入力できません。", 【3.贈る相手をお選び下さい】,父
hs-bl-ch-sou,"コントロールカラム欄に入力可能な文字はn（新規）、u（更新・変更）、d（削除）だけです。
※オークション商品の一括登録では、u（更新・変更）は入力できません。", 【3.贈る相手をお選び下さい】,母
hs-bl-ch-sou,"コントロールカラム欄に入力可能な文字はn（新規）、u（更新・変更）、d（削除）だけです。
※オークション商品の一括登録では、u（更新・変更）は入力できません。", 【3.贈る相手をお選び下さい】,兄弟
hs-bl-ch-sou,"コントロールカラム欄に入力可能な文字はn（新規）、u（更新・変更）、d（削除）だけです。
※オークション商品の一括登録では、u（更新・変更）は入力できません。", 【3.贈る相手をお選び下さい】,姉妹
hs-bl-ch-sou,"コントロールカラム欄に入力可能な文字はn（新規）、u（更新・変更）、d（削除）だけです。
※オークション商品の一括登録では、u（更新・変更）は入力できません。", 【3.贈る相手をお選び下さい】,親戚
hs-bl-ch-sou,"コントロールカラム欄に入力可能な文字はn（新規）、u（更新・変更）、d（削除）だけです。
※オークション商品の一括登録では、u（更新・変更）は入力できません。", 【3.贈る相手をお選び下さい】,彼氏、夫
hs-bl-ch-sou,"コントロールカラム欄に入力可能な文字はn（新規）、u（更新・変更）、d（削除）だけです。
※オークション商品の一括登録では、u（更新・変更）は入力できません。", 【3.贈る相手をお選び下さい】,彼女、妻
hs-bl-ch-sou,"コントロールカラム欄に入力可能な文字はn（新規）、u（更新・変更）、d（削除）だけです。
※オークション商品の一括登録では、u（更新・変更）は入力できません。", 【3.贈る相手をお選び下さい】,祖父母
hs-bl-ch-sou,"コントロールカラム欄に入力可能な文字はn（新規）、u（更新・変更）、d（削除）だけです。
※オークション商品の一括登録では、u（更新・変更）は入力できません。", 【3.贈る相手をお選び下さい】,祖父
hs-bl-ch-sou,"コントロールカラム欄に入力可能な文字はn（新規）、u（更新・変更）、d（削除）だけです。
※オークション商品の一括登録では、u（更新・変更）は入力できません。", 【3.贈る相手をお選び下さい】,祖母
hs-bl-ch-sou,"コントロールカラム欄に入力可能な文字はn（新規）、u（更新・変更）、d（削除）だけです。
※オークション商品の一括登録では、u（更新・変更）は入力できません。", 【3.贈る相手をお選び下さい】,--------------------------------
hs-bl-ch-sou,"コントロールカラム欄に入力可能な文字はn（新規）、u（更新・変更）、d（削除）だけです。
※オークション商品の一括登録では、u（更新・変更）は入力できません。", 【3.贈る相手をお選び下さい】,上司
hs-bl-ch-sou,"コントロールカラム欄に入力可能な文字はn（新規）、u（更新・変更）、d（削除）だけです。
※オークション商品の一括登録では、u（更新・変更）は入力できません。", 【3.贈る相手をお選び下さい】,同僚
hs-bl-ch-sou,"コントロールカラム欄に入力可能な文字はn（新規）、u（更新・変更）、d（削除）だけです。
※オークション商品の一括登録では、u（更新・変更）は入力できません。", 【3.贈る相手をお選び下さい】,部下
hs-bl-ch-sou,"コントロールカラム欄に入力可能な文字はn（新規）、u（更新・変更）、d（削除）だけです。
※オークション商品の一括登録では、u（更新・変更）は入力できません。", 【3.贈る相手をお選び下さい】,取引先
hs-bl-ch-sui,"コントロールカラム欄に入力可能な文字はn（新規）、u（更新・変更）、d（削除）だけです。
※オークション商品の一括登録では、u（更新・変更）は入力できません。",※お熨斗をご希望の方へ、お客様にご指定いただく熨斗の【表書き】、【種類（蝶結び or 結び切り）】などが適切かどうかの参考にさせていただきますので下記の【1~3】をお選びください。お熨斗のご指定はカート内の備考欄でお願い致します。,了解しました
hs-bl-ch-sui,"コントロールカラム欄に入力可能な文字はn（新規）、u（更新・変更）、d（削除）だけです。
※オークション商品の一括登録では、u（更新・変更）は入力できません。", 【1.購入目的をお選び下さい】,下記よりお選び下さい↓↓
hs-bl-ch-sui,"コントロールカラム欄に入力可能な文字はn（新規）、u（更新・変更）、d（削除）だけです。
※オークション商品の一括登録では、u（更新・変更）は入力できません。", 【1.購入目的をお選び下さい】,自宅用
hs-bl-ch-sui,"コントロールカラム欄に入力可能な文字はn（新規）、u（更新・変更）、d（削除）だけです。
※オークション商品の一括登録では、u（更新・変更）は入力できません。", 【1.購入目的をお選び下さい】,ギフト用
hs-bl-ch-sui,"コントロールカラム欄に入力可能な文字はn（新規）、u（更新・変更）、d（削除）だけです。
※オークション商品の一括登録では、u（更新・変更）は入力できません。", 【1.購入目的をお選び下さい】,ギフト用(海外)
hs-bl-ch-sui,"コントロールカラム欄に入力可能な文字はn（新規）、u（更新・変更）、d（削除）だけです。
※オークション商品の一括登録では、u（更新・変更）は入力できません。", 【2.用途をお選び下さい】,下記よりお選び下さい↓↓
hs-bl-ch-sui,"コントロールカラム欄に入力可能な文字はn（新規）、u（更新・変更）、d（削除）だけです。
※オークション商品の一括登録では、u（更新・変更）は入力できません。", 【2.用途をお選び下さい】,結婚祝い
hs-bl-ch-sui,"コントロールカラム欄に入力可能な文字はn（新規）、u（更新・変更）、d（削除）だけです。
※オークション商品の一括登録では、u（更新・変更）は入力できません。", 【2.用途をお選び下さい】,結婚記念日(銀婚式)
hs-bl-ch-sui,"コントロールカラム欄に入力可能な文字はn（新規）、u（更新・変更）、d（削除）だけです。
※オークション商品の一括登録では、u（更新・変更）は入力できません。", 【2.用途をお選び下さい】,結婚記念日(金婚式)
hs-bl-ch-sui,"コントロールカラム欄に入力可能な文字はn（新規）、u（更新・変更）、d（削除）だけです。
※オークション商品の一括登録では、u（更新・変更）は入力できません。", 【2.用途をお選び下さい】,結婚記念日(その他)
hs-bl-ch-sui,"コントロールカラム欄に入力可能な文字はn（新規）、u（更新・変更）、d（削除）だけです。
※オークション商品の一括登録では、u（更新・変更）は入力できません。", 【2.用途をお選び下さい】,出産祝い
hs-bl-ch-sui,"コントロールカラム欄に入力可能な文字はn（新規）、u（更新・変更）、d（削除）だけです。
※オークション商品の一括登録では、u（更新・変更）は入力できません。", 【2.用途をお選び下さい】,新築祝い
hs-bl-ch-sui,"コントロールカラム欄に入力可能な文字はn（新規）、u（更新・変更）、d（削除）だけです。
※オークション商品の一括登録では、u（更新・変更）は入力できません。", 【2.用途をお選び下さい】,退職祝い
hs-bl-ch-sui,"コントロールカラム欄に入力可能な文字はn（新規）、u（更新・変更）、d（削除）だけです。
※オークション商品の一括登録では、u（更新・変更）は入力できません。", 【2.用途をお選び下さい】,長寿祝い(還暦)
hs-bl-ch-sui,"コントロールカラム欄に入力可能な文字はn（新規）、u（更新・変更）、d（削除）だけです。
※オークション商品の一括登録では、u（更新・変更）は入力できません。", 【2.用途をお選び下さい】,長寿祝い(古希)
hs-bl-ch-sui,"コントロールカラム欄に入力可能な文字はn（新規）、u（更新・変更）、d（削除）だけです。
※オークション商品の一括登録では、u（更新・変更）は入力できません。", 【2.用途をお選び下さい】,長寿祝い(喜寿)
hs-bl-ch-sui,"コントロールカラム欄に入力可能な文字はn（新規）、u（更新・変更）、d（削除）だけです。
※オークション商品の一括登録では、u（更新・変更）は入力できません。", 【2.用途をお選び下さい】,長寿祝い(米寿)
hs-bl-ch-sui,"コントロールカラム欄に入力可能な文字はn（新規）、u（更新・変更）、d（削除）だけです。
※オークション商品の一括登録では、u（更新・変更）は入力できません。", 【2.用途をお選び下さい】,長寿祝い(その他)
hs-bl-ch-sui,"コントロールカラム欄に入力可能な文字はn（新規）、u（更新・変更）、d（削除）だけです。
※オークション商品の一括登録では、u（更新・変更）は入力できません。", 【2.用途をお選び下さい】,内祝(結婚)
hs-bl-ch-sui,"コントロールカラム欄に入力可能な文字はn（新規）、u（更新・変更）、d（削除）だけです。
※オークション商品の一括登録では、u（更新・変更）は入力できません。", 【2.用途をお選び下さい】,内祝(出産)
hs-bl-ch-sui,"コントロールカラム欄に入力可能な文字はn（新規）、u（更新・変更）、d（削除）だけです。
※オークション商品の一括登録では、u（更新・変更）は入力できません。", 【2.用途をお選び下さい】,内祝(新築)
hs-bl-ch-sui,"コントロールカラム欄に入力可能な文字はn（新規）、u（更新・変更）、d（削除）だけです。
※オークション商品の一括登録では、u（更新・変更）は入力できません。", 【2.用途をお選び下さい】,内祝(その他)
hs-bl-ch-sui,"コントロールカラム欄に入力可能な文字はn（新規）、u（更新・変更）、d（削除）だけです。
※オークション商品の一括登録では、u（更新・変更）は入力できません。", 【2.用途をお選び下さい】,--------------------------------
hs-bl-ch-sui,"コントロールカラム欄に入力可能な文字はn（新規）、u（更新・変更）、d（削除）だけです。
※オークション商品の一括登録では、u（更新・変更）は入力できません。", 【2.用途をお選び下さい】,開店開業記念
hs-bl-ch-sui,"コントロールカラム欄に入力可能な文字はn（新規）、u（更新・変更）、d（削除）だけです。
※オークション商品の一括登録では、u（更新・変更）は入力できません。", 【2.用途をお選び下さい】,株式上場記念
hs-bl-ch-sui,"コントロールカラム欄に入力可能な文字はn（新規）、u（更新・変更）、d（削除）だけです。
※オークション商品の一括登録では、u（更新・変更）は入力できません。", 【2.用途をお選び下さい】,社内褒章
hs-bl-ch-sui,"コントロールカラム欄に入力可能な文字はn（新規）、u（更新・変更）、d（削除）だけです。
※オークション商品の一括登録では、u（更新・変更）は入力できません。", 【2.用途をお選び下さい】,創業創立記念
hs-bl-ch-sui,"コントロールカラム欄に入力可能な文字はn（新規）、u（更新・変更）、d（削除）だけです。
※オークション商品の一括登録では、u（更新・変更）は入力できません。", 【2.用途をお選び下さい】,周年記念
hs-bl-ch-sui,"コントロールカラム欄に入力可能な文字はn（新規）、u（更新・変更）、d（削除）だけです。
※オークション商品の一括登録では、u（更新・変更）は入力できません。", 【2.用途をお選び下さい】,その他法人ギフト
hs-bl-ch-sui,"コントロールカラム欄に入力可能な文字はn（新規）、u（更新・変更）、d（削除）だけです。
※オークション商品の一括登録では、u（更新・変更）は入力できません。", 【2.用途をお選び下さい】,-------------------------------
hs-bl-ch-sui,"コントロールカラム欄に入力可能な文字はn（新規）、u（更新・変更）、d（削除）だけです。
※オークション商品の一括登録では、u（更新・変更）は入力できません。", 【2.用途をお選び下さい】,初任給
hs-bl-ch-sui,"コントロールカラム欄に入力可能な文字はn（新規）、u（更新・変更）、d（削除）だけです。
※オークション商品の一括登録では、u（更新・変更）は入力できません。", 【2.用途をお選び下さい】,端午の節句
hs-bl-ch-sui,"コントロールカラム欄に入力可能な文字はn（新規）、u（更新・変更）、d（削除）だけです。
※オークション商品の一括登録では、u（更新・変更）は入力できません。", 【2.用途をお選び下さい】,母の日
hs-bl-ch-sui,"コントロールカラム欄に入力可能な文字はn（新規）、u（更新・変更）、d（削除）だけです。
※オークション商品の一括登録では、u（更新・変更）は入力できません。", 【2.用途をお選び下さい】,父の日
hs-bl-ch-sui,"コントロールカラム欄に入力可能な文字はn（新規）、u（更新・変更）、d（削除）だけです。
※オークション商品の一括登録では、u（更新・変更）は入力できません。", 【2.用途をお選び下さい】,敬老の日
hs-bl-ch-sui,"コントロールカラム欄に入力可能な文字はn（新規）、u（更新・変更）、d（削除）だけです。
※オークション商品の一括登録では、u（更新・変更）は入力できません。", 【3.贈る相手をお選び下さい】,下記よりお選び下さい↓↓
hs-bl-ch-sui,"コントロールカラム欄に入力可能な文字はn（新規）、u（更新・変更）、d（削除）だけです。
※オークション商品の一括登録では、u（更新・変更）は入力できません。", 【3.贈る相手をお選び下さい】,知人
hs-bl-ch-sui,"コントロールカラム欄に入力可能な文字はn（新規）、u（更新・変更）、d（削除）だけです。
※オークション商品の一括登録では、u（更新・変更）は入力できません。", 【3.贈る相手をお選び下さい】,両親
hs-bl-ch-sui,"コントロールカラム欄に入力可能な文字はn（新規）、u（更新・変更）、d（削除）だけです。
※オークション商品の一括登録では、u（更新・変更）は入力できません。", 【3.贈る相手をお選び下さい】,父
hs-bl-ch-sui,"コントロールカラム欄に入力可能な文字はn（新規）、u（更新・変更）、d（削除）だけです。
※オークション商品の一括登録では、u（更新・変更）は入力できません。", 【3.贈る相手をお選び下さい】,母
hs-bl-ch-sui,"コントロールカラム欄に入力可能な文字はn（新規）、u（更新・変更）、d（削除）だけです。
※オークション商品の一括登録では、u（更新・変更）は入力できません。", 【3.贈る相手をお選び下さい】,兄弟
hs-bl-ch-sui,"コントロールカラム欄に入力可能な文字はn（新規）、u（更新・変更）、d（削除）だけです。
※オークション商品の一括登録では、u（更新・変更）は入力できません。", 【3.贈る相手をお選び下さい】,姉妹
hs-bl-ch-sui,"コントロールカラム欄に入力可能な文字はn（新規）、u（更新・変更）、d（削除）だけです。
※オークション商品の一括登録では、u（更新・変更）は入力できません。", 【3.贈る相手をお選び下さい】,親戚
hs-bl-ch-sui,"コントロールカラム欄に入力可能な文字はn（新規）、u（更新・変更）、d（削除）だけです。
※オークション商品の一括登録では、u（更新・変更）は入力できません。", 【3.贈る相手をお選び下さい】,彼氏、夫
hs-bl-ch-sui,"コントロールカラム欄に入力可能な文字はn（新規）、u（更新・変更）、d（削除）だけです。
※オークション商品の一括登録では、u（更新・変更）は入力できません。", 【3.贈る相手をお選び下さい】,彼女、妻
hs-bl-ch-sui,"コントロールカラム欄に入力可能な文字はn（新規）、u（更新・変更）、d（削除）だけです。
※オークション商品の一括登録では、u（更新・変更）は入力できません。", 【3.贈る相手をお選び下さい】,祖父母
hs-bl-ch-sui,"コントロールカラム欄に入力可能な文字はn（新規）、u（更新・変更）、d（削除）だけです。
※オークション商品の一括登録では、u（更新・変更）は入力できません。", 【3.贈る相手をお選び下さい】,祖父
hs-bl-ch-sui,"コントロールカラム欄に入力可能な文字はn（新規）、u（更新・変更）、d（削除）だけです。
※オークション商品の一括登録では、u（更新・変更）は入力できません。", 【3.贈る相手をお選び下さい】,祖母
hs-bl-ch-sui,"コントロールカラム欄に入力可能な文字はn（新規）、u（更新・変更）、d（削除）だけです。
※オークション商品の一括登録では、u（更新・変更）は入力できません。", 【3.贈る相手をお選び下さい】,--------------------------------
hs-bl-ch-sui,"コントロールカラム欄に入力可能な文字はn（新規）、u（更新・変更）、d（削除）だけです。
※オークション商品の一括登録では、u（更新・変更）は入力できません。", 【3.贈る相手をお選び下さい】,上司
hs-bl-ch-sui,"コントロールカラム欄に入力可能な文字はn（新規）、u（更新・変更）、d（削除）だけです。
※オークション商品の一括登録では、u（更新・変更）は入力できません。", 【3.贈る相手をお選び下さい】,同僚
hs-bl-ch-sui,"コントロールカラム欄に入力可能な文字はn（新規）、u（更新・変更）、d（削除）だけです。
※オークション商品の一括登録では、u（更新・変更）は入力できません。", 【3.贈る相手をお選び下さい】,部下
hs-bl-ch-sui,"コントロールカラム欄に入力可能な文字はn（新規）、u（更新・変更）、d（削除）だけです。
※オークション商品の一括登録では、u（更新・変更）は入力できません。", 【3.贈る相手をお選び下さい】,取引先
hs-bl-ch-wa,"コントロールカラム欄に入力可能な文字はn（新規）、u（更新・変更）、d（削除）だけです。
※オークション商品の一括登録では、u（更新・変更）は入力できません。",※お熨斗をご希望の方へ、お客様にご指定いただく熨斗の【表書き】、【種類（蝶結び or 結び切り）】などが適切かどうかの参考にさせていただきますので下記の【1~3】をお選びください。お熨斗のご指定はカート内の備考欄でお願い致します。,了解しました
hs-bl-ch-wa,"コントロールカラム欄に入力可能な文字はn（新規）、u（更新・変更）、d（削除）だけです。
※オークション商品の一括登録では、u（更新・変更）は入力できません。", 【1.購入目的をお選び下さい】,下記よりお選び下さい↓↓
hs-bl-ch-wa,"コントロールカラム欄に入力可能な文字はn（新規）、u（更新・変更）、d（削除）だけです。
※オークション商品の一括登録では、u（更新・変更）は入力できません。", 【1.購入目的をお選び下さい】,自宅用
hs-bl-ch-wa,"コントロールカラム欄に入力可能な文字はn（新規）、u（更新・変更）、d（削除）だけです。
※オークション商品の一括登録では、u（更新・変更）は入力できません。", 【1.購入目的をお選び下さい】,ギフト用
hs-bl-ch-wa,"コントロールカラム欄に入力可能な文字はn（新規）、u（更新・変更）、d（削除）だけです。
※オークション商品の一括登録では、u（更新・変更）は入力できません。", 【1.購入目的をお選び下さい】,ギフト用(海外)
hs-bl-ch-wa,"コントロールカラム欄に入力可能な文字はn（新規）、u（更新・変更）、d（削除）だけです。
※オークション商品の一括登録では、u（更新・変更）は入力できません。", 【2.用途をお選び下さい】,下記よりお選び下さい↓↓
hs-bl-ch-wa,"コントロールカラム欄に入力可能な文字はn（新規）、u（更新・変更）、d（削除）だけです。
※オークション商品の一括登録では、u（更新・変更）は入力できません。", 【2.用途をお選び下さい】,結婚祝い
hs-bl-ch-wa,"コントロールカラム欄に入力可能な文字はn（新規）、u（更新・変更）、d（削除）だけです。
※オークション商品の一括登録では、u（更新・変更）は入力できません。", 【2.用途をお選び下さい】,結婚記念日(銀婚式)
hs-bl-ch-wa,"コントロールカラム欄に入力可能な文字はn（新規）、u（更新・変更）、d（削除）だけです。
※オークション商品の一括登録では、u（更新・変更）は入力できません。", 【2.用途をお選び下さい】,結婚記念日(金婚式)
hs-bl-ch-wa,"コントロールカラム欄に入力可能な文字はn（新規）、u（更新・変更）、d（削除）だけです。
※オークション商品の一括登録では、u（更新・変更）は入力できません。", 【2.用途をお選び下さい】,結婚記念日(その他)
hs-bl-ch-wa,"コントロールカラム欄に入力可能な文字はn（新規）、u（更新・変更）、d（削除）だけです。
※オークション商品の一括登録では、u（更新・変更）は入力できません。", 【2.用途をお選び下さい】,出産祝い
hs-bl-ch-wa,"コントロールカラム欄に入力可能な文字はn（新規）、u（更新・変更）、d（削除）だけです。
※オークション商品の一括登録では、u（更新・変更）は入力できません。", 【2.用途をお選び下さい】,新築祝い
hs-bl-ch-wa,"コントロールカラム欄に入力可能な文字はn（新規）、u（更新・変更）、d（削除）だけです。
※オークション商品の一括登録では、u（更新・変更）は入力できません。", 【2.用途をお選び下さい】,退職祝い
hs-bl-ch-wa,"コントロールカラム欄に入力可能な文字はn（新規）、u（更新・変更）、d（削除）だけです。
※オークション商品の一括登録では、u（更新・変更）は入力できません。", 【2.用途をお選び下さい】,長寿祝い(還暦)
hs-bl-ch-wa,"コントロールカラム欄に入力可能な文字はn（新規）、u（更新・変更）、d（削除）だけです。
※オークション商品の一括登録では、u（更新・変更）は入力できません。", 【2.用途をお選び下さい】,長寿祝い(古希)
hs-bl-ch-wa,"コントロールカラム欄に入力可能な文字はn（新規）、u（更新・変更）、d（削除）だけです。
※オークション商品の一括登録では、u（更新・変更）は入力できません。", 【2.用途をお選び下さい】,長寿祝い(喜寿)
hs-bl-ch-wa,"コントロールカラム欄に入力可能な文字はn（新規）、u（更新・変更）、d（削除）だけです。
※オークション商品の一括登録では、u（更新・変更）は入力できません。", 【2.用途をお選び下さい】,長寿祝い(米寿)
hs-bl-ch-wa,"コントロールカラム欄に入力可能な文字はn（新規）、u（更新・変更）、d（削除）だけです。
※オークション商品の一括登録では、u（更新・変更）は入力できません。", 【2.用途をお選び下さい】,長寿祝い(その他)
hs-bl-ch-wa,"コントロールカラム欄に入力可能な文字はn（新規）、u（更新・変更）、d（削除）だけです。
※オークション商品の一括登録では、u（更新・変更）は入力できません。", 【2.用途をお選び下さい】,内祝(結婚)
hs-bl-ch-wa,"コントロールカラム欄に入力可能な文字はn（新規）、u（更新・変更）、d（削除）だけです。
※オークション商品の一括登録では、u（更新・変更）は入力できません。", 【2.用途をお選び下さい】,内祝(出産)
hs-bl-ch-wa,"コントロールカラム欄に入力可能な文字はn（新規）、u（更新・変更）、d（削除）だけです。
※オークション商品の一括登録では、u（更新・変更）は入力できません。", 【2.用途をお選び下さい】,内祝(新築)
hs-bl-ch-wa,"コントロールカラム欄に入力可能な文字はn（新規）、u（更新・変更）、d（削除）だけです。
※オークション商品の一括登録では、u（更新・変更）は入力できません。", 【2.用途をお選び下さい】,内祝(その他)
hs-bl-ch-wa,"コントロールカラム欄に入力可能な文字はn（新規）、u（更新・変更）、d（削除）だけです。
※オークション商品の一括登録では、u（更新・変更）は入力できません。", 【2.用途をお選び下さい】,--------------------------------
hs-bl-ch-wa,"コントロールカラム欄に入力可能な文字はn（新規）、u（更新・変更）、d（削除）だけです。
※オークション商品の一括登録では、u（更新・変更）は入力できません。", 【2.用途をお選び下さい】,開店開業記念
hs-bl-ch-wa,"コントロールカラム欄に入力可能な文字はn（新規）、u（更新・変更）、d（削除）だけです。
※オークション商品の一括登録では、u（更新・変更）は入力できません。", 【2.用途をお選び下さい】,株式上場記念
hs-bl-ch-wa,"コントロールカラム欄に入力可能な文字はn（新規）、u（更新・変更）、d（削除）だけです。
※オークション商品の一括登録では、u（更新・変更）は入力できません。", 【2.用途をお選び下さい】,社内褒章
hs-bl-ch-wa,"コントロールカラム欄に入力可能な文字はn（新規）、u（更新・変更）、d（削除）だけです。
※オークション商品の一括登録では、u（更新・変更）は入力できません。", 【2.用途をお選び下さい】,創業創立記念
hs-bl-ch-wa,"コントロールカラム欄に入力可能な文字はn（新規）、u（更新・変更）、d（削除）だけです。
※オークション商品の一括登録では、u（更新・変更）は入力できません。", 【2.用途をお選び下さい】,周年記念
hs-bl-ch-wa,"コントロールカラム欄に入力可能な文字はn（新規）、u（更新・変更）、d（削除）だけです。
※オークション商品の一括登録では、u（更新・変更）は入力できません。", 【2.用途をお選び下さい】,その他法人ギフト
hs-bl-ch-wa,"コントロールカラム欄に入力可能な文字はn（新規）、u（更新・変更）、d（削除）だけです。
※オークション商品の一括登録では、u（更新・変更）は入力できません。", 【2.用途をお選び下さい】,-------------------------------
hs-bl-ch-wa,"コントロールカラム欄に入力可能な文字はn（新規）、u（更新・変更）、d（削除）だけです。
※オークション商品の一括登録では、u（更新・変更）は入力できません。", 【2.用途をお選び下さい】,初任給
hs-bl-ch-wa,"コントロールカラム欄に入力可能な文字はn（新規）、u（更新・変更）、d（削除）だけです。
※オークション商品の一括登録では、u（更新・変更）は入力できません。", 【2.用途をお選び下さい】,端午の節句
hs-bl-ch-wa,"コントロールカラム欄に入力可能な文字はn（新規）、u（更新・変更）、d（削除）だけです。
※オークション商品の一括登録では、u（更新・変更）は入力できません。", 【2.用途をお選び下さい】,母の日
hs-bl-ch-wa,"コントロールカラム欄に入力可能な文字はn（新規）、u（更新・変更）、d（削除）だけです。
※オークション商品の一括登録では、u（更新・変更）は入力できません。", 【2.用途をお選び下さい】,父の日
hs-bl-ch-wa,"コントロールカラム欄に入力可能な文字はn（新規）、u（更新・変更）、d（削除）だけです。
※オークション商品の一括登録では、u（更新・変更）は入力できません。", 【2.用途をお選び下さい】,敬老の日
hs-bl-ch-wa,"コントロールカラム欄に入力可能な文字はn（新規）、u（更新・変更）、d（削除）だけです。
※オークション商品の一括登録では、u（更新・変更）は入力できません。", 【3.贈る相手をお選び下さい】,下記よりお選び下さい↓↓
hs-bl-ch-wa,"コントロールカラム欄に入力可能な文字はn（新規）、u（更新・変更）、d（削除）だけです。
※オークション商品の一括登録では、u（更新・変更）は入力できません。", 【3.贈る相手をお選び下さい】,知人
hs-bl-ch-wa,"コントロールカラム欄に入力可能な文字はn（新規）、u（更新・変更）、d（削除）だけです。
※オークション商品の一括登録では、u（更新・変更）は入力できません。", 【3.贈る相手をお選び下さい】,両親
hs-bl-ch-wa,"コントロールカラム欄に入力可能な文字はn（新規）、u（更新・変更）、d（削除）だけです。
※オークション商品の一括登録では、u（更新・変更）は入力できません。", 【3.贈る相手をお選び下さい】,父
hs-bl-ch-wa,"コントロールカラム欄に入力可能な文字はn（新規）、u（更新・変更）、d（削除）だけです。
※オークション商品の一括登録では、u（更新・変更）は入力できません。", 【3.贈る相手をお選び下さい】,母
hs-bl-ch-wa,"コントロールカラム欄に入力可能な文字はn（新規）、u（更新・変更）、d（削除）だけです。
※オークション商品の一括登録では、u（更新・変更）は入力できません。", 【3.贈る相手をお選び下さい】,兄弟
hs-bl-ch-wa,"コントロールカラム欄に入力可能な文字はn（新規）、u（更新・変更）、d（削除）だけです。
※オークション商品の一括登録では、u（更新・変更）は入力できません。", 【3.贈る相手をお選び下さい】,姉妹
hs-bl-ch-wa,"コントロールカラム欄に入力可能な文字はn（新規）、u（更新・変更）、d（削除）だけです。
※オークション商品の一括登録では、u（更新・変更）は入力できません。", 【3.贈る相手をお選び下さい】,親戚
hs-bl-ch-wa,"コントロールカラム欄に入力可能な文字はn（新規）、u（更新・変更）、d（削除）だけです。
※オークション商品の一括登録では、u（更新・変更）は入力できません。", 【3.贈る相手をお選び下さい】,彼氏、夫
hs-bl-ch-wa,"コントロールカラム欄に入力可能な文字はn（新規）、u（更新・変更）、d（削除）だけです。
※オークション商品の一括登録では、u（更新・変更）は入力できません。", 【3.贈る相手をお選び下さい】,彼女、妻
hs-bl-ch-wa,"コントロールカラム欄に入力可能な文字はn（新規）、u（更新・変更）、d（削除）だけです。
※オークション商品の一括登録では、u（更新・変更）は入力できません。", 【3.贈る相手をお選び下さい】,祖父母
hs-bl-ch-wa,"コントロールカラム欄に入力可能な文字はn（新規）、u（更新・変更）、d（削除）だけです。
※オークション商品の一括登録では、u（更新・変更）は入力できません。", 【3.贈る相手をお選び下さい】,祖父
hs-bl-ch-wa,"コントロールカラム欄に入力可能な文字はn（新規）、u（更新・変更）、d（削除）だけです。
※オークション商品の一括登録では、u（更新・変更）は入力できません。", 【3.贈る相手をお選び下さい】,祖母
hs-bl-ch-wa,"コントロールカラム欄に入力可能な文字はn（新規）、u（更新・変更）、d（削除）だけです。
※オークション商品の一括登録では、u（更新・変更）は入力できません。", 【3.贈る相手をお選び下さい】,--------------------------------
hs-bl-ch-wa,"コントロールカラム欄に入力可能な文字はn（新規）、u（更新・変更）、d（削除）だけです。
※オークション商品の一括登録では、u（更新・変更）は入力できません。", 【3.贈る相手をお選び下さい】,上司
hs-bl-ch-wa,"コントロールカラム欄に入力可能な文字はn（新規）、u（更新・変更）、d（削除）だけです。
※オークション商品の一括登録では、u（更新・変更）は入力できません。", 【3.贈る相手をお選び下さい】,同僚
hs-bl-ch-wa,"コントロールカラム欄に入力可能な文字はn（新規）、u（更新・変更）、d（削除）だけです。
※オークション商品の一括登録では、u（更新・変更）は入力できません。", 【3.贈る相手をお選び下さい】,部下
hs-bl-ch-wa,"コントロールカラム欄に入力可能な文字はn（新規）、u（更新・変更）、d（削除）だけです。
※オークション商品の一括登録では、u（更新・変更）は入力できません。", 【3.贈る相手をお選び下さい】,取引先
hs-cv-pr-fl,"コントロールカラム欄に入力可能な文字はn（新規）、u（更新・変更）、d（削除）だけです。
※オークション商品の一括登録では、u（更新・変更）は入力できません。",※お熨斗をご希望の方へ、お客様にご指定いただく熨斗の【表書き】、【種類（蝶結び or 結び切り）】などが適切かどうかの参考にさせていただきますので下記の【1~3】をお選びください。お熨斗のご指定はカート内の備考欄でお願い致します。,了解しました
hs-cv-pr-fl,"コントロールカラム欄に入力可能な文字はn（新規）、u（更新・変更）、d（削除）だけです。
※オークション商品の一括登録では、u（更新・変更）は入力できません。", 【1.購入目的をお選び下さい】,下記よりお選び下さい↓↓
hs-cv-pr-fl,"コントロールカラム欄に入力可能な文字はn（新規）、u（更新・変更）、d（削除）だけです。
※オークション商品の一括登録では、u（更新・変更）は入力できません。", 【1.購入目的をお選び下さい】,自宅用
hs-cv-pr-fl,"コントロールカラム欄に入力可能な文字はn（新規）、u（更新・変更）、d（削除）だけです。
※オークション商品の一括登録では、u（更新・変更）は入力できません。", 【1.購入目的をお選び下さい】,ギフト用
hs-cv-pr-fl,"コントロールカラム欄に入力可能な文字はn（新規）、u（更新・変更）、d（削除）だけです。
※オークション商品の一括登録では、u（更新・変更）は入力できません。", 【1.購入目的をお選び下さい】,ギフト用(海外)
hs-cv-pr-fl,"コントロールカラム欄に入力可能な文字はn（新規）、u（更新・変更）、d（削除）だけです。
※オークション商品の一括登録では、u（更新・変更）は入力できません。", 【2.用途をお選び下さい】,下記よりお選び下さい↓↓
hs-cv-pr-fl,"コントロールカラム欄に入力可能な文字はn（新規）、u（更新・変更）、d（削除）だけです。
※オークション商品の一括登録では、u（更新・変更）は入力できません。", 【2.用途をお選び下さい】,結婚祝い
hs-cv-pr-fl,"コントロールカラム欄に入力可能な文字はn（新規）、u（更新・変更）、d（削除）だけです。
※オークション商品の一括登録では、u（更新・変更）は入力できません。", 【2.用途をお選び下さい】,結婚記念日(銀婚式)
hs-cv-pr-fl,"コントロールカラム欄に入力可能な文字はn（新規）、u（更新・変更）、d（削除）だけです。
※オークション商品の一括登録では、u（更新・変更）は入力できません。", 【2.用途をお選び下さい】,結婚記念日(金婚式)
hs-cv-pr-fl,"コントロールカラム欄に入力可能な文字はn（新規）、u（更新・変更）、d（削除）だけです。
※オークション商品の一括登録では、u（更新・変更）は入力できません。", 【2.用途をお選び下さい】,結婚記念日(その他)
hs-cv-pr-fl,"コントロールカラム欄に入力可能な文字はn（新規）、u（更新・変更）、d（削除）だけです。
※オークション商品の一括登録では、u（更新・変更）は入力できません。", 【2.用途をお選び下さい】,出産祝い
hs-cv-pr-fl,"コントロールカラム欄に入力可能な文字はn（新規）、u（更新・変更）、d（削除）だけです。
※オークション商品の一括登録では、u（更新・変更）は入力できません。", 【2.用途をお選び下さい】,新築祝い
hs-cv-pr-fl,"コントロールカラム欄に入力可能な文字はn（新規）、u（更新・変更）、d（削除）だけです。
※オークション商品の一括登録では、u（更新・変更）は入力できません。", 【2.用途をお選び下さい】,退職祝い
hs-cv-pr-fl,"コントロールカラム欄に入力可能な文字はn（新規）、u（更新・変更）、d（削除）だけです。
※オークション商品の一括登録では、u（更新・変更）は入力できません。", 【2.用途をお選び下さい】,長寿祝い(還暦)
hs-cv-pr-fl,"コントロールカラム欄に入力可能な文字はn（新規）、u（更新・変更）、d（削除）だけです。
※オークション商品の一括登録では、u（更新・変更）は入力できません。", 【2.用途をお選び下さい】,長寿祝い(古希)
hs-cv-pr-fl,"コントロールカラム欄に入力可能な文字はn（新規）、u（更新・変更）、d（削除）だけです。
※オークション商品の一括登録では、u（更新・変更）は入力できません。", 【2.用途をお選び下さい】,長寿祝い(喜寿)
hs-cv-pr-fl,"コントロールカラム欄に入力可能な文字はn（新規）、u（更新・変更）、d（削除）だけです。
※オークション商品の一括登録では、u（更新・変更）は入力できません。", 【2.用途をお選び下さい】,長寿祝い(米寿)
hs-cv-pr-fl,"コントロールカラム欄に入力可能な文字はn（新規）、u（更新・変更）、d（削除）だけです。
※オークション商品の一括登録では、u（更新・変更）は入力できません。", 【2.用途をお選び下さい】,長寿祝い(その他)
hs-cv-pr-fl,"コントロールカラム欄に入力可能な文字はn（新規）、u（更新・変更）、d（削除）だけです。
※オークション商品の一括登録では、u（更新・変更）は入力できません。", 【2.用途をお選び下さい】,内祝(結婚)
hs-cv-pr-fl,"コントロールカラム欄に入力可能な文字はn（新規）、u（更新・変更）、d（削除）だけです。
※オークション商品の一括登録では、u（更新・変更）は入力できません。", 【2.用途をお選び下さい】,内祝(出産)
hs-cv-pr-fl,"コントロールカラム欄に入力可能な文字はn（新規）、u（更新・変更）、d（削除）だけです。
※オークション商品の一括登録では、u（更新・変更）は入力できません。", 【2.用途をお選び下さい】,内祝(新築)
hs-cv-pr-fl,"コントロールカラム欄に入力可能な文字はn（新規）、u（更新・変更）、d（削除）だけです。
※オークション商品の一括登録では、u（更新・変更）は入力できません。", 【2.用途をお選び下さい】,内祝(その他)
hs-cv-pr-fl,"コントロールカラム欄に入力可能な文字はn（新規）、u（更新・変更）、d（削除）だけです。
※オークション商品の一括登録では、u（更新・変更）は入力できません。", 【2.用途をお選び下さい】,--------------------------------
hs-cv-pr-fl,"コントロールカラム欄に入力可能な文字はn（新規）、u（更新・変更）、d（削除）だけです。
※オークション商品の一括登録では、u（更新・変更）は入力できません。", 【2.用途をお選び下さい】,開店開業記念
hs-cv-pr-fl,"コントロールカラム欄に入力可能な文字はn（新規）、u（更新・変更）、d（削除）だけです。
※オークション商品の一括登録では、u（更新・変更）は入力できません。", 【2.用途をお選び下さい】,株式上場記念
hs-cv-pr-fl,"コントロールカラム欄に入力可能な文字はn（新規）、u（更新・変更）、d（削除）だけです。
※オークション商品の一括登録では、u（更新・変更）は入力できません。", 【2.用途をお選び下さい】,社内褒章
hs-cv-pr-fl,"コントロールカラム欄に入力可能な文字はn（新規）、u（更新・変更）、d（削除）だけです。
※オークション商品の一括登録では、u（更新・変更）は入力できません。", 【2.用途をお選び下さい】,創業創立記念
hs-cv-pr-fl,"コントロールカラム欄に入力可能な文字はn（新規）、u（更新・変更）、d（削除）だけです。
※オークション商品の一括登録では、u（更新・変更）は入力できません。", 【2.用途をお選び下さい】,周年記念
hs-cv-pr-fl,"コントロールカラム欄に入力可能な文字はn（新規）、u（更新・変更）、d（削除）だけです。
※オークション商品の一括登録では、u（更新・変更）は入力できません。", 【2.用途をお選び下さい】,その他法人ギフト
hs-cv-pr-fl,"コントロールカラム欄に入力可能な文字はn（新規）、u（更新・変更）、d（削除）だけです。
※オークション商品の一括登録では、u（更新・変更）は入力できません。", 【2.用途をお選び下さい】,-------------------------------
hs-cv-pr-fl,"コントロールカラム欄に入力可能な文字はn（新規）、u（更新・変更）、d（削除）だけです。
※オークション商品の一括登録では、u（更新・変更）は入力できません。", 【2.用途をお選び下さい】,初任給
hs-cv-pr-fl,"コントロールカラム欄に入力可能な文字はn（新規）、u（更新・変更）、d（削除）だけです。
※オークション商品の一括登録では、u（更新・変更）は入力できません。", 【2.用途をお選び下さい】,端午の節句
hs-cv-pr-fl,"コントロールカラム欄に入力可能な文字はn（新規）、u（更新・変更）、d（削除）だけです。
※オークション商品の一括登録では、u（更新・変更）は入力できません。", 【2.用途をお選び下さい】,母の日
hs-cv-pr-fl,"コントロールカラム欄に入力可能な文字はn（新規）、u（更新・変更）、d（削除）だけです。
※オークション商品の一括登録では、u（更新・変更）は入力できません。", 【2.用途をお選び下さい】,父の日
hs-cv-pr-fl,"コントロールカラム欄に入力可能な文字はn（新規）、u（更新・変更）、d（削除）だけです。
※オークション商品の一括登録では、u（更新・変更）は入力できません。", 【2.用途をお選び下さい】,敬老の日
hs-cv-pr-fl,"コントロールカラム欄に入力可能な文字はn（新規）、u（更新・変更）、d（削除）だけです。
※オークション商品の一括登録では、u（更新・変更）は入力できません。", 【3.贈る相手をお選び下さい】,下記よりお選び下さい↓↓
hs-cv-pr-fl,"コントロールカラム欄に入力可能な文字はn（新規）、u（更新・変更）、d（削除）だけです。
※オークション商品の一括登録では、u（更新・変更）は入力できません。", 【3.贈る相手をお選び下さい】,知人
hs-cv-pr-fl,"コントロールカラム欄に入力可能な文字はn（新規）、u（更新・変更）、d（削除）だけです。
※オークション商品の一括登録では、u（更新・変更）は入力できません。", 【3.贈る相手をお選び下さい】,両親
hs-cv-pr-fl,"コントロールカラム欄に入力可能な文字はn（新規）、u（更新・変更）、d（削除）だけです。
※オークション商品の一括登録では、u（更新・変更）は入力できません。", 【3.贈る相手をお選び下さい】,父
hs-cv-pr-fl,"コントロールカラム欄に入力可能な文字はn（新規）、u（更新・変更）、d（削除）だけです。
※オークション商品の一括登録では、u（更新・変更）は入力できません。", 【3.贈る相手をお選び下さい】,母
hs-cv-pr-fl,"コントロールカラム欄に入力可能な文字はn（新規）、u（更新・変更）、d（削除）だけです。
※オークション商品の一括登録では、u（更新・変更）は入力できません。", 【3.贈る相手をお選び下さい】,兄弟
hs-cv-pr-fl,"コントロールカラム欄に入力可能な文字はn（新規）、u（更新・変更）、d（削除）だけです。
※オークション商品の一括登録では、u（更新・変更）は入力できません。", 【3.贈る相手をお選び下さい】,姉妹
hs-cv-pr-fl,"コントロールカラム欄に入力可能な文字はn（新規）、u（更新・変更）、d（削除）だけです。
※オークション商品の一括登録では、u（更新・変更）は入力できません。", 【3.贈る相手をお選び下さい】,親戚
hs-cv-pr-fl,"コントロールカラム欄に入力可能な文字はn（新規）、u（更新・変更）、d（削除）だけです。
※オークション商品の一括登録では、u（更新・変更）は入力できません。", 【3.贈る相手をお選び下さい】,彼氏、夫
hs-cv-pr-fl,"コントロールカラム欄に入力可能な文字はn（新規）、u（更新・変更）、d（削除）だけです。
※オークション商品の一括登録では、u（更新・変更）は入力できません。", 【3.贈る相手をお選び下さい】,彼女、妻
hs-cv-pr-fl,"コントロールカラム欄に入力可能な文字はn（新規）、u（更新・変更）、d（削除）だけです。
※オークション商品の一括登録では、u（更新・変更）は入力できません。", 【3.贈る相手をお選び下さい】,祖父母
hs-cv-pr-fl,"コントロールカラム欄に入力可能な文字はn（新規）、u（更新・変更）、d（削除）だけです。
※オークション商品の一括登録では、u（更新・変更）は入力できません。", 【3.贈る相手をお選び下さい】,祖父
hs-cv-pr-fl,"コントロールカラム欄に入力可能な文字はn（新規）、u（更新・変更）、d（削除）だけです。
※オークション商品の一括登録では、u（更新・変更）は入力できません。", 【3.贈る相手をお選び下さい】,祖母
hs-cv-pr-fl,"コントロールカラム欄に入力可能な文字はn（新規）、u（更新・変更）、d（削除）だけです。
※オークション商品の一括登録では、u（更新・変更）は入力できません。", 【3.贈る相手をお選び下さい】,--------------------------------
hs-cv-pr-fl,"コントロールカラム欄に入力可能な文字はn（新規）、u（更新・変更）、d（削除）だけです。
※オークション商品の一括登録では、u（更新・変更）は入力できません。", 【3.贈る相手をお選び下さい】,上司
hs-cv-pr-fl,"コントロールカラム欄に入力可能な文字はn（新規）、u（更新・変更）、d（削除）だけです。
※オークション商品の一括登録では、u（更新・変更）は入力できません。", 【3.贈る相手をお選び下さい】,同僚
hs-cv-pr-fl,"コントロールカラム欄に入力可能な文字はn（新規）、u（更新・変更）、d（削除）だけです。
※オークション商品の一括登録では、u（更新・変更）は入力できません。", 【3.贈る相手をお選び下さい】,部下
hs-cv-pr-fl,"コントロールカラム欄に入力可能な文字はn（新規）、u（更新・変更）、d（削除）だけです。
※オークション商品の一括登録では、u（更新・変更）は入力できません。", 【3.贈る相手をお選び下さい】,取引先
hs-cv-pr-fm,"コントロールカラム欄に入力可能な文字はn（新規）、u（更新・変更）、d（削除）だけです。
※オークション商品の一括登録では、u（更新・変更）は入力できません。",※お熨斗をご希望の方へ、お客様にご指定いただく熨斗の【表書き】、【種類（蝶結び or 結び切り）】などが適切かどうかの参考にさせていただきますので下記の【1~3】をお選びください。お熨斗のご指定はカート内の備考欄でお願い致します。,了解しました
hs-cv-pr-fm,"コントロールカラム欄に入力可能な文字はn（新規）、u（更新・変更）、d（削除）だけです。
※オークション商品の一括登録では、u（更新・変更）は入力できません。", 【1.購入目的をお選び下さい】,下記よりお選び下さい↓↓
hs-cv-pr-fm,"コントロールカラム欄に入力可能な文字はn（新規）、u（更新・変更）、d（削除）だけです。
※オークション商品の一括登録では、u（更新・変更）は入力できません。", 【1.購入目的をお選び下さい】,自宅用
hs-cv-pr-fm,"コントロールカラム欄に入力可能な文字はn（新規）、u（更新・変更）、d（削除）だけです。
※オークション商品の一括登録では、u（更新・変更）は入力できません。", 【1.購入目的をお選び下さい】,ギフト用
hs-cv-pr-fm,"コントロールカラム欄に入力可能な文字はn（新規）、u（更新・変更）、d（削除）だけです。
※オークション商品の一括登録では、u（更新・変更）は入力できません。", 【1.購入目的をお選び下さい】,ギフト用(海外)
hs-cv-pr-fm,"コントロールカラム欄に入力可能な文字はn（新規）、u（更新・変更）、d（削除）だけです。
※オークション商品の一括登録では、u（更新・変更）は入力できません。", 【2.用途をお選び下さい】,下記よりお選び下さい↓↓
hs-cv-pr-fm,"コントロールカラム欄に入力可能な文字はn（新規）、u（更新・変更）、d（削除）だけです。
※オークション商品の一括登録では、u（更新・変更）は入力できません。", 【2.用途をお選び下さい】,結婚祝い
hs-cv-pr-fm,"コントロールカラム欄に入力可能な文字はn（新規）、u（更新・変更）、d（削除）だけです。
※オークション商品の一括登録では、u（更新・変更）は入力できません。", 【2.用途をお選び下さい】,結婚記念日(銀婚式)
hs-cv-pr-fm,"コントロールカラム欄に入力可能な文字はn（新規）、u（更新・変更）、d（削除）だけです。
※オークション商品の一括登録では、u（更新・変更）は入力できません。", 【2.用途をお選び下さい】,結婚記念日(金婚式)
hs-cv-pr-fm,"コントロールカラム欄に入力可能な文字はn（新規）、u（更新・変更）、d（削除）だけです。
※オークション商品の一括登録では、u（更新・変更）は入力できません。", 【2.用途をお選び下さい】,結婚記念日(その他)
hs-cv-pr-fm,"コントロールカラム欄に入力可能な文字はn（新規）、u（更新・変更）、d（削除）だけです。
※オークション商品の一括登録では、u（更新・変更）は入力できません。", 【2.用途をお選び下さい】,出産祝い
hs-cv-pr-fm,"コントロールカラム欄に入力可能な文字はn（新規）、u（更新・変更）、d（削除）だけです。
※オークション商品の一括登録では、u（更新・変更）は入力できません。", 【2.用途をお選び下さい】,新築祝い
hs-cv-pr-fm,"コントロールカラム欄に入力可能な文字はn（新規）、u（更新・変更）、d（削除）だけです。
※オークション商品の一括登録では、u（更新・変更）は入力できません。", 【2.用途をお選び下さい】,退職祝い
hs-cv-pr-fm,"コントロールカラム欄に入力可能な文字はn（新規）、u（更新・変更）、d（削除）だけです。
※オークション商品の一括登録では、u（更新・変更）は入力できません。", 【2.用途をお選び下さい】,長寿祝い(還暦)
hs-cv-pr-fm,"コントロールカラム欄に入力可能な文字はn（新規）、u（更新・変更）、d（削除）だけです。
※オークション商品の一括登録では、u（更新・変更）は入力できません。", 【2.用途をお選び下さい】,長寿祝い(古希)
hs-cv-pr-fm,"コントロールカラム欄に入力可能な文字はn（新規）、u（更新・変更）、d（削除）だけです。
※オークション商品の一括登録では、u（更新・変更）は入力できません。", 【2.用途をお選び下さい】,長寿祝い(喜寿)
hs-cv-pr-fm,"コントロールカラム欄に入力可能な文字はn（新規）、u（更新・変更）、d（削除）だけです。
※オークション商品の一括登録では、u（更新・変更）は入力できません。", 【2.用途をお選び下さい】,長寿祝い(米寿)
hs-cv-pr-fm,"コントロールカラム欄に入力可能な文字はn（新規）、u（更新・変更）、d（削除）だけです。
※オークション商品の一括登録では、u（更新・変更）は入力できません。", 【2.用途をお選び下さい】,長寿祝い(その他)
hs-cv-pr-fm,"コントロールカラム欄に入力可能な文字はn（新規）、u（更新・変更）、d（削除）だけです。
※オークション商品の一括登録では、u（更新・変更）は入力できません。", 【2.用途をお選び下さい】,内祝(結婚)
hs-cv-pr-fm,"コントロールカラム欄に入力可能な文字はn（新規）、u（更新・変更）、d（削除）だけです。
※オークション商品の一括登録では、u（更新・変更）は入力できません。", 【2.用途をお選び下さい】,内祝(出産)
hs-cv-pr-fm,"コントロールカラム欄に入力可能な文字はn（新規）、u（更新・変更）、d（削除）だけです。
※オークション商品の一括登録では、u（更新・変更）は入力できません。", 【2.用途をお選び下さい】,内祝(新築)
hs-cv-pr-fm,"コントロールカラム欄に入力可能な文字はn（新規）、u（更新・変更）、d（削除）だけです。
※オークション商品の一括登録では、u（更新・変更）は入力できません。", 【2.用途をお選び下さい】,内祝(その他)
hs-cv-pr-fm,"コントロールカラム欄に入力可能な文字はn（新規）、u（更新・変更）、d（削除）だけです。
※オークション商品の一括登録では、u（更新・変更）は入力できません。", 【2.用途をお選び下さい】,--------------------------------
hs-cv-pr-fm,"コントロールカラム欄に入力可能な文字はn（新規）、u（更新・変更）、d（削除）だけです。
※オークション商品の一括登録では、u（更新・変更）は入力できません。", 【2.用途をお選び下さい】,開店開業記念
hs-cv-pr-fm,"コントロールカラム欄に入力可能な文字はn（新規）、u（更新・変更）、d（削除）だけです。
※オークション商品の一括登録では、u（更新・変更）は入力できません。", 【2.用途をお選び下さい】,株式上場記念
hs-cv-pr-fm,"コントロールカラム欄に入力可能な文字はn（新規）、u（更新・変更）、d（削除）だけです。
※オークション商品の一括登録では、u（更新・変更）は入力できません。", 【2.用途をお選び下さい】,社内褒章
hs-cv-pr-fm,"コントロールカラム欄に入力可能な文字はn（新規）、u（更新・変更）、d（削除）だけです。
※オークション商品の一括登録では、u（更新・変更）は入力できません。", 【2.用途をお選び下さい】,創業創立記念
hs-cv-pr-fm,"コントロールカラム欄に入力可能な文字はn（新規）、u（更新・変更）、d（削除）だけです。
※オークション商品の一括登録では、u（更新・変更）は入力できません。", 【2.用途をお選び下さい】,周年記念
hs-cv-pr-fm,"コントロールカラム欄に入力可能な文字はn（新規）、u（更新・変更）、d（削除）だけです。
※オークション商品の一括登録では、u（更新・変更）は入力できません。", 【2.用途をお選び下さい】,その他法人ギフト
hs-cv-pr-fm,"コントロールカラム欄に入力可能な文字はn（新規）、u（更新・変更）、d（削除）だけです。
※オークション商品の一括登録では、u（更新・変更）は入力できません。", 【2.用途をお選び下さい】,-------------------------------
hs-cv-pr-fm,"コントロールカラム欄に入力可能な文字はn（新規）、u（更新・変更）、d（削除）だけです。
※オークション商品の一括登録では、u（更新・変更）は入力できません。", 【2.用途をお選び下さい】,初任給
hs-cv-pr-fm,"コントロールカラム欄に入力可能な文字はn（新規）、u（更新・変更）、d（削除）だけです。
※オークション商品の一括登録では、u（更新・変更）は入力できません。", 【2.用途をお選び下さい】,端午の節句
hs-cv-pr-fm,"コントロールカラム欄に入力可能な文字はn（新規）、u（更新・変更）、d（削除）だけです。
※オークション商品の一括登録では、u（更新・変更）は入力できません。", 【2.用途をお選び下さい】,母の日
hs-cv-pr-fm,"コントロールカラム欄に入力可能な文字はn（新規）、u（更新・変更）、d（削除）だけです。
※オークション商品の一括登録では、u（更新・変更）は入力できません。", 【2.用途をお選び下さい】,父の日
hs-cv-pr-fm,"コントロールカラム欄に入力可能な文字はn（新規）、u（更新・変更）、d（削除）だけです。
※オークション商品の一括登録では、u（更新・変更）は入力できません。", 【2.用途をお選び下さい】,敬老の日
hs-cv-pr-fm,"コントロールカラム欄に入力可能な文字はn（新規）、u（更新・変更）、d（削除）だけです。
※オークション商品の一括登録では、u（更新・変更）は入力できません。", 【3.贈る相手をお選び下さい】,下記よりお選び下さい↓↓
hs-cv-pr-fm,"コントロールカラム欄に入力可能な文字はn（新規）、u（更新・変更）、d（削除）だけです。
※オークション商品の一括登録では、u（更新・変更）は入力できません。", 【3.贈る相手をお選び下さい】,知人
hs-cv-pr-fm,"コントロールカラム欄に入力可能な文字はn（新規）、u（更新・変更）、d（削除）だけです。
※オークション商品の一括登録では、u（更新・変更）は入力できません。", 【3.贈る相手をお選び下さい】,両親
hs-cv-pr-fm,"コントロールカラム欄に入力可能な文字はn（新規）、u（更新・変更）、d（削除）だけです。
※オークション商品の一括登録では、u（更新・変更）は入力できません。", 【3.贈る相手をお選び下さい】,父
hs-cv-pr-fm,"コントロールカラム欄に入力可能な文字はn（新規）、u（更新・変更）、d（削除）だけです。
※オークション商品の一括登録では、u（更新・変更）は入力できません。", 【3.贈る相手をお選び下さい】,母
hs-cv-pr-fm,"コントロールカラム欄に入力可能な文字はn（新規）、u（更新・変更）、d（削除）だけです。
※オークション商品の一括登録では、u（更新・変更）は入力できません。", 【3.贈る相手をお選び下さい】,兄弟
hs-cv-pr-fm,"コントロールカラム欄に入力可能な文字はn（新規）、u（更新・変更）、d（削除）だけです。
※オークション商品の一括登録では、u（更新・変更）は入力できません。", 【3.贈る相手をお選び下さい】,姉妹
hs-cv-pr-fm,"コントロールカラム欄に入力可能な文字はn（新規）、u（更新・変更）、d（削除）だけです。
※オークション商品の一括登録では、u（更新・変更）は入力できません。", 【3.贈る相手をお選び下さい】,親戚
hs-cv-pr-fm,"コントロールカラム欄に入力可能な文字はn（新規）、u（更新・変更）、d（削除）だけです。
※オークション商品の一括登録では、u（更新・変更）は入力できません。", 【3.贈る相手をお選び下さい】,彼氏、夫
hs-cv-pr-fm,"コントロールカラム欄に入力可能な文字はn（新規）、u（更新・変更）、d（削除）だけです。
※オークション商品の一括登録では、u（更新・変更）は入力できません。", 【3.贈る相手をお選び下さい】,彼女、妻
hs-cv-pr-fm,"コントロールカラム欄に入力可能な文字はn（新規）、u（更新・変更）、d（削除）だけです。
※オークション商品の一括登録では、u（更新・変更）は入力できません。", 【3.贈る相手をお選び下さい】,祖父母
hs-cv-pr-fm,"コントロールカラム欄に入力可能な文字はn（新規）、u（更新・変更）、d（削除）だけです。
※オークション商品の一括登録では、u（更新・変更）は入力できません。", 【3.贈る相手をお選び下さい】,祖父
hs-cv-pr-fm,"コントロールカラム欄に入力可能な文字はn（新規）、u（更新・変更）、d（削除）だけです。
※オークション商品の一括登録では、u（更新・変更）は入力できません。", 【3.贈る相手をお選び下さい】,祖母
hs-cv-pr-fm,"コントロールカラム欄に入力可能な文字はn（新規）、u（更新・変更）、d（削除）だけです。
※オークション商品の一括登録では、u（更新・変更）は入力できません。", 【3.贈る相手をお選び下さい】,--------------------------------
hs-cv-pr-fm,"コントロールカラム欄に入力可能な文字はn（新規）、u（更新・変更）、d（削除）だけです。
※オークション商品の一括登録では、u（更新・変更）は入力できません。", 【3.贈る相手をお選び下さい】,上司
hs-cv-pr-fm,"コントロールカラム欄に入力可能な文字はn（新規）、u（更新・変更）、d（削除）だけです。
※オークション商品の一括登録では、u（更新・変更）は入力できません。", 【3.贈る相手をお選び下さい】,同僚
hs-cv-pr-fm,"コントロールカラム欄に入力可能な文字はn（新規）、u（更新・変更）、d（削除）だけです。
※オークション商品の一括登録では、u（更新・変更）は入力できません。", 【3.贈る相手をお選び下さい】,部下
hs-cv-pr-fm,"コントロールカラム欄に入力可能な文字はn（新規）、u（更新・変更）、d（削除）だけです。
※オークション商品の一括登録では、u（更新・変更）は入力できません。", 【3.贈る相手をお選び下さい】,取引先
hs-cv-pr-fs,"コントロールカラム欄に入力可能な文字はn（新規）、u（更新・変更）、d（削除）だけです。
※オークション商品の一括登録では、u（更新・変更）は入力できません。",※お熨斗をご希望の方へ、お客様にご指定いただく熨斗の【表書き】、【種類（蝶結び or 結び切り）】などが適切かどうかの参考にさせていただきますので下記の【1~3】をお選びください。お熨斗のご指定はカート内の備考欄でお願い致します。,了解しました
hs-cv-pr-fs,"コントロールカラム欄に入力可能な文字はn（新規）、u（更新・変更）、d（削除）だけです。
※オークション商品の一括登録では、u（更新・変更）は入力できません。", 【1.購入目的をお選び下さい】,下記よりお選び下さい↓↓
hs-cv-pr-fs,"コントロールカラム欄に入力可能な文字はn（新規）、u（更新・変更）、d（削除）だけです。
※オークション商品の一括登録では、u（更新・変更）は入力できません。", 【1.購入目的をお選び下さい】,自宅用
hs-cv-pr-fs,"コントロールカラム欄に入力可能な文字はn（新規）、u（更新・変更）、d（削除）だけです。
※オークション商品の一括登録では、u（更新・変更）は入力できません。", 【1.購入目的をお選び下さい】,ギフト用
hs-cv-pr-fs,"コントロールカラム欄に入力可能な文字はn（新規）、u（更新・変更）、d（削除）だけです。
※オークション商品の一括登録では、u（更新・変更）は入力できません。", 【1.購入目的をお選び下さい】,ギフト用(海外)
hs-cv-pr-fs,"コントロールカラム欄に入力可能な文字はn（新規）、u（更新・変更）、d（削除）だけです。
※オークション商品の一括登録では、u（更新・変更）は入力できません。", 【2.用途をお選び下さい】,下記よりお選び下さい↓↓
hs-cv-pr-fs,"コントロールカラム欄に入力可能な文字はn（新規）、u（更新・変更）、d（削除）だけです。
※オークション商品の一括登録では、u（更新・変更）は入力できません。", 【2.用途をお選び下さい】,結婚祝い
hs-cv-pr-fs,"コントロールカラム欄に入力可能な文字はn（新規）、u（更新・変更）、d（削除）だけです。
※オークション商品の一括登録では、u（更新・変更）は入力できません。", 【2.用途をお選び下さい】,結婚記念日(銀婚式)
hs-cv-pr-fs,"コントロールカラム欄に入力可能な文字はn（新規）、u（更新・変更）、d（削除）だけです。
※オークション商品の一括登録では、u（更新・変更）は入力できません。", 【2.用途をお選び下さい】,結婚記念日(金婚式)
hs-cv-pr-fs,"コントロールカラム欄に入力可能な文字はn（新規）、u（更新・変更）、d（削除）だけです。
※オークション商品の一括登録では、u（更新・変更）は入力できません。", 【2.用途をお選び下さい】,結婚記念日(その他)
hs-cv-pr-fs,"コントロールカラム欄に入力可能な文字はn（新規）、u（更新・変更）、d（削除）だけです。
※オークション商品の一括登録では、u（更新・変更）は入力できません。", 【2.用途をお選び下さい】,出産祝い
hs-cv-pr-fs,"コントロールカラム欄に入力可能な文字はn（新規）、u（更新・変更）、d（削除）だけです。
※オークション商品の一括登録では、u（更新・変更）は入力できません。", 【2.用途をお選び下さい】,新築祝い
hs-cv-pr-fs,"コントロールカラム欄に入力可能な文字はn（新規）、u（更新・変更）、d（削除）だけです。
※オークション商品の一括登録では、u（更新・変更）は入力できません。", 【2.用途をお選び下さい】,退職祝い
hs-cv-pr-fs,"コントロールカラム欄に入力可能な文字はn（新規）、u（更新・変更）、d（削除）だけです。
※オークション商品の一括登録では、u（更新・変更）は入力できません。", 【2.用途をお選び下さい】,長寿祝い(還暦)
hs-cv-pr-fs,"コントロールカラム欄に入力可能な文字はn（新規）、u（更新・変更）、d（削除）だけです。
※オークション商品の一括登録では、u（更新・変更）は入力できません。", 【2.用途をお選び下さい】,長寿祝い(古希)
hs-cv-pr-fs,"コントロールカラム欄に入力可能な文字はn（新規）、u（更新・変更）、d（削除）だけです。
※オークション商品の一括登録では、u（更新・変更）は入力できません。", 【2.用途をお選び下さい】,長寿祝い(喜寿)
hs-cv-pr-fs,"コントロールカラム欄に入力可能な文字はn（新規）、u（更新・変更）、d（削除）だけです。
※オークション商品の一括登録では、u（更新・変更）は入力できません。", 【2.用途をお選び下さい】,長寿祝い(米寿)
hs-cv-pr-fs,"コントロールカラム欄に入力可能な文字はn（新規）、u（更新・変更）、d（削除）だけです。
※オークション商品の一括登録では、u（更新・変更）は入力できません。", 【2.用途をお選び下さい】,長寿祝い(その他)
hs-cv-pr-fs,"コントロールカラム欄に入力可能な文字はn（新規）、u（更新・変更）、d（削除）だけです。
※オークション商品の一括登録では、u（更新・変更）は入力できません。", 【2.用途をお選び下さい】,内祝(結婚)
hs-cv-pr-fs,"コントロールカラム欄に入力可能な文字はn（新規）、u（更新・変更）、d（削除）だけです。
※オークション商品の一括登録では、u（更新・変更）は入力できません。", 【2.用途をお選び下さい】,内祝(出産)
hs-cv-pr-fs,"コントロールカラム欄に入力可能な文字はn（新規）、u（更新・変更）、d（削除）だけです。
※オークション商品の一括登録では、u（更新・変更）は入力できません。", 【2.用途をお選び下さい】,内祝(新築)
hs-cv-pr-fs,"コントロールカラム欄に入力可能な文字はn（新規）、u（更新・変更）、d（削除）だけです。
※オークション商品の一括登録では、u（更新・変更）は入力できません。", 【2.用途をお選び下さい】,内祝(その他)
hs-cv-pr-fs,"コントロールカラム欄に入力可能な文字はn（新規）、u（更新・変更）、d（削除）だけです。
※オークション商品の一括登録では、u（更新・変更）は入力できません。", 【2.用途をお選び下さい】,--------------------------------
hs-cv-pr-fs,"コントロールカラム欄に入力可能な文字はn（新規）、u（更新・変更）、d（削除）だけです。
※オークション商品の一括登録では、u（更新・変更）は入力できません。", 【2.用途をお選び下さい】,開店開業記念
hs-cv-pr-fs,"コントロールカラム欄に入力可能な文字はn（新規）、u（更新・変更）、d（削除）だけです。
※オークション商品の一括登録では、u（更新・変更）は入力できません。", 【2.用途をお選び下さい】,株式上場記念
hs-cv-pr-fs,"コントロールカラム欄に入力可能な文字はn（新規）、u（更新・変更）、d（削除）だけです。
※オークション商品の一括登録では、u（更新・変更）は入力できません。", 【2.用途をお選び下さい】,社内褒章
hs-cv-pr-fs,"コントロールカラム欄に入力可能な文字はn（新規）、u（更新・変更）、d（削除）だけです。
※オークション商品の一括登録では、u（更新・変更）は入力できません。", 【2.用途をお選び下さい】,創業創立記念
hs-cv-pr-fs,"コントロールカラム欄に入力可能な文字はn（新規）、u（更新・変更）、d（削除）だけです。
※オークション商品の一括登録では、u（更新・変更）は入力できません。", 【2.用途をお選び下さい】,周年記念
hs-cv-pr-fs,"コントロールカラム欄に入力可能な文字はn（新規）、u（更新・変更）、d（削除）だけです。
※オークション商品の一括登録では、u（更新・変更）は入力できません。", 【2.用途をお選び下さい】,その他法人ギフト
hs-cv-pr-fs,"コントロールカラム欄に入力可能な文字はn（新規）、u（更新・変更）、d（削除）だけです。
※オークション商品の一括登録では、u（更新・変更）は入力できません。", 【2.用途をお選び下さい】,-------------------------------
hs-cv-pr-fs,"コントロールカラム欄に入力可能な文字はn（新規）、u（更新・変更）、d（削除）だけです。
※オークション商品の一括登録では、u（更新・変更）は入力できません。", 【2.用途をお選び下さい】,初任給
hs-cv-pr-fs,"コントロールカラム欄に入力可能な文字はn（新規）、u（更新・変更）、d（削除）だけです。
※オークション商品の一括登録では、u（更新・変更）は入力できません。", 【2.用途をお選び下さい】,端午の節句
hs-cv-pr-fs,"コントロールカラム欄に入力可能な文字はn（新規）、u（更新・変更）、d（削除）だけです。
※オークション商品の一括登録では、u（更新・変更）は入力できません。", 【2.用途をお選び下さい】,母の日
hs-cv-pr-fs,"コントロールカラム欄に入力可能な文字はn（新規）、u（更新・変更）、d（削除）だけです。
※オークション商品の一括登録では、u（更新・変更）は入力できません。", 【2.用途をお選び下さい】,父の日
hs-cv-pr-fs,"コントロールカラム欄に入力可能な文字はn（新規）、u（更新・変更）、d（削除）だけです。
※オークション商品の一括登録では、u（更新・変更）は入力できません。", 【2.用途をお選び下さい】,敬老の日
hs-cv-pr-fs,"コントロールカラム欄に入力可能な文字はn（新規）、u（更新・変更）、d（削除）だけです。
※オークション商品の一括登録では、u（更新・変更）は入力できません。", 【3.贈る相手をお選び下さい】,下記よりお選び下さい↓↓
hs-cv-pr-fs,"コントロールカラム欄に入力可能な文字はn（新規）、u（更新・変更）、d（削除）だけです。
※オークション商品の一括登録では、u（更新・変更）は入力できません。", 【3.贈る相手をお選び下さい】,知人
hs-cv-pr-fs,"コントロールカラム欄に入力可能な文字はn（新規）、u（更新・変更）、d（削除）だけです。
※オークション商品の一括登録では、u（更新・変更）は入力できません。", 【3.贈る相手をお選び下さい】,両親
hs-cv-pr-fs,"コントロールカラム欄に入力可能な文字はn（新規）、u（更新・変更）、d（削除）だけです。
※オークション商品の一括登録では、u（更新・変更）は入力できません。", 【3.贈る相手をお選び下さい】,父
hs-cv-pr-fs,"コントロールカラム欄に入力可能な文字はn（新規）、u（更新・変更）、d（削除）だけです。
※オークション商品の一括登録では、u（更新・変更）は入力できません。", 【3.贈る相手をお選び下さい】,母
hs-cv-pr-fs,"コントロールカラム欄に入力可能な文字はn（新規）、u（更新・変更）、d（削除）だけです。
※オークション商品の一括登録では、u（更新・変更）は入力できません。", 【3.贈る相手をお選び下さい】,兄弟
hs-cv-pr-fs,"コントロールカラム欄に入力可能な文字はn（新規）、u（更新・変更）、d（削除）だけです。
※オークション商品の一括登録では、u（更新・変更）は入力できません。", 【3.贈る相手をお選び下さい】,姉妹
hs-cv-pr-fs,"コントロールカラム欄に入力可能な文字はn（新規）、u（更新・変更）、d（削除）だけです。
※オークション商品の一括登録では、u（更新・変更）は入力できません。", 【3.贈る相手をお選び下さい】,親戚
hs-cv-pr-fs,"コントロールカラム欄に入力可能な文字はn（新規）、u（更新・変更）、d（削除）だけです。
※オークション商品の一括登録では、u（更新・変更）は入力できません。", 【3.贈る相手をお選び下さい】,彼氏、夫
hs-cv-pr-fs,"コントロールカラム欄に入力可能な文字はn（新規）、u（更新・変更）、d（削除）だけです。
※オークション商品の一括登録では、u（更新・変更）は入力できません。", 【3.贈る相手をお選び下さい】,彼女、妻
hs-cv-pr-fs,"コントロールカラム欄に入力可能な文字はn（新規）、u（更新・変更）、d（削除）だけです。
※オークション商品の一括登録では、u（更新・変更）は入力できません。", 【3.贈る相手をお選び下さい】,祖父母
hs-cv-pr-fs,"コントロールカラム欄に入力可能な文字はn（新規）、u（更新・変更）、d（削除）だけです。
※オークション商品の一括登録では、u（更新・変更）は入力できません。", 【3.贈る相手をお選び下さい】,祖父
hs-cv-pr-fs,"コントロールカラム欄に入力可能な文字はn（新規）、u（更新・変更）、d（削除）だけです。
※オークション商品の一括登録では、u（更新・変更）は入力できません。", 【3.贈る相手をお選び下さい】,祖母
hs-cv-pr-fs,"コントロールカラム欄に入力可能な文字はn（新規）、u（更新・変更）、d（削除）だけです。
※オークション商品の一括登録では、u（更新・変更）は入力できません。", 【3.贈る相手をお選び下さい】,--------------------------------
hs-cv-pr-fs,"コントロールカラム欄に入力可能な文字はn（新規）、u（更新・変更）、d（削除）だけです。
※オークション商品の一括登録では、u（更新・変更）は入力できません。", 【3.贈る相手をお選び下さい】,上司
hs-cv-pr-fs,"コントロールカラム欄に入力可能な文字はn（新規）、u（更新・変更）、d（削除）だけです。
※オークション商品の一括登録では、u（更新・変更）は入力できません。", 【3.贈る相手をお選び下さい】,同僚
hs-cv-pr-fs,"コントロールカラム欄に入力可能な文字はn（新規）、u（更新・変更）、d（削除）だけです。
※オークション商品の一括登録では、u（更新・変更）は入力できません。", 【3.贈る相手をお選び下さい】,部下
hs-cv-pr-fs,"コントロールカラム欄に入力可能な文字はn（新規）、u（更新・変更）、d（削除）だけです。
※オークション商品の一括登録では、u（更新・変更）は入力できません。", 【3.贈る相手をお選び下さい】,取引先
hs-cv-ps-fl,"コントロールカラム欄に入力可能な文字はn（新規）、u（更新・変更）、d（削除）だけです。
※オークション商品の一括登録では、u（更新・変更）は入力できません。",※お熨斗をご希望の方へ、お客様にご指定いただく熨斗の【表書き】、【種類（蝶結び or 結び切り）】などが適切かどうかの参考にさせていただきますので下記の【1~4】をお選びください。お熨斗のご指定はカート内の備考欄でお願い致します。,了解しました
hs-cv-ps-fl,"コントロールカラム欄に入力可能な文字はn（新規）、u（更新・変更）、d（削除）だけです。
※オークション商品の一括登録では、u（更新・変更）は入力できません。", 【1.購入目的をお選び下さい】,下記よりお選び下さい↓↓
hs-cv-ps-fl,"コントロールカラム欄に入力可能な文字はn（新規）、u（更新・変更）、d（削除）だけです。
※オークション商品の一括登録では、u（更新・変更）は入力できません。", 【1.購入目的をお選び下さい】,自宅用
hs-cv-ps-fl,"コントロールカラム欄に入力可能な文字はn（新規）、u（更新・変更）、d（削除）だけです。
※オークション商品の一括登録では、u（更新・変更）は入力できません。", 【1.購入目的をお選び下さい】,ギフト用
hs-cv-ps-fl,"コントロールカラム欄に入力可能な文字はn（新規）、u（更新・変更）、d（削除）だけです。
※オークション商品の一括登録では、u（更新・変更）は入力できません。", 【1.購入目的をお選び下さい】,ギフト用(海外)
hs-cv-ps-fl,"コントロールカラム欄に入力可能な文字はn（新規）、u（更新・変更）、d（削除）だけです。
※オークション商品の一括登録では、u（更新・変更）は入力できません。", 【2.用途をお選び下さい】,下記よりお選び下さい↓↓
hs-cv-ps-fl,"コントロールカラム欄に入力可能な文字はn（新規）、u（更新・変更）、d（削除）だけです。
※オークション商品の一括登録では、u（更新・変更）は入力できません。", 【2.用途をお選び下さい】,結婚祝い
hs-cv-ps-fl,"コントロールカラム欄に入力可能な文字はn（新規）、u（更新・変更）、d（削除）だけです。
※オークション商品の一括登録では、u（更新・変更）は入力できません。", 【2.用途をお選び下さい】,結婚記念日(銀婚式)
hs-cv-ps-fl,"コントロールカラム欄に入力可能な文字はn（新規）、u（更新・変更）、d（削除）だけです。
※オークション商品の一括登録では、u（更新・変更）は入力できません。", 【2.用途をお選び下さい】,結婚記念日(金婚式)
hs-cv-ps-fl,"コントロールカラム欄に入力可能な文字はn（新規）、u（更新・変更）、d（削除）だけです。
※オークション商品の一括登録では、u（更新・変更）は入力できません。", 【2.用途をお選び下さい】,結婚記念日(その他)
hs-cv-ps-fl,"コントロールカラム欄に入力可能な文字はn（新規）、u（更新・変更）、d（削除）だけです。
※オークション商品の一括登録では、u（更新・変更）は入力できません。", 【2.用途をお選び下さい】,出産祝い
hs-cv-ps-fl,"コントロールカラム欄に入力可能な文字はn（新規）、u（更新・変更）、d（削除）だけです。
※オークション商品の一括登録では、u（更新・変更）は入力できません。", 【2.用途をお選び下さい】,新築祝い
hs-cv-ps-fl,"コントロールカラム欄に入力可能な文字はn（新規）、u（更新・変更）、d（削除）だけです。
※オークション商品の一括登録では、u（更新・変更）は入力できません。", 【2.用途をお選び下さい】,退職祝い
hs-cv-ps-fl,"コントロールカラム欄に入力可能な文字はn（新規）、u（更新・変更）、d（削除）だけです。
※オークション商品の一括登録では、u（更新・変更）は入力できません。", 【2.用途をお選び下さい】,長寿祝い(還暦)
hs-cv-ps-fl,"コントロールカラム欄に入力可能な文字はn（新規）、u（更新・変更）、d（削除）だけです。
※オークション商品の一括登録では、u（更新・変更）は入力できません。", 【2.用途をお選び下さい】,長寿祝い(古希)
hs-cv-ps-fl,"コントロールカラム欄に入力可能な文字はn（新規）、u（更新・変更）、d（削除）だけです。
※オークション商品の一括登録では、u（更新・変更）は入力できません。", 【2.用途をお選び下さい】,長寿祝い(喜寿)
hs-cv-ps-fl,"コントロールカラム欄に入力可能な文字はn（新規）、u（更新・変更）、d（削除）だけです。
※オークション商品の一括登録では、u（更新・変更）は入力できません。", 【2.用途をお選び下さい】,長寿祝い(米寿)
hs-cv-ps-fl,"コントロールカラム欄に入力可能な文字はn（新規）、u（更新・変更）、d（削除）だけです。
※オークション商品の一括登録では、u（更新・変更）は入力できません。", 【2.用途をお選び下さい】,長寿祝い(その他)
hs-cv-ps-fl,"コントロールカラム欄に入力可能な文字はn（新規）、u（更新・変更）、d（削除）だけです。
※オークション商品の一括登録では、u（更新・変更）は入力できません。", 【2.用途をお選び下さい】,内祝(結婚)
hs-cv-ps-fl,"コントロールカラム欄に入力可能な文字はn（新規）、u（更新・変更）、d（削除）だけです。
※オークション商品の一括登録では、u（更新・変更）は入力できません。", 【2.用途をお選び下さい】,内祝(出産)
hs-cv-ps-fl,"コントロールカラム欄に入力可能な文字はn（新規）、u（更新・変更）、d（削除）だけです。
※オークション商品の一括登録では、u（更新・変更）は入力できません。", 【2.用途をお選び下さい】,内祝(新築)
hs-cv-ps-fl,"コントロールカラム欄に入力可能な文字はn（新規）、u（更新・変更）、d（削除）だけです。
※オークション商品の一括登録では、u（更新・変更）は入力できません。", 【2.用途をお選び下さい】,内祝(その他)
hs-cv-ps-fl,"コントロールカラム欄に入力可能な文字はn（新規）、u（更新・変更）、d（削除）だけです。
※オークション商品の一括登録では、u（更新・変更）は入力できません。", 【2.用途をお選び下さい】,--------------------------------
hs-cv-ps-fl,"コントロールカラム欄に入力可能な文字はn（新規）、u（更新・変更）、d（削除）だけです。
※オークション商品の一括登録では、u（更新・変更）は入力できません。", 【2.用途をお選び下さい】,開店開業記念
hs-cv-ps-fl,"コントロールカラム欄に入力可能な文字はn（新規）、u（更新・変更）、d（削除）だけです。
※オークション商品の一括登録では、u（更新・変更）は入力できません。", 【2.用途をお選び下さい】,株式上場記念
hs-cv-ps-fl,"コントロールカラム欄に入力可能な文字はn（新規）、u（更新・変更）、d（削除）だけです。
※オークション商品の一括登録では、u（更新・変更）は入力できません。", 【2.用途をお選び下さい】,社内褒章
hs-cv-ps-fl,"コントロールカラム欄に入力可能な文字はn（新規）、u（更新・変更）、d（削除）だけです。
※オークション商品の一括登録では、u（更新・変更）は入力できません。", 【2.用途をお選び下さい】,創業創立記念
hs-cv-ps-fl,"コントロールカラム欄に入力可能な文字はn（新規）、u（更新・変更）、d（削除）だけです。
※オークション商品の一括登録では、u（更新・変更）は入力できません。", 【2.用途をお選び下さい】,周年記念
hs-cv-ps-fl,"コントロールカラム欄に入力可能な文字はn（新規）、u（更新・変更）、d（削除）だけです。
※オークション商品の一括登録では、u（更新・変更）は入力できません。", 【2.用途をお選び下さい】,その他法人ギフト
hs-cv-ps-fl,"コントロールカラム欄に入力可能な文字はn（新規）、u（更新・変更）、d（削除）だけです。
※オークション商品の一括登録では、u（更新・変更）は入力できません。", 【2.用途をお選び下さい】,-------------------------------
hs-cv-ps-fl,"コントロールカラム欄に入力可能な文字はn（新規）、u（更新・変更）、d（削除）だけです。
※オークション商品の一括登録では、u（更新・変更）は入力できません。", 【2.用途をお選び下さい】,初任給
hs-cv-ps-fl,"コントロールカラム欄に入力可能な文字はn（新規）、u（更新・変更）、d（削除）だけです。
※オークション商品の一括登録では、u（更新・変更）は入力できません。", 【2.用途をお選び下さい】,端午の節句
hs-cv-ps-fl,"コントロールカラム欄に入力可能な文字はn（新規）、u（更新・変更）、d（削除）だけです。
※オークション商品の一括登録では、u（更新・変更）は入力できません。", 【2.用途をお選び下さい】,母の日
hs-cv-ps-fl,"コントロールカラム欄に入力可能な文字はn（新規）、u（更新・変更）、d（削除）だけです。
※オークション商品の一括登録では、u（更新・変更）は入力できません。", 【2.用途をお選び下さい】,父の日
hs-cv-ps-fl,"コントロールカラム欄に入力可能な文字はn（新規）、u（更新・変更）、d（削除）だけです。
※オークション商品の一括登録では、u（更新・変更）は入力できません。", 【2.用途をお選び下さい】,敬老の日
hs-cv-ps-fl,"コントロールカラム欄に入力可能な文字はn（新規）、u（更新・変更）、d（削除）だけです。
※オークション商品の一括登録では、u（更新・変更）は入力できません。", 【3.贈る相手をお選び下さい】,下記よりお選び下さい↓↓
hs-cv-ps-fl,"コントロールカラム欄に入力可能な文字はn（新規）、u（更新・変更）、d（削除）だけです。
※オークション商品の一括登録では、u（更新・変更）は入力できません。", 【3.贈る相手をお選び下さい】,知人
hs-cv-ps-fl,"コントロールカラム欄に入力可能な文字はn（新規）、u（更新・変更）、d（削除）だけです。
※オークション商品の一括登録では、u（更新・変更）は入力できません。", 【3.贈る相手をお選び下さい】,両親
hs-cv-ps-fl,"コントロールカラム欄に入力可能な文字はn（新規）、u（更新・変更）、d（削除）だけです。
※オークション商品の一括登録では、u（更新・変更）は入力できません。", 【3.贈る相手をお選び下さい】,父
hs-cv-ps-fl,"コントロールカラム欄に入力可能な文字はn（新規）、u（更新・変更）、d（削除）だけです。
※オークション商品の一括登録では、u（更新・変更）は入力できません。", 【3.贈る相手をお選び下さい】,母
hs-cv-ps-fl,"コントロールカラム欄に入力可能な文字はn（新規）、u（更新・変更）、d（削除）だけです。
※オークション商品の一括登録では、u（更新・変更）は入力できません。", 【3.贈る相手をお選び下さい】,兄弟
hs-cv-ps-fl,"コントロールカラム欄に入力可能な文字はn（新規）、u（更新・変更）、d（削除）だけです。
※オークション商品の一括登録では、u（更新・変更）は入力できません。", 【3.贈る相手をお選び下さい】,姉妹
hs-cv-ps-fl,"コントロールカラム欄に入力可能な文字はn（新規）、u（更新・変更）、d（削除）だけです。
※オークション商品の一括登録では、u（更新・変更）は入力できません。", 【3.贈る相手をお選び下さい】,親戚
hs-cv-ps-fl,"コントロールカラム欄に入力可能な文字はn（新規）、u（更新・変更）、d（削除）だけです。
※オークション商品の一括登録では、u（更新・変更）は入力できません。", 【3.贈る相手をお選び下さい】,彼氏、夫
hs-cv-ps-fl,"コントロールカラム欄に入力可能な文字はn（新規）、u（更新・変更）、d（削除）だけです。
※オークション商品の一括登録では、u（更新・変更）は入力できません。", 【3.贈る相手をお選び下さい】,彼女、妻
hs-cv-ps-fl,"コントロールカラム欄に入力可能な文字はn（新規）、u（更新・変更）、d（削除）だけです。
※オークション商品の一括登録では、u（更新・変更）は入力できません。", 【3.贈る相手をお選び下さい】,祖父母
hs-cv-ps-fl,"コントロールカラム欄に入力可能な文字はn（新規）、u（更新・変更）、d（削除）だけです。
※オークション商品の一括登録では、u（更新・変更）は入力できません。", 【3.贈る相手をお選び下さい】,祖父
hs-cv-ps-fl,"コントロールカラム欄に入力可能な文字はn（新規）、u（更新・変更）、d（削除）だけです。
※オークション商品の一括登録では、u（更新・変更）は入力できません。", 【3.贈る相手をお選び下さい】,祖母
hs-cv-ps-fl,"コントロールカラム欄に入力可能な文字はn（新規）、u（更新・変更）、d（削除）だけです。
※オークション商品の一括登録では、u（更新・変更）は入力できません。", 【3.贈る相手をお選び下さい】,--------------------------------
hs-cv-ps-fl,"コントロールカラム欄に入力可能な文字はn（新規）、u（更新・変更）、d（削除）だけです。
※オークション商品の一括登録では、u（更新・変更）は入力できません。", 【3.贈る相手をお選び下さい】,上司
hs-cv-ps-fl,"コントロールカラム欄に入力可能な文字はn（新規）、u（更新・変更）、d（削除）だけです。
※オークション商品の一括登録では、u（更新・変更）は入力できません。", 【3.贈る相手をお選び下さい】,同僚
hs-cv-ps-fl,"コントロールカラム欄に入力可能な文字はn（新規）、u（更新・変更）、d（削除）だけです。
※オークション商品の一括登録では、u（更新・変更）は入力できません。", 【3.贈る相手をお選び下さい】,部下
hs-cv-ps-fl,"コントロールカラム欄に入力可能な文字はn（新規）、u（更新・変更）、d（削除）だけです。
※オークション商品の一括登録では、u（更新・変更）は入力できません。", 【3.贈る相手をお選び下さい】,取引先
hs-cv-ps-fm,"コントロールカラム欄に入力可能な文字はn（新規）、u（更新・変更）、d（削除）だけです。
※オークション商品の一括登録では、u（更新・変更）は入力できません。",※お熨斗をご希望の方へ、お客様にご指定いただく熨斗の【表書き】、【種類（蝶結び or 結び切り）】などが適切かどうかの参考にさせていただきますので下記の【1~5】をお選びください。お熨斗のご指定はカート内の備考欄でお願い致します。,了解しました
hs-cv-ps-fm,"コントロールカラム欄に入力可能な文字はn（新規）、u（更新・変更）、d（削除）だけです。
※オークション商品の一括登録では、u（更新・変更）は入力できません。", 【1.購入目的をお選び下さい】,下記よりお選び下さい↓↓
hs-cv-ps-fm,"コントロールカラム欄に入力可能な文字はn（新規）、u（更新・変更）、d（削除）だけです。
※オークション商品の一括登録では、u（更新・変更）は入力できません。", 【1.購入目的をお選び下さい】,自宅用
hs-cv-ps-fm,"コントロールカラム欄に入力可能な文字はn（新規）、u（更新・変更）、d（削除）だけです。
※オークション商品の一括登録では、u（更新・変更）は入力できません。", 【1.購入目的をお選び下さい】,ギフト用
hs-cv-ps-fm,"コントロールカラム欄に入力可能な文字はn（新規）、u（更新・変更）、d（削除）だけです。
※オークション商品の一括登録では、u（更新・変更）は入力できません。", 【1.購入目的をお選び下さい】,ギフト用(海外)
hs-cv-ps-fm,"コントロールカラム欄に入力可能な文字はn（新規）、u（更新・変更）、d（削除）だけです。
※オークション商品の一括登録では、u（更新・変更）は入力できません。", 【2.用途をお選び下さい】,下記よりお選び下さい↓↓
hs-cv-ps-fm,"コントロールカラム欄に入力可能な文字はn（新規）、u（更新・変更）、d（削除）だけです。
※オークション商品の一括登録では、u（更新・変更）は入力できません。", 【2.用途をお選び下さい】,結婚祝い
hs-cv-ps-fm,"コントロールカラム欄に入力可能な文字はn（新規）、u（更新・変更）、d（削除）だけです。
※オークション商品の一括登録では、u（更新・変更）は入力できません。", 【2.用途をお選び下さい】,結婚記念日(銀婚式)
hs-cv-ps-fm,"コントロールカラム欄に入力可能な文字はn（新規）、u（更新・変更）、d（削除）だけです。
※オークション商品の一括登録では、u（更新・変更）は入力できません。", 【2.用途をお選び下さい】,結婚記念日(金婚式)
hs-cv-ps-fm,"コントロールカラム欄に入力可能な文字はn（新規）、u（更新・変更）、d（削除）だけです。
※オークション商品の一括登録では、u（更新・変更）は入力できません。", 【2.用途をお選び下さい】,結婚記念日(その他)
hs-cv-ps-fm,"コントロールカラム欄に入力可能な文字はn（新規）、u（更新・変更）、d（削除）だけです。
※オークション商品の一括登録では、u（更新・変更）は入力できません。", 【2.用途をお選び下さい】,出産祝い
hs-cv-ps-fm,"コントロールカラム欄に入力可能な文字はn（新規）、u（更新・変更）、d（削除）だけです。
※オークション商品の一括登録では、u（更新・変更）は入力できません。", 【2.用途をお選び下さい】,新築祝い
hs-cv-ps-fm,"コントロールカラム欄に入力可能な文字はn（新規）、u（更新・変更）、d（削除）だけです。
※オークション商品の一括登録では、u（更新・変更）は入力できません。", 【2.用途をお選び下さい】,退職祝い
hs-cv-ps-fm,"コントロールカラム欄に入力可能な文字はn（新規）、u（更新・変更）、d（削除）だけです。
※オークション商品の一括登録では、u（更新・変更）は入力できません。", 【2.用途をお選び下さい】,長寿祝い(還暦)
hs-cv-ps-fm,"コントロールカラム欄に入力可能な文字はn（新規）、u（更新・変更）、d（削除）だけです。
※オークション商品の一括登録では、u（更新・変更）は入力できません。", 【2.用途をお選び下さい】,長寿祝い(古希)
hs-cv-ps-fm,"コントロールカラム欄に入力可能な文字はn（新規）、u（更新・変更）、d（削除）だけです。
※オークション商品の一括登録では、u（更新・変更）は入力できません。", 【2.用途をお選び下さい】,長寿祝い(喜寿)
hs-cv-ps-fm,"コントロールカラム欄に入力可能な文字はn（新規）、u（更新・変更）、d（削除）だけです。
※オークション商品の一括登録では、u（更新・変更）は入力できません。", 【2.用途をお選び下さい】,長寿祝い(米寿)
hs-cv-ps-fm,"コントロールカラム欄に入力可能な文字はn（新規）、u（更新・変更）、d（削除）だけです。
※オークション商品の一括登録では、u（更新・変更）は入力できません。", 【2.用途をお選び下さい】,長寿祝い(その他)
hs-cv-ps-fm,"コントロールカラム欄に入力可能な文字はn（新規）、u（更新・変更）、d（削除）だけです。
※オークション商品の一括登録では、u（更新・変更）は入力できません。", 【2.用途をお選び下さい】,内祝(結婚)
hs-cv-ps-fm,"コントロールカラム欄に入力可能な文字はn（新規）、u（更新・変更）、d（削除）だけです。
※オークション商品の一括登録では、u（更新・変更）は入力できません。", 【2.用途をお選び下さい】,内祝(出産)
hs-cv-ps-fm,"コントロールカラム欄に入力可能な文字はn（新規）、u（更新・変更）、d（削除）だけです。
※オークション商品の一括登録では、u（更新・変更）は入力できません。", 【2.用途をお選び下さい】,内祝(新築)
hs-cv-ps-fm,"コントロールカラム欄に入力可能な文字はn（新規）、u（更新・変更）、d（削除）だけです。
※オークション商品の一括登録では、u（更新・変更）は入力できません。", 【2.用途をお選び下さい】,内祝(その他)
hs-cv-ps-fm,"コントロールカラム欄に入力可能な文字はn（新規）、u（更新・変更）、d（削除）だけです。
※オークション商品の一括登録では、u（更新・変更）は入力できません。", 【2.用途をお選び下さい】,--------------------------------
hs-cv-ps-fm,"コントロールカラム欄に入力可能な文字はn（新規）、u（更新・変更）、d（削除）だけです。
※オークション商品の一括登録では、u（更新・変更）は入力できません。", 【2.用途をお選び下さい】,開店開業記念
hs-cv-ps-fm,"コントロールカラム欄に入力可能な文字はn（新規）、u（更新・変更）、d（削除）だけです。
※オークション商品の一括登録では、u（更新・変更）は入力できません。", 【2.用途をお選び下さい】,株式上場記念
hs-cv-ps-fm,"コントロールカラム欄に入力可能な文字はn（新規）、u（更新・変更）、d（削除）だけです。
※オークション商品の一括登録では、u（更新・変更）は入力できません。", 【2.用途をお選び下さい】,社内褒章
hs-cv-ps-fm,"コントロールカラム欄に入力可能な文字はn（新規）、u（更新・変更）、d（削除）だけです。
※オークション商品の一括登録では、u（更新・変更）は入力できません。", 【2.用途をお選び下さい】,創業創立記念
hs-cv-ps-fm,"コントロールカラム欄に入力可能な文字はn（新規）、u（更新・変更）、d（削除）だけです。
※オークション商品の一括登録では、u（更新・変更）は入力できません。", 【2.用途をお選び下さい】,周年記念
hs-cv-ps-fm,"コントロールカラム欄に入力可能な文字はn（新規）、u（更新・変更）、d（削除）だけです。
※オークション商品の一括登録では、u（更新・変更）は入力できません。", 【2.用途をお選び下さい】,その他法人ギフト
hs-cv-ps-fm,"コントロールカラム欄に入力可能な文字はn（新規）、u（更新・変更）、d（削除）だけです。
※オークション商品の一括登録では、u（更新・変更）は入力できません。", 【2.用途をお選び下さい】,-------------------------------
hs-cv-ps-fm,"コントロールカラム欄に入力可能な文字はn（新規）、u（更新・変更）、d（削除）だけです。
※オークション商品の一括登録では、u（更新・変更）は入力できません。", 【2.用途をお選び下さい】,初任給
hs-cv-ps-fm,"コントロールカラム欄に入力可能な文字はn（新規）、u（更新・変更）、d（削除）だけです。
※オークション商品の一括登録では、u（更新・変更）は入力できません。", 【2.用途をお選び下さい】,端午の節句
hs-cv-ps-fm,"コントロールカラム欄に入力可能な文字はn（新規）、u（更新・変更）、d（削除）だけです。
※オークション商品の一括登録では、u（更新・変更）は入力できません。", 【2.用途をお選び下さい】,母の日
hs-cv-ps-fm,"コントロールカラム欄に入力可能な文字はn（新規）、u（更新・変更）、d（削除）だけです。
※オークション商品の一括登録では、u（更新・変更）は入力できません。", 【2.用途をお選び下さい】,父の日
hs-cv-ps-fm,"コントロールカラム欄に入力可能な文字はn（新規）、u（更新・変更）、d（削除）だけです。
※オークション商品の一括登録では、u（更新・変更）は入力できません。", 【2.用途をお選び下さい】,敬老の日
hs-cv-ps-fm,"コントロールカラム欄に入力可能な文字はn（新規）、u（更新・変更）、d（削除）だけです。
※オークション商品の一括登録では、u（更新・変更）は入力できません。", 【3.贈る相手をお選び下さい】,下記よりお選び下さい↓↓
hs-cv-ps-fm,"コントロールカラム欄に入力可能な文字はn（新規）、u（更新・変更）、d（削除）だけです。
※オークション商品の一括登録では、u（更新・変更）は入力できません。", 【3.贈る相手をお選び下さい】,知人
hs-cv-ps-fm,"コントロールカラム欄に入力可能な文字はn（新規）、u（更新・変更）、d（削除）だけです。
※オークション商品の一括登録では、u（更新・変更）は入力できません。", 【3.贈る相手をお選び下さい】,両親
hs-cv-ps-fm,"コントロールカラム欄に入力可能な文字はn（新規）、u（更新・変更）、d（削除）だけです。
※オークション商品の一括登録では、u（更新・変更）は入力できません。", 【3.贈る相手をお選び下さい】,父
hs-cv-ps-fm,"コントロールカラム欄に入力可能な文字はn（新規）、u（更新・変更）、d（削除）だけです。
※オークション商品の一括登録では、u（更新・変更）は入力できません。", 【3.贈る相手をお選び下さい】,母
hs-cv-ps-fm,"コントロールカラム欄に入力可能な文字はn（新規）、u（更新・変更）、d（削除）だけです。
※オークション商品の一括登録では、u（更新・変更）は入力できません。", 【3.贈る相手をお選び下さい】,兄弟
hs-cv-ps-fm,"コントロールカラム欄に入力可能な文字はn（新規）、u（更新・変更）、d（削除）だけです。
※オークション商品の一括登録では、u（更新・変更）は入力できません。", 【3.贈る相手をお選び下さい】,姉妹
hs-cv-ps-fm,"コントロールカラム欄に入力可能な文字はn（新規）、u（更新・変更）、d（削除）だけです。
※オークション商品の一括登録では、u（更新・変更）は入力できません。", 【3.贈る相手をお選び下さい】,親戚
hs-cv-ps-fm,"コントロールカラム欄に入力可能な文字はn（新規）、u（更新・変更）、d（削除）だけです。
※オークション商品の一括登録では、u（更新・変更）は入力できません。", 【3.贈る相手をお選び下さい】,彼氏、夫
hs-cv-ps-fm,"コントロールカラム欄に入力可能な文字はn（新規）、u（更新・変更）、d（削除）だけです。
※オークション商品の一括登録では、u（更新・変更）は入力できません。", 【3.贈る相手をお選び下さい】,彼女、妻
hs-cv-ps-fm,"コントロールカラム欄に入力可能な文字はn（新規）、u（更新・変更）、d（削除）だけです。
※オークション商品の一括登録では、u（更新・変更）は入力できません。", 【3.贈る相手をお選び下さい】,祖父母
hs-cv-ps-fm,"コントロールカラム欄に入力可能な文字はn（新規）、u（更新・変更）、d（削除）だけです。
※オークション商品の一括登録では、u（更新・変更）は入力できません。", 【3.贈る相手をお選び下さい】,祖父
hs-cv-ps-fm,"コントロールカラム欄に入力可能な文字はn（新規）、u（更新・変更）、d（削除）だけです。
※オークション商品の一括登録では、u（更新・変更）は入力できません。", 【3.贈る相手をお選び下さい】,祖母
hs-cv-ps-fm,"コントロールカラム欄に入力可能な文字はn（新規）、u（更新・変更）、d（削除）だけです。
※オークション商品の一括登録では、u（更新・変更）は入力できません。", 【3.贈る相手をお選び下さい】,--------------------------------
hs-cv-ps-fm,"コントロールカラム欄に入力可能な文字はn（新規）、u（更新・変更）、d（削除）だけです。
※オークション商品の一括登録では、u（更新・変更）は入力できません。", 【3.贈る相手をお選び下さい】,上司
hs-cv-ps-fm,"コントロールカラム欄に入力可能な文字はn（新規）、u（更新・変更）、d（削除）だけです。
※オークション商品の一括登録では、u（更新・変更）は入力できません。", 【3.贈る相手をお選び下さい】,同僚
hs-cv-ps-fm,"コントロールカラム欄に入力可能な文字はn（新規）、u（更新・変更）、d（削除）だけです。
※オークション商品の一括登録では、u（更新・変更）は入力できません。", 【3.贈る相手をお選び下さい】,部下
hs-cv-ps-fm,"コントロールカラム欄に入力可能な文字はn（新規）、u（更新・変更）、d（削除）だけです。
※オークション商品の一括登録では、u（更新・変更）は入力できません。", 【3.贈る相手をお選び下さい】,取引先
hs-cv-ps-fs,"コントロールカラム欄に入力可能な文字はn（新規）、u（更新・変更）、d（削除）だけです。
※オークション商品の一括登録では、u（更新・変更）は入力できません。",※お熨斗をご希望の方へ、お客様にご指定いただく熨斗の【表書き】、【種類（蝶結び or 結び切り）】などが適切かどうかの参考にさせていただきますので下記の【1~6】をお選びください。お熨斗のご指定はカート内の備考欄でお願い致します。,了解しました
hs-cv-ps-fs,"コントロールカラム欄に入力可能な文字はn（新規）、u（更新・変更）、d（削除）だけです。
※オークション商品の一括登録では、u（更新・変更）は入力できません。", 【1.購入目的をお選び下さい】,下記よりお選び下さい↓↓
hs-cv-ps-fs,"コントロールカラム欄に入力可能な文字はn（新規）、u（更新・変更）、d（削除）だけです。
※オークション商品の一括登録では、u（更新・変更）は入力できません。", 【1.購入目的をお選び下さい】,自宅用
hs-cv-ps-fs,"コントロールカラム欄に入力可能な文字はn（新規）、u（更新・変更）、d（削除）だけです。
※オークション商品の一括登録では、u（更新・変更）は入力できません。", 【1.購入目的をお選び下さい】,ギフト用
hs-cv-ps-fs,"コントロールカラム欄に入力可能な文字はn（新規）、u（更新・変更）、d（削除）だけです。
※オークション商品の一括登録では、u（更新・変更）は入力できません。", 【1.購入目的をお選び下さい】,ギフト用(海外)
hs-cv-ps-fs,"コントロールカラム欄に入力可能な文字はn（新規）、u（更新・変更）、d（削除）だけです。
※オークション商品の一括登録では、u（更新・変更）は入力できません。", 【2.用途をお選び下さい】,下記よりお選び下さい↓↓
hs-cv-ps-fs,"コントロールカラム欄に入力可能な文字はn（新規）、u（更新・変更）、d（削除）だけです。
※オークション商品の一括登録では、u（更新・変更）は入力できません。", 【2.用途をお選び下さい】,結婚祝い
hs-cv-ps-fs,"コントロールカラム欄に入力可能な文字はn（新規）、u（更新・変更）、d（削除）だけです。
※オークション商品の一括登録では、u（更新・変更）は入力できません。", 【2.用途をお選び下さい】,結婚記念日(銀婚式)
hs-cv-ps-fs,"コントロールカラム欄に入力可能な文字はn（新規）、u（更新・変更）、d（削除）だけです。
※オークション商品の一括登録では、u（更新・変更）は入力できません。", 【2.用途をお選び下さい】,結婚記念日(金婚式)
hs-cv-ps-fs,"コントロールカラム欄に入力可能な文字はn（新規）、u（更新・変更）、d（削除）だけです。
※オークション商品の一括登録では、u（更新・変更）は入力できません。", 【2.用途をお選び下さい】,結婚記念日(その他)
hs-cv-ps-fs,"コントロールカラム欄に入力可能な文字はn（新規）、u（更新・変更）、d（削除）だけです。
※オークション商品の一括登録では、u（更新・変更）は入力できません。", 【2.用途をお選び下さい】,出産祝い
hs-cv-ps-fs,"コントロールカラム欄に入力可能な文字はn（新規）、u（更新・変更）、d（削除）だけです。
※オークション商品の一括登録では、u（更新・変更）は入力できません。", 【2.用途をお選び下さい】,新築祝い
hs-cv-ps-fs,"コントロールカラム欄に入力可能な文字はn（新規）、u（更新・変更）、d（削除）だけです。
※オークション商品の一括登録では、u（更新・変更）は入力できません。", 【2.用途をお選び下さい】,退職祝い
hs-cv-ps-fs,"コントロールカラム欄に入力可能な文字はn（新規）、u（更新・変更）、d（削除）だけです。
※オークション商品の一括登録では、u（更新・変更）は入力できません。", 【2.用途をお選び下さい】,長寿祝い(還暦)
hs-cv-ps-fs,"コントロールカラム欄に入力可能な文字はn（新規）、u（更新・変更）、d（削除）だけです。
※オークション商品の一括登録では、u（更新・変更）は入力できません。", 【2.用途をお選び下さい】,長寿祝い(古希)
hs-cv-ps-fs,"コントロールカラム欄に入力可能な文字はn（新規）、u（更新・変更）、d（削除）だけです。
※オークション商品の一括登録では、u（更新・変更）は入力できません。", 【2.用途をお選び下さい】,長寿祝い(喜寿)
hs-cv-ps-fs,"コントロールカラム欄に入力可能な文字はn（新規）、u（更新・変更）、d（削除）だけです。
※オークション商品の一括登録では、u（更新・変更）は入力できません。", 【2.用途をお選び下さい】,長寿祝い(米寿)
hs-cv-ps-fs,"コントロールカラム欄に入力可能な文字はn（新規）、u（更新・変更）、d（削除）だけです。
※オークション商品の一括登録では、u（更新・変更）は入力できません。", 【2.用途をお選び下さい】,長寿祝い(その他)
hs-cv-ps-fs,"コントロールカラム欄に入力可能な文字はn（新規）、u（更新・変更）、d（削除）だけです。
※オークション商品の一括登録では、u（更新・変更）は入力できません。", 【2.用途をお選び下さい】,内祝(結婚)
hs-cv-ps-fs,"コントロールカラム欄に入力可能な文字はn（新規）、u（更新・変更）、d（削除）だけです。
※オークション商品の一括登録では、u（更新・変更）は入力できません。", 【2.用途をお選び下さい】,内祝(出産)
hs-cv-ps-fs,"コントロールカラム欄に入力可能な文字はn（新規）、u（更新・変更）、d（削除）だけです。
※オークション商品の一括登録では、u（更新・変更）は入力できません。", 【2.用途をお選び下さい】,内祝(新築)
hs-cv-ps-fs,"コントロールカラム欄に入力可能な文字はn（新規）、u（更新・変更）、d（削除）だけです。
※オークション商品の一括登録では、u（更新・変更）は入力できません。", 【2.用途をお選び下さい】,内祝(その他)
hs-cv-ps-fs,"コントロールカラム欄に入力可能な文字はn（新規）、u（更新・変更）、d（削除）だけです。
※オークション商品の一括登録では、u（更新・変更）は入力できません。", 【2.用途をお選び下さい】,--------------------------------
hs-cv-ps-fs,"コントロールカラム欄に入力可能な文字はn（新規）、u（更新・変更）、d（削除）だけです。
※オークション商品の一括登録では、u（更新・変更）は入力できません。", 【2.用途をお選び下さい】,開店開業記念
hs-cv-ps-fs,"コントロールカラム欄に入力可能な文字はn（新規）、u（更新・変更）、d（削除）だけです。
※オークション商品の一括登録では、u（更新・変更）は入力できません。", 【2.用途をお選び下さい】,株式上場記念
hs-cv-ps-fs,"コントロールカラム欄に入力可能な文字はn（新規）、u（更新・変更）、d（削除）だけです。
※オークション商品の一括登録では、u（更新・変更）は入力できません。", 【2.用途をお選び下さい】,社内褒章
hs-cv-ps-fs,"コントロールカラム欄に入力可能な文字はn（新規）、u（更新・変更）、d（削除）だけです。
※オークション商品の一括登録では、u（更新・変更）は入力できません。", 【2.用途をお選び下さい】,創業創立記念
hs-cv-ps-fs,"コントロールカラム欄に入力可能な文字はn（新規）、u（更新・変更）、d（削除）だけです。
※オークション商品の一括登録では、u（更新・変更）は入力できません。", 【2.用途をお選び下さい】,周年記念
hs-cv-ps-fs,"コントロールカラム欄に入力可能な文字はn（新規）、u（更新・変更）、d（削除）だけです。
※オークション商品の一括登録では、u（更新・変更）は入力できません。", 【2.用途をお選び下さい】,その他法人ギフト
hs-cv-ps-fs,"コントロールカラム欄に入力可能な文字はn（新規）、u（更新・変更）、d（削除）だけです。
※オークション商品の一括登録では、u（更新・変更）は入力できません。", 【2.用途をお選び下さい】,-------------------------------
hs-cv-ps-fs,"コントロールカラム欄に入力可能な文字はn（新規）、u（更新・変更）、d（削除）だけです。
※オークション商品の一括登録では、u（更新・変更）は入力できません。", 【2.用途をお選び下さい】,初任給
hs-cv-ps-fs,"コントロールカラム欄に入力可能な文字はn（新規）、u（更新・変更）、d（削除）だけです。
※オークション商品の一括登録では、u（更新・変更）は入力できません。", 【2.用途をお選び下さい】,端午の節句
hs-cv-ps-fs,"コントロールカラム欄に入力可能な文字はn（新規）、u（更新・変更）、d（削除）だけです。
※オークション商品の一括登録では、u（更新・変更）は入力できません。", 【2.用途をお選び下さい】,母の日
hs-cv-ps-fs,"コントロールカラム欄に入力可能な文字はn（新規）、u（更新・変更）、d（削除）だけです。
※オークション商品の一括登録では、u（更新・変更）は入力できません。", 【2.用途をお選び下さい】,父の日
hs-cv-ps-fs,"コントロールカラム欄に入力可能な文字はn（新規）、u（更新・変更）、d（削除）だけです。
※オークション商品の一括登録では、u（更新・変更）は入力できません。", 【2.用途をお選び下さい】,敬老の日
hs-cv-ps-fs,"コントロールカラム欄に入力可能な文字はn（新規）、u（更新・変更）、d（削除）だけです。
※オークション商品の一括登録では、u（更新・変更）は入力できません。", 【3.贈る相手をお選び下さい】,下記よりお選び下さい↓↓
hs-cv-ps-fs,"コントロールカラム欄に入力可能な文字はn（新規）、u（更新・変更）、d（削除）だけです。
※オークション商品の一括登録では、u（更新・変更）は入力できません。", 【3.贈る相手をお選び下さい】,知人
hs-cv-ps-fs,"コントロールカラム欄に入力可能な文字はn（新規）、u（更新・変更）、d（削除）だけです。
※オークション商品の一括登録では、u（更新・変更）は入力できません。", 【3.贈る相手をお選び下さい】,両親
hs-cv-ps-fs,"コントロールカラム欄に入力可能な文字はn（新規）、u（更新・変更）、d（削除）だけです。
※オークション商品の一括登録では、u（更新・変更）は入力できません。", 【3.贈る相手をお選び下さい】,父
hs-cv-ps-fs,"コントロールカラム欄に入力可能な文字はn（新規）、u（更新・変更）、d（削除）だけです。
※オークション商品の一括登録では、u（更新・変更）は入力できません。", 【3.贈る相手をお選び下さい】,母
hs-cv-ps-fs,"コントロールカラム欄に入力可能な文字はn（新規）、u（更新・変更）、d（削除）だけです。
※オークション商品の一括登録では、u（更新・変更）は入力できません。", 【3.贈る相手をお選び下さい】,兄弟
hs-cv-ps-fs,"コントロールカラム欄に入力可能な文字はn（新規）、u（更新・変更）、d（削除）だけです。
※オークション商品の一括登録では、u（更新・変更）は入力できません。", 【3.贈る相手をお選び下さい】,姉妹
hs-cv-ps-fs,"コントロールカラム欄に入力可能な文字はn（新規）、u（更新・変更）、d（削除）だけです。
※オークション商品の一括登録では、u（更新・変更）は入力できません。", 【3.贈る相手をお選び下さい】,親戚
hs-cv-ps-fs,"コントロールカラム欄に入力可能な文字はn（新規）、u（更新・変更）、d（削除）だけです。
※オークション商品の一括登録では、u（更新・変更）は入力できません。", 【3.贈る相手をお選び下さい】,彼氏、夫
hs-cv-ps-fs,"コントロールカラム欄に入力可能な文字はn（新規）、u（更新・変更）、d（削除）だけです。
※オークション商品の一括登録では、u（更新・変更）は入力できません。", 【3.贈る相手をお選び下さい】,彼女、妻
hs-cv-ps-fs,"コントロールカラム欄に入力可能な文字はn（新規）、u（更新・変更）、d（削除）だけです。
※オークション商品の一括登録では、u（更新・変更）は入力できません。", 【3.贈る相手をお選び下さい】,祖父母
hs-cv-ps-fs,"コントロールカラム欄に入力可能な文字はn（新規）、u（更新・変更）、d（削除）だけです。
※オークション商品の一括登録では、u（更新・変更）は入力できません。", 【3.贈る相手をお選び下さい】,祖父
hs-cv-ps-fs,"コントロールカラム欄に入力可能な文字はn（新規）、u（更新・変更）、d（削除）だけです。
※オークション商品の一括登録では、u（更新・変更）は入力できません。", 【3.贈る相手をお選び下さい】,祖母
hs-cv-ps-fs,"コントロールカラム欄に入力可能な文字はn（新規）、u（更新・変更）、d（削除）だけです。
※オークション商品の一括登録では、u（更新・変更）は入力できません。", 【3.贈る相手をお選び下さい】,--------------------------------
hs-cv-ps-fs,"コントロールカラム欄に入力可能な文字はn（新規）、u（更新・変更）、d（削除）だけです。
※オークション商品の一括登録では、u（更新・変更）は入力できません。", 【3.贈る相手をお選び下さい】,上司
hs-cv-ps-fs,"コントロールカラム欄に入力可能な文字はn（新規）、u（更新・変更）、d（削除）だけです。
※オークション商品の一括登録では、u（更新・変更）は入力できません。", 【3.贈る相手をお選び下さい】,同僚
hs-cv-ps-fs,"コントロールカラム欄に入力可能な文字はn（新規）、u（更新・変更）、d（削除）だけです。
※オークション商品の一括登録では、u（更新・変更）は入力できません。", 【3.贈る相手をお選び下さい】,部下
hs-cv-ps-fs,"コントロールカラム欄に入力可能な文字はn（新規）、u（更新・変更）、d（削除）だけです。
※オークション商品の一括登録では、u（更新・変更）は入力できません。", 【3.贈る相手をお選び下さい】,取引先
hs-cv-ps-ll,"コントロールカラム欄に入力可能な文字はn（新規）、u（更新・変更）、d（削除）だけです。
※オークション商品の一括登録では、u（更新・変更）は入力できません。",※お熨斗をご希望の方へ、お客様にご指定いただく熨斗の【表書き】、【種類（蝶結び or 結び切り）】などが適切かどうかの参考にさせていただきますので下記の【1~7】をお選びください。お熨斗のご指定はカート内の備考欄でお願い致します。,了解しました
hs-cv-ps-ll,"コントロールカラム欄に入力可能な文字はn（新規）、u（更新・変更）、d（削除）だけです。
※オークション商品の一括登録では、u（更新・変更）は入力できません。", 【1.購入目的をお選び下さい】,下記よりお選び下さい↓↓
hs-cv-ps-ll,"コントロールカラム欄に入力可能な文字はn（新規）、u（更新・変更）、d（削除）だけです。
※オークション商品の一括登録では、u（更新・変更）は入力できません。", 【1.購入目的をお選び下さい】,自宅用
hs-cv-ps-ll,"コントロールカラム欄に入力可能な文字はn（新規）、u（更新・変更）、d（削除）だけです。
※オークション商品の一括登録では、u（更新・変更）は入力できません。", 【1.購入目的をお選び下さい】,ギフト用
hs-cv-ps-ll,"コントロールカラム欄に入力可能な文字はn（新規）、u（更新・変更）、d（削除）だけです。
※オークション商品の一括登録では、u（更新・変更）は入力できません。", 【1.購入目的をお選び下さい】,ギフト用(海外)
hs-cv-ps-ll,"コントロールカラム欄に入力可能な文字はn（新規）、u（更新・変更）、d（削除）だけです。
※オークション商品の一括登録では、u（更新・変更）は入力できません。", 【2.用途をお選び下さい】,下記よりお選び下さい↓↓
hs-cv-ps-ll,"コントロールカラム欄に入力可能な文字はn（新規）、u（更新・変更）、d（削除）だけです。
※オークション商品の一括登録では、u（更新・変更）は入力できません。", 【2.用途をお選び下さい】,結婚祝い
hs-cv-ps-ll,"コントロールカラム欄に入力可能な文字はn（新規）、u（更新・変更）、d（削除）だけです。
※オークション商品の一括登録では、u（更新・変更）は入力できません。", 【2.用途をお選び下さい】,結婚記念日(銀婚式)
hs-cv-ps-ll,"コントロールカラム欄に入力可能な文字はn（新規）、u（更新・変更）、d（削除）だけです。
※オークション商品の一括登録では、u（更新・変更）は入力できません。", 【2.用途をお選び下さい】,結婚記念日(金婚式)
hs-cv-ps-ll,"コントロールカラム欄に入力可能な文字はn（新規）、u（更新・変更）、d（削除）だけです。
※オークション商品の一括登録では、u（更新・変更）は入力できません。", 【2.用途をお選び下さい】,結婚記念日(その他)
hs-cv-ps-ll,"コントロールカラム欄に入力可能な文字はn（新規）、u（更新・変更）、d（削除）だけです。
※オークション商品の一括登録では、u（更新・変更）は入力できません。", 【2.用途をお選び下さい】,出産祝い
hs-cv-ps-ll,"コントロールカラム欄に入力可能な文字はn（新規）、u（更新・変更）、d（削除）だけです。
※オークション商品の一括登録では、u（更新・変更）は入力できません。", 【2.用途をお選び下さい】,新築祝い
hs-cv-ps-ll,"コントロールカラム欄に入力可能な文字はn（新規）、u（更新・変更）、d（削除）だけです。
※オークション商品の一括登録では、u（更新・変更）は入力できません。", 【2.用途をお選び下さい】,退職祝い
hs-cv-ps-ll,"コントロールカラム欄に入力可能な文字はn（新規）、u（更新・変更）、d（削除）だけです。
※オークション商品の一括登録では、u（更新・変更）は入力できません。", 【2.用途をお選び下さい】,長寿祝い(還暦)
hs-cv-ps-ll,"コントロールカラム欄に入力可能な文字はn（新規）、u（更新・変更）、d（削除）だけです。
※オークション商品の一括登録では、u（更新・変更）は入力できません。", 【2.用途をお選び下さい】,長寿祝い(古希)
hs-cv-ps-ll,"コントロールカラム欄に入力可能な文字はn（新規）、u（更新・変更）、d（削除）だけです。
※オークション商品の一括登録では、u（更新・変更）は入力できません。", 【2.用途をお選び下さい】,長寿祝い(喜寿)
hs-cv-ps-ll,"コントロールカラム欄に入力可能な文字はn（新規）、u（更新・変更）、d（削除）だけです。
※オークション商品の一括登録では、u（更新・変更）は入力できません。", 【2.用途をお選び下さい】,長寿祝い(米寿)
hs-cv-ps-ll,"コントロールカラム欄に入力可能な文字はn（新規）、u（更新・変更）、d（削除）だけです。
※オークション商品の一括登録では、u（更新・変更）は入力できません。", 【2.用途をお選び下さい】,長寿祝い(その他)
hs-cv-ps-ll,"コントロールカラム欄に入力可能な文字はn（新規）、u（更新・変更）、d（削除）だけです。
※オークション商品の一括登録では、u（更新・変更）は入力できません。", 【2.用途をお選び下さい】,内祝(結婚)
hs-cv-ps-ll,"コントロールカラム欄に入力可能な文字はn（新規）、u（更新・変更）、d（削除）だけです。
※オークション商品の一括登録では、u（更新・変更）は入力できません。", 【2.用途をお選び下さい】,内祝(出産)
hs-cv-ps-ll,"コントロールカラム欄に入力可能な文字はn（新規）、u（更新・変更）、d（削除）だけです。
※オークション商品の一括登録では、u（更新・変更）は入力できません。", 【2.用途をお選び下さい】,内祝(新築)
hs-cv-ps-ll,"コントロールカラム欄に入力可能な文字はn（新規）、u（更新・変更）、d（削除）だけです。
※オークション商品の一括登録では、u（更新・変更）は入力できません。", 【2.用途をお選び下さい】,内祝(その他)
hs-cv-ps-ll,"コントロールカラム欄に入力可能な文字はn（新規）、u（更新・変更）、d（削除）だけです。
※オークション商品の一括登録では、u（更新・変更）は入力できません。", 【2.用途をお選び下さい】,--------------------------------
hs-cv-ps-ll,"コントロールカラム欄に入力可能な文字はn（新規）、u（更新・変更）、d（削除）だけです。
※オークション商品の一括登録では、u（更新・変更）は入力できません。", 【2.用途をお選び下さい】,開店開業記念
hs-cv-ps-ll,"コントロールカラム欄に入力可能な文字はn（新規）、u（更新・変更）、d（削除）だけです。
※オークション商品の一括登録では、u（更新・変更）は入力できません。", 【2.用途をお選び下さい】,株式上場記念
hs-cv-ps-ll,"コントロールカラム欄に入力可能な文字はn（新規）、u（更新・変更）、d（削除）だけです。
※オークション商品の一括登録では、u（更新・変更）は入力できません。", 【2.用途をお選び下さい】,社内褒章
hs-cv-ps-ll,"コントロールカラム欄に入力可能な文字はn（新規）、u（更新・変更）、d（削除）だけです。
※オークション商品の一括登録では、u（更新・変更）は入力できません。", 【2.用途をお選び下さい】,創業創立記念
hs-cv-ps-ll,"コントロールカラム欄に入力可能な文字はn（新規）、u（更新・変更）、d（削除）だけです。
※オークション商品の一括登録では、u（更新・変更）は入力できません。", 【2.用途をお選び下さい】,周年記念
hs-cv-ps-ll,"コントロールカラム欄に入力可能な文字はn（新規）、u（更新・変更）、d（削除）だけです。
※オークション商品の一括登録では、u（更新・変更）は入力できません。", 【2.用途をお選び下さい】,その他法人ギフト
hs-cv-ps-ll,"コントロールカラム欄に入力可能な文字はn（新規）、u（更新・変更）、d（削除）だけです。
※オークション商品の一括登録では、u（更新・変更）は入力できません。", 【2.用途をお選び下さい】,-------------------------------
hs-cv-ps-ll,"コントロールカラム欄に入力可能な文字はn（新規）、u（更新・変更）、d（削除）だけです。
※オークション商品の一括登録では、u（更新・変更）は入力できません。", 【2.用途をお選び下さい】,初任給
hs-cv-ps-ll,"コントロールカラム欄に入力可能な文字はn（新規）、u（更新・変更）、d（削除）だけです。
※オークション商品の一括登録では、u（更新・変更）は入力できません。", 【2.用途をお選び下さい】,端午の節句
hs-cv-ps-ll,"コントロールカラム欄に入力可能な文字はn（新規）、u（更新・変更）、d（削除）だけです。
※オークション商品の一括登録では、u（更新・変更）は入力できません。", 【2.用途をお選び下さい】,母の日
hs-cv-ps-ll,"コントロールカラム欄に入力可能な文字はn（新規）、u（更新・変更）、d（削除）だけです。
※オークション商品の一括登録では、u（更新・変更）は入力できません。", 【2.用途をお選び下さい】,父の日
hs-cv-ps-ll,"コントロールカラム欄に入力可能な文字はn（新規）、u（更新・変更）、d（削除）だけです。
※オークション商品の一括登録では、u（更新・変更）は入力できません。", 【2.用途をお選び下さい】,敬老の日
hs-cv-ps-ll,"コントロールカラム欄に入力可能な文字はn（新規）、u（更新・変更）、d（削除）だけです。
※オークション商品の一括登録では、u（更新・変更）は入力できません。", 【3.贈る相手をお選び下さい】,下記よりお選び下さい↓↓
hs-cv-ps-ll,"コントロールカラム欄に入力可能な文字はn（新規）、u（更新・変更）、d（削除）だけです。
※オークション商品の一括登録では、u（更新・変更）は入力できません。", 【3.贈る相手をお選び下さい】,知人
hs-cv-ps-ll,"コントロールカラム欄に入力可能な文字はn（新規）、u（更新・変更）、d（削除）だけです。
※オークション商品の一括登録では、u（更新・変更）は入力できません。", 【3.贈る相手をお選び下さい】,両親
hs-cv-ps-ll,"コントロールカラム欄に入力可能な文字はn（新規）、u（更新・変更）、d（削除）だけです。
※オークション商品の一括登録では、u（更新・変更）は入力できません。", 【3.贈る相手をお選び下さい】,父
hs-cv-ps-ll,"コントロールカラム欄に入力可能な文字はn（新規）、u（更新・変更）、d（削除）だけです。
※オークション商品の一括登録では、u（更新・変更）は入力できません。", 【3.贈る相手をお選び下さい】,母
hs-cv-ps-ll,"コントロールカラム欄に入力可能な文字はn（新規）、u（更新・変更）、d（削除）だけです。
※オークション商品の一括登録では、u（更新・変更）は入力できません。", 【3.贈る相手をお選び下さい】,兄弟
hs-cv-ps-ll,"コントロールカラム欄に入力可能な文字はn（新規）、u（更新・変更）、d（削除）だけです。
※オークション商品の一括登録では、u（更新・変更）は入力できません。", 【3.贈る相手をお選び下さい】,姉妹
hs-cv-ps-ll,"コントロールカラム欄に入力可能な文字はn（新規）、u（更新・変更）、d（削除）だけです。
※オークション商品の一括登録では、u（更新・変更）は入力できません。", 【3.贈る相手をお選び下さい】,親戚
hs-cv-ps-ll,"コントロールカラム欄に入力可能な文字はn（新規）、u（更新・変更）、d（削除）だけです。
※オークション商品の一括登録では、u（更新・変更）は入力できません。", 【3.贈る相手をお選び下さい】,彼氏、夫
hs-cv-ps-ll,"コントロールカラム欄に入力可能な文字はn（新規）、u（更新・変更）、d（削除）だけです。
※オークション商品の一括登録では、u（更新・変更）は入力できません。", 【3.贈る相手をお選び下さい】,彼女、妻
hs-cv-ps-ll,"コントロールカラム欄に入力可能な文字はn（新規）、u（更新・変更）、d（削除）だけです。
※オークション商品の一括登録では、u（更新・変更）は入力できません。", 【3.贈る相手をお選び下さい】,祖父母
hs-cv-ps-ll,"コントロールカラム欄に入力可能な文字はn（新規）、u（更新・変更）、d（削除）だけです。
※オークション商品の一括登録では、u（更新・変更）は入力できません。", 【3.贈る相手をお選び下さい】,祖父
hs-cv-ps-ll,"コントロールカラム欄に入力可能な文字はn（新規）、u（更新・変更）、d（削除）だけです。
※オークション商品の一括登録では、u（更新・変更）は入力できません。", 【3.贈る相手をお選び下さい】,祖母
hs-cv-ps-ll,"コントロールカラム欄に入力可能な文字はn（新規）、u（更新・変更）、d（削除）だけです。
※オークション商品の一括登録では、u（更新・変更）は入力できません。", 【3.贈る相手をお選び下さい】,--------------------------------
hs-cv-ps-ll,"コントロールカラム欄に入力可能な文字はn（新規）、u（更新・変更）、d（削除）だけです。
※オークション商品の一括登録では、u（更新・変更）は入力できません。", 【3.贈る相手をお選び下さい】,上司
hs-cv-ps-ll,"コントロールカラム欄に入力可能な文字はn（新規）、u（更新・変更）、d（削除）だけです。
※オークション商品の一括登録では、u（更新・変更）は入力できません。", 【3.贈る相手をお選び下さい】,同僚
hs-cv-ps-ll,"コントロールカラム欄に入力可能な文字はn（新規）、u（更新・変更）、d（削除）だけです。
※オークション商品の一括登録では、u（更新・変更）は入力できません。", 【3.贈る相手をお選び下さい】,部下
hs-cv-ps-ll,"コントロールカラム欄に入力可能な文字はn（新規）、u（更新・変更）、d（削除）だけです。
※オークション商品の一括登録では、u（更新・変更）は入力できません。", 【3.贈る相手をお選び下さい】,取引先
hs-cv-ps-lm,"コントロールカラム欄に入力可能な文字はn（新規）、u（更新・変更）、d（削除）だけです。
※オークション商品の一括登録では、u（更新・変更）は入力できません。",※お熨斗をご希望の方へ、お客様にご指定いただく熨斗の【表書き】、【種類（蝶結び or 結び切り）】などが適切かどうかの参考にさせていただきますので下記の【1~8】をお選びください。お熨斗のご指定はカート内の備考欄でお願い致します。,了解しました
hs-cv-ps-lm,"コントロールカラム欄に入力可能な文字はn（新規）、u（更新・変更）、d（削除）だけです。
※オークション商品の一括登録では、u（更新・変更）は入力できません。", 【1.購入目的をお選び下さい】,下記よりお選び下さい↓↓
hs-cv-ps-lm,"コントロールカラム欄に入力可能な文字はn（新規）、u（更新・変更）、d（削除）だけです。
※オークション商品の一括登録では、u（更新・変更）は入力できません。", 【1.購入目的をお選び下さい】,自宅用
hs-cv-ps-lm,"コントロールカラム欄に入力可能な文字はn（新規）、u（更新・変更）、d（削除）だけです。
※オークション商品の一括登録では、u（更新・変更）は入力できません。", 【1.購入目的をお選び下さい】,ギフト用
hs-cv-ps-lm,"コントロールカラム欄に入力可能な文字はn（新規）、u（更新・変更）、d（削除）だけです。
※オークション商品の一括登録では、u（更新・変更）は入力できません。", 【1.購入目的をお選び下さい】,ギフト用(海外)
hs-cv-ps-lm,"コントロールカラム欄に入力可能な文字はn（新規）、u（更新・変更）、d（削除）だけです。
※オークション商品の一括登録では、u（更新・変更）は入力できません。", 【2.用途をお選び下さい】,下記よりお選び下さい↓↓
hs-cv-ps-lm,"コントロールカラム欄に入力可能な文字はn（新規）、u（更新・変更）、d（削除）だけです。
※オークション商品の一括登録では、u（更新・変更）は入力できません。", 【2.用途をお選び下さい】,結婚祝い
hs-cv-ps-lm,"コントロールカラム欄に入力可能な文字はn（新規）、u（更新・変更）、d（削除）だけです。
※オークション商品の一括登録では、u（更新・変更）は入力できません。", 【2.用途をお選び下さい】,結婚記念日(銀婚式)
hs-cv-ps-lm,"コントロールカラム欄に入力可能な文字はn（新規）、u（更新・変更）、d（削除）だけです。
※オークション商品の一括登録では、u（更新・変更）は入力できません。", 【2.用途をお選び下さい】,結婚記念日(金婚式)
hs-cv-ps-lm,"コントロールカラム欄に入力可能な文字はn（新規）、u（更新・変更）、d（削除）だけです。
※オークション商品の一括登録では、u（更新・変更）は入力できません。", 【2.用途をお選び下さい】,結婚記念日(その他)
hs-cv-ps-lm,"コントロールカラム欄に入力可能な文字はn（新規）、u（更新・変更）、d（削除）だけです。
※オークション商品の一括登録では、u（更新・変更）は入力できません。", 【2.用途をお選び下さい】,出産祝い
hs-cv-ps-lm,"コントロールカラム欄に入力可能な文字はn（新規）、u（更新・変更）、d（削除）だけです。
※オークション商品の一括登録では、u（更新・変更）は入力できません。", 【2.用途をお選び下さい】,新築祝い
hs-cv-ps-lm,"コントロールカラム欄に入力可能な文字はn（新規）、u（更新・変更）、d（削除）だけです。
※オークション商品の一括登録では、u（更新・変更）は入力できません。", 【2.用途をお選び下さい】,退職祝い
hs-cv-ps-lm,"コントロールカラム欄に入力可能な文字はn（新規）、u（更新・変更）、d（削除）だけです。
※オークション商品の一括登録では、u（更新・変更）は入力できません。", 【2.用途をお選び下さい】,長寿祝い(還暦)
hs-cv-ps-lm,"コントロールカラム欄に入力可能な文字はn（新規）、u（更新・変更）、d（削除）だけです。
※オークション商品の一括登録では、u（更新・変更）は入力できません。", 【2.用途をお選び下さい】,長寿祝い(古希)
hs-cv-ps-lm,"コントロールカラム欄に入力可能な文字はn（新規）、u（更新・変更）、d（削除）だけです。
※オークション商品の一括登録では、u（更新・変更）は入力できません。", 【2.用途をお選び下さい】,長寿祝い(喜寿)
hs-cv-ps-lm,"コントロールカラム欄に入力可能な文字はn（新規）、u（更新・変更）、d（削除）だけです。
※オークション商品の一括登録では、u（更新・変更）は入力できません。", 【2.用途をお選び下さい】,長寿祝い(米寿)
hs-cv-ps-lm,"コントロールカラム欄に入力可能な文字はn（新規）、u（更新・変更）、d（削除）だけです。
※オークション商品の一括登録では、u（更新・変更）は入力できません。", 【2.用途をお選び下さい】,長寿祝い(その他)
hs-cv-ps-lm,"コントロールカラム欄に入力可能な文字はn（新規）、u（更新・変更）、d（削除）だけです。
※オークション商品の一括登録では、u（更新・変更）は入力できません。", 【2.用途をお選び下さい】,内祝(結婚)
hs-cv-ps-lm,"コントロールカラム欄に入力可能な文字はn（新規）、u（更新・変更）、d（削除）だけです。
※オークション商品の一括登録では、u（更新・変更）は入力できません。", 【2.用途をお選び下さい】,内祝(出産)
hs-cv-ps-lm,"コントロールカラム欄に入力可能な文字はn（新規）、u（更新・変更）、d（削除）だけです。
※オークション商品の一括登録では、u（更新・変更）は入力できません。", 【2.用途をお選び下さい】,内祝(新築)
hs-cv-ps-lm,"コントロールカラム欄に入力可能な文字はn（新規）、u（更新・変更）、d（削除）だけです。
※オークション商品の一括登録では、u（更新・変更）は入力できません。", 【2.用途をお選び下さい】,内祝(その他)
hs-cv-ps-lm,"コントロールカラム欄に入力可能な文字はn（新規）、u（更新・変更）、d（削除）だけです。
※オークション商品の一括登録では、u（更新・変更）は入力できません。", 【2.用途をお選び下さい】,--------------------------------
hs-cv-ps-lm,"コントロールカラム欄に入力可能な文字はn（新規）、u（更新・変更）、d（削除）だけです。
※オークション商品の一括登録では、u（更新・変更）は入力できません。", 【2.用途をお選び下さい】,開店開業記念
hs-cv-ps-lm,"コントロールカラム欄に入力可能な文字はn（新規）、u（更新・変更）、d（削除）だけです。
※オークション商品の一括登録では、u（更新・変更）は入力できません。", 【2.用途をお選び下さい】,株式上場記念
hs-cv-ps-lm,"コントロールカラム欄に入力可能な文字はn（新規）、u（更新・変更）、d（削除）だけです。
※オークション商品の一括登録では、u（更新・変更）は入力できません。", 【2.用途をお選び下さい】,社内褒章
hs-cv-ps-lm,"コントロールカラム欄に入力可能な文字はn（新規）、u（更新・変更）、d（削除）だけです。
※オークション商品の一括登録では、u（更新・変更）は入力できません。", 【2.用途をお選び下さい】,創業創立記念
hs-cv-ps-lm,"コントロールカラム欄に入力可能な文字はn（新規）、u（更新・変更）、d（削除）だけです。
※オークション商品の一括登録では、u（更新・変更）は入力できません。", 【2.用途をお選び下さい】,周年記念
hs-cv-ps-lm,"コントロールカラム欄に入力可能な文字はn（新規）、u（更新・変更）、d（削除）だけです。
※オークション商品の一括登録では、u（更新・変更）は入力できません。", 【2.用途をお選び下さい】,その他法人ギフト
hs-cv-ps-lm,"コントロールカラム欄に入力可能な文字はn（新規）、u（更新・変更）、d（削除）だけです。
※オークション商品の一括登録では、u（更新・変更）は入力できません。", 【2.用途をお選び下さい】,-------------------------------
hs-cv-ps-lm,"コントロールカラム欄に入力可能な文字はn（新規）、u（更新・変更）、d（削除）だけです。
※オークション商品の一括登録では、u（更新・変更）は入力できません。", 【2.用途をお選び下さい】,初任給
hs-cv-ps-lm,"コントロールカラム欄に入力可能な文字はn（新規）、u（更新・変更）、d（削除）だけです。
※オークション商品の一括登録では、u（更新・変更）は入力できません。", 【2.用途をお選び下さい】,端午の節句
hs-cv-ps-lm,"コントロールカラム欄に入力可能な文字はn（新規）、u（更新・変更）、d（削除）だけです。
※オークション商品の一括登録では、u（更新・変更）は入力できません。", 【2.用途をお選び下さい】,母の日
hs-cv-ps-lm,"コントロールカラム欄に入力可能な文字はn（新規）、u（更新・変更）、d（削除）だけです。
※オークション商品の一括登録では、u（更新・変更）は入力できません。", 【2.用途をお選び下さい】,父の日
hs-cv-ps-lm,"コントロールカラム欄に入力可能な文字はn（新規）、u（更新・変更）、d（削除）だけです。
※オークション商品の一括登録では、u（更新・変更）は入力できません。", 【2.用途をお選び下さい】,敬老の日
hs-cv-ps-lm,"コントロールカラム欄に入力可能な文字はn（新規）、u（更新・変更）、d（削除）だけです。
※オークション商品の一括登録では、u（更新・変更）は入力できません。", 【3.贈る相手をお選び下さい】,下記よりお選び下さい↓↓
hs-cv-ps-lm,"コントロールカラム欄に入力可能な文字はn（新規）、u（更新・変更）、d（削除）だけです。
※オークション商品の一括登録では、u（更新・変更）は入力できません。", 【3.贈る相手をお選び下さい】,知人
hs-cv-ps-lm,"コントロールカラム欄に入力可能な文字はn（新規）、u（更新・変更）、d（削除）だけです。
※オークション商品の一括登録では、u（更新・変更）は入力できません。", 【3.贈る相手をお選び下さい】,両親
hs-cv-ps-lm,"コントロールカラム欄に入力可能な文字はn（新規）、u（更新・変更）、d（削除）だけです。
※オークション商品の一括登録では、u（更新・変更）は入力できません。", 【3.贈る相手をお選び下さい】,父
hs-cv-ps-lm,"コントロールカラム欄に入力可能な文字はn（新規）、u（更新・変更）、d（削除）だけです。
※オークション商品の一括登録では、u（更新・変更）は入力できません。", 【3.贈る相手をお選び下さい】,母
hs-cv-ps-lm,"コントロールカラム欄に入力可能な文字はn（新規）、u（更新・変更）、d（削除）だけです。
※オークション商品の一括登録では、u（更新・変更）は入力できません。", 【3.贈る相手をお選び下さい】,兄弟
hs-cv-ps-lm,"コントロールカラム欄に入力可能な文字はn（新規）、u（更新・変更）、d（削除）だけです。
※オークション商品の一括登録では、u（更新・変更）は入力できません。", 【3.贈る相手をお選び下さい】,姉妹
hs-cv-ps-lm,"コントロールカラム欄に入力可能な文字はn（新規）、u（更新・変更）、d（削除）だけです。
※オークション商品の一括登録では、u（更新・変更）は入力できません。", 【3.贈る相手をお選び下さい】,親戚
hs-cv-ps-lm,"コントロールカラム欄に入力可能な文字はn（新規）、u（更新・変更）、d（削除）だけです。
※オークション商品の一括登録では、u（更新・変更）は入力できません。", 【3.贈る相手をお選び下さい】,彼氏、夫
hs-cv-ps-lm,"コントロールカラム欄に入力可能な文字はn（新規）、u（更新・変更）、d（削除）だけです。
※オークション商品の一括登録では、u（更新・変更）は入力できません。", 【3.贈る相手をお選び下さい】,彼女、妻
hs-cv-ps-lm,"コントロールカラム欄に入力可能な文字はn（新規）、u（更新・変更）、d（削除）だけです。
※オークション商品の一括登録では、u（更新・変更）は入力できません。", 【3.贈る相手をお選び下さい】,祖父母
hs-cv-ps-lm,"コントロールカラム欄に入力可能な文字はn（新規）、u（更新・変更）、d（削除）だけです。
※オークション商品の一括登録では、u（更新・変更）は入力できません。", 【3.贈る相手をお選び下さい】,祖父
hs-cv-ps-lm,"コントロールカラム欄に入力可能な文字はn（新規）、u（更新・変更）、d（削除）だけです。
※オークション商品の一括登録では、u（更新・変更）は入力できません。", 【3.贈る相手をお選び下さい】,祖母
hs-cv-ps-lm,"コントロールカラム欄に入力可能な文字はn（新規）、u（更新・変更）、d（削除）だけです。
※オークション商品の一括登録では、u（更新・変更）は入力できません。", 【3.贈る相手をお選び下さい】,--------------------------------
hs-cv-ps-lm,"コントロールカラム欄に入力可能な文字はn（新規）、u（更新・変更）、d（削除）だけです。
※オークション商品の一括登録では、u（更新・変更）は入力できません。", 【3.贈る相手をお選び下さい】,上司
hs-cv-ps-lm,"コントロールカラム欄に入力可能な文字はn（新規）、u（更新・変更）、d（削除）だけです。
※オークション商品の一括登録では、u（更新・変更）は入力できません。", 【3.贈る相手をお選び下さい】,同僚
hs-cv-ps-lm,"コントロールカラム欄に入力可能な文字はn（新規）、u（更新・変更）、d（削除）だけです。
※オークション商品の一括登録では、u（更新・変更）は入力できません。", 【3.贈る相手をお選び下さい】,部下
hs-cv-ps-lm,"コントロールカラム欄に入力可能な文字はn（新規）、u（更新・変更）、d（削除）だけです。
※オークション商品の一括登録では、u（更新・変更）は入力できません。", 【3.贈る相手をお選び下さい】,取引先
hs-cv-ps-ls,"コントロールカラム欄に入力可能な文字はn（新規）、u（更新・変更）、d（削除）だけです。
※オークション商品の一括登録では、u（更新・変更）は入力できません。",※お熨斗をご希望の方へ、お客様にご指定いただく熨斗の【表書き】、【種類（蝶結び or 結び切り）】などが適切かどうかの参考にさせていただきますので下記の【1~9】をお選びください。お熨斗のご指定はカート内の備考欄でお願い致します。,了解しました
hs-cv-ps-ls,"コントロールカラム欄に入力可能な文字はn（新規）、u（更新・変更）、d（削除）だけです。
※オークション商品の一括登録では、u（更新・変更）は入力できません。", 【1.購入目的をお選び下さい】,下記よりお選び下さい↓↓
hs-cv-ps-ls,"コントロールカラム欄に入力可能な文字はn（新規）、u（更新・変更）、d（削除）だけです。
※オークション商品の一括登録では、u（更新・変更）は入力できません。", 【1.購入目的をお選び下さい】,自宅用
hs-cv-ps-ls,"コントロールカラム欄に入力可能な文字はn（新規）、u（更新・変更）、d（削除）だけです。
※オークション商品の一括登録では、u（更新・変更）は入力できません。", 【1.購入目的をお選び下さい】,ギフト用
hs-cv-ps-ls,"コントロールカラム欄に入力可能な文字はn（新規）、u（更新・変更）、d（削除）だけです。
※オークション商品の一括登録では、u（更新・変更）は入力できません。", 【1.購入目的をお選び下さい】,ギフト用(海外)
hs-cv-ps-ls,"コントロールカラム欄に入力可能な文字はn（新規）、u（更新・変更）、d（削除）だけです。
※オークション商品の一括登録では、u（更新・変更）は入力できません。", 【2.用途をお選び下さい】,下記よりお選び下さい↓↓
hs-cv-ps-ls,"コントロールカラム欄に入力可能な文字はn（新規）、u（更新・変更）、d（削除）だけです。
※オークション商品の一括登録では、u（更新・変更）は入力できません。", 【2.用途をお選び下さい】,結婚祝い
hs-cv-ps-ls,"コントロールカラム欄に入力可能な文字はn（新規）、u（更新・変更）、d（削除）だけです。
※オークション商品の一括登録では、u（更新・変更）は入力できません。", 【2.用途をお選び下さい】,結婚記念日(銀婚式)
hs-cv-ps-ls,"コントロールカラム欄に入力可能な文字はn（新規）、u（更新・変更）、d（削除）だけです。
※オークション商品の一括登録では、u（更新・変更）は入力できません。", 【2.用途をお選び下さい】,結婚記念日(金婚式)
hs-cv-ps-ls,"コントロールカラム欄に入力可能な文字はn（新規）、u（更新・変更）、d（削除）だけです。
※オークション商品の一括登録では、u（更新・変更）は入力できません。", 【2.用途をお選び下さい】,結婚記念日(その他)
hs-cv-ps-ls,"コントロールカラム欄に入力可能な文字はn（新規）、u（更新・変更）、d（削除）だけです。
※オークション商品の一括登録では、u（更新・変更）は入力できません。", 【2.用途をお選び下さい】,出産祝い
hs-cv-ps-ls,"コントロールカラム欄に入力可能な文字はn（新規）、u（更新・変更）、d（削除）だけです。
※オークション商品の一括登録では、u（更新・変更）は入力できません。", 【2.用途をお選び下さい】,新築祝い
hs-cv-ps-ls,"コントロールカラム欄に入力可能な文字はn（新規）、u（更新・変更）、d（削除）だけです。
※オークション商品の一括登録では、u（更新・変更）は入力できません。", 【2.用途をお選び下さい】,退職祝い
hs-cv-ps-ls,"コントロールカラム欄に入力可能な文字はn（新規）、u（更新・変更）、d（削除）だけです。
※オークション商品の一括登録では、u（更新・変更）は入力できません。", 【2.用途をお選び下さい】,長寿祝い(還暦)
hs-cv-ps-ls,"コントロールカラム欄に入力可能な文字はn（新規）、u（更新・変更）、d（削除）だけです。
※オークション商品の一括登録では、u（更新・変更）は入力できません。", 【2.用途をお選び下さい】,長寿祝い(古希)
hs-cv-ps-ls,"コントロールカラム欄に入力可能な文字はn（新規）、u（更新・変更）、d（削除）だけです。
※オークション商品の一括登録では、u（更新・変更）は入力できません。", 【2.用途をお選び下さい】,長寿祝い(喜寿)
hs-cv-ps-ls,"コントロールカラム欄に入力可能な文字はn（新規）、u（更新・変更）、d（削除）だけです。
※オークション商品の一括登録では、u（更新・変更）は入力できません。", 【2.用途をお選び下さい】,長寿祝い(米寿)
hs-cv-ps-ls,"コントロールカラム欄に入力可能な文字はn（新規）、u（更新・変更）、d（削除）だけです。
※オークション商品の一括登録では、u（更新・変更）は入力できません。", 【2.用途をお選び下さい】,長寿祝い(その他)
hs-cv-ps-ls,"コントロールカラム欄に入力可能な文字はn（新規）、u（更新・変更）、d（削除）だけです。
※オークション商品の一括登録では、u（更新・変更）は入力できません。", 【2.用途をお選び下さい】,内祝(結婚)
hs-cv-ps-ls,"コントロールカラム欄に入力可能な文字はn（新規）、u（更新・変更）、d（削除）だけです。
※オークション商品の一括登録では、u（更新・変更）は入力できません。", 【2.用途をお選び下さい】,内祝(出産)
hs-cv-ps-ls,"コントロールカラム欄に入力可能な文字はn（新規）、u（更新・変更）、d（削除）だけです。
※オークション商品の一括登録では、u（更新・変更）は入力できません。", 【2.用途をお選び下さい】,内祝(新築)
hs-cv-ps-ls,"コントロールカラム欄に入力可能な文字はn（新規）、u（更新・変更）、d（削除）だけです。
※オークション商品の一括登録では、u（更新・変更）は入力できません。", 【2.用途をお選び下さい】,内祝(その他)
hs-cv-ps-ls,"コントロールカラム欄に入力可能な文字はn（新規）、u（更新・変更）、d（削除）だけです。
※オークション商品の一括登録では、u（更新・変更）は入力できません。", 【2.用途をお選び下さい】,--------------------------------
hs-cv-ps-ls,"コントロールカラム欄に入力可能な文字はn（新規）、u（更新・変更）、d（削除）だけです。
※オークション商品の一括登録では、u（更新・変更）は入力できません。", 【2.用途をお選び下さい】,開店開業記念
hs-cv-ps-ls,"コントロールカラム欄に入力可能な文字はn（新規）、u（更新・変更）、d（削除）だけです。
※オークション商品の一括登録では、u（更新・変更）は入力できません。", 【2.用途をお選び下さい】,株式上場記念
hs-cv-ps-ls,"コントロールカラム欄に入力可能な文字はn（新規）、u（更新・変更）、d（削除）だけです。
※オークション商品の一括登録では、u（更新・変更）は入力できません。", 【2.用途をお選び下さい】,社内褒章
hs-cv-ps-ls,"コントロールカラム欄に入力可能な文字はn（新規）、u（更新・変更）、d（削除）だけです。
※オークション商品の一括登録では、u（更新・変更）は入力できません。", 【2.用途をお選び下さい】,創業創立記念
hs-cv-ps-ls,"コントロールカラム欄に入力可能な文字はn（新規）、u（更新・変更）、d（削除）だけです。
※オークション商品の一括登録では、u（更新・変更）は入力できません。", 【2.用途をお選び下さい】,周年記念
hs-cv-ps-ls,"コントロールカラム欄に入力可能な文字はn（新規）、u（更新・変更）、d（削除）だけです。
※オークション商品の一括登録では、u（更新・変更）は入力できません。", 【2.用途をお選び下さい】,その他法人ギフト
hs-cv-ps-ls,"コントロールカラム欄に入力可能な文字はn（新規）、u（更新・変更）、d（削除）だけです。
※オークション商品の一括登録では、u（更新・変更）は入力できません。", 【2.用途をお選び下さい】,-------------------------------
hs-cv-ps-ls,"コントロールカラム欄に入力可能な文字はn（新規）、u（更新・変更）、d（削除）だけです。
※オークション商品の一括登録では、u（更新・変更）は入力できません。", 【2.用途をお選び下さい】,初任給
hs-cv-ps-ls,"コントロールカラム欄に入力可能な文字はn（新規）、u（更新・変更）、d（削除）だけです。
※オークション商品の一括登録では、u（更新・変更）は入力できません。", 【2.用途をお選び下さい】,端午の節句
hs-cv-ps-ls,"コントロールカラム欄に入力可能な文字はn（新規）、u（更新・変更）、d（削除）だけです。
※オークション商品の一括登録では、u（更新・変更）は入力できません。", 【2.用途をお選び下さい】,母の日
hs-cv-ps-ls,"コントロールカラム欄に入力可能な文字はn（新規）、u（更新・変更）、d（削除）だけです。
※オークション商品の一括登録では、u（更新・変更）は入力できません。", 【2.用途をお選び下さい】,父の日
hs-cv-ps-ls,"コントロールカラム欄に入力可能な文字はn（新規）、u（更新・変更）、d（削除）だけです。
※オークション商品の一括登録では、u（更新・変更）は入力できません。", 【2.用途をお選び下さい】,敬老の日
hs-cv-ps-ls,"コントロールカラム欄に入力可能な文字はn（新規）、u（更新・変更）、d（削除）だけです。
※オークション商品の一括登録では、u（更新・変更）は入力できません。", 【3.贈る相手をお選び下さい】,下記よりお選び下さい↓↓
hs-cv-ps-ls,"コントロールカラム欄に入力可能な文字はn（新規）、u（更新・変更）、d（削除）だけです。
※オークション商品の一括登録では、u（更新・変更）は入力できません。", 【3.贈る相手をお選び下さい】,知人
hs-cv-ps-ls,"コントロールカラム欄に入力可能な文字はn（新規）、u（更新・変更）、d（削除）だけです。
※オークション商品の一括登録では、u（更新・変更）は入力できません。", 【3.贈る相手をお選び下さい】,両親
hs-cv-ps-ls,"コントロールカラム欄に入力可能な文字はn（新規）、u（更新・変更）、d（削除）だけです。
※オークション商品の一括登録では、u（更新・変更）は入力できません。", 【3.贈る相手をお選び下さい】,父
hs-cv-ps-ls,"コントロールカラム欄に入力可能な文字はn（新規）、u（更新・変更）、d（削除）だけです。
※オークション商品の一括登録では、u（更新・変更）は入力できません。", 【3.贈る相手をお選び下さい】,母
hs-cv-ps-ls,"コントロールカラム欄に入力可能な文字はn（新規）、u（更新・変更）、d（削除）だけです。
※オークション商品の一括登録では、u（更新・変更）は入力できません。", 【3.贈る相手をお選び下さい】,兄弟
hs-cv-ps-ls,"コントロールカラム欄に入力可能な文字はn（新規）、u（更新・変更）、d（削除）だけです。
※オークション商品の一括登録では、u（更新・変更）は入力できません。", 【3.贈る相手をお選び下さい】,姉妹
hs-cv-ps-ls,"コントロールカラム欄に入力可能な文字はn（新規）、u（更新・変更）、d（削除）だけです。
※オークション商品の一括登録では、u（更新・変更）は入力できません。", 【3.贈る相手をお選び下さい】,親戚
hs-cv-ps-ls,"コントロールカラム欄に入力可能な文字はn（新規）、u（更新・変更）、d（削除）だけです。
※オークション商品の一括登録では、u（更新・変更）は入力できません。", 【3.贈る相手をお選び下さい】,彼氏、夫
hs-cv-ps-ls,"コントロールカラム欄に入力可能な文字はn（新規）、u（更新・変更）、d（削除）だけです。
※オークション商品の一括登録では、u（更新・変更）は入力できません。", 【3.贈る相手をお選び下さい】,彼女、妻
hs-cv-ps-ls,"コントロールカラム欄に入力可能な文字はn（新規）、u（更新・変更）、d（削除）だけです。
※オークション商品の一括登録では、u（更新・変更）は入力できません。", 【3.贈る相手をお選び下さい】,祖父母
hs-cv-ps-ls,"コントロールカラム欄に入力可能な文字はn（新規）、u（更新・変更）、d（削除）だけです。
※オークション商品の一括登録では、u（更新・変更）は入力できません。", 【3.贈る相手をお選び下さい】,祖父
hs-cv-ps-ls,"コントロールカラム欄に入力可能な文字はn（新規）、u（更新・変更）、d（削除）だけです。
※オークション商品の一括登録では、u（更新・変更）は入力できません。", 【3.贈る相手をお選び下さい】,祖母
hs-cv-ps-ls,"コントロールカラム欄に入力可能な文字はn（新規）、u（更新・変更）、d（削除）だけです。
※オークション商品の一括登録では、u（更新・変更）は入力できません。", 【3.贈る相手をお選び下さい】,--------------------------------
hs-cv-ps-ls,"コントロールカラム欄に入力可能な文字はn（新規）、u（更新・変更）、d（削除）だけです。
※オークション商品の一括登録では、u（更新・変更）は入力できません。", 【3.贈る相手をお選び下さい】,上司
hs-cv-ps-ls,"コントロールカラム欄に入力可能な文字はn（新規）、u（更新・変更）、d（削除）だけです。
※オークション商品の一括登録では、u（更新・変更）は入力できません。", 【3.贈る相手をお選び下さい】,同僚
hs-cv-ps-ls,"コントロールカラム欄に入力可能な文字はn（新規）、u（更新・変更）、d（削除）だけです。
※オークション商品の一括登録では、u（更新・変更）は入力できません。", 【3.贈る相手をお選び下さい】,部下
hs-cv-ps-ls,"コントロールカラム欄に入力可能な文字はn（新規）、u（更新・変更）、d（削除）だけです。
※オークション商品の一括登録では、u（更新・変更）は入力できません。", 【3.贈る相手をお選び下さい】,取引先
