k-1-1658,Select/Checkbox用選択肢が長すぎます。最大で32byteまでです。,【お子様の名入れサービス】,"木札【中】を希望する(+税抜1,500円)"
k-1-1665,Select/Checkbox用選択肢が長すぎます。最大で32byteまでです。,【お子様の名入れサービス】,"木札【中】を希望する(+税抜1,500円)"
k-1-1666,Select/Checkbox用選択肢が長すぎます。最大で32byteまでです。,【お子様の名入れサービス】,"木札【中】を希望する(+税抜1,500円)"
k-1-1669,Select/Checkbox用選択肢欄に既に登録されているものがあります。同じ選択肢名は登録できません。,【お子様の名入れサービス】,"木札【大】を希望(+税抜2,000円)"
k-1-3184,Select/Checkbox用選択肢欄に既に登録されているものがあります。同じ選択肢名は登録できません。,【お子様の名入れサービス】,"木札【大】を希望(+税抜2,000円)"
k-2-1805,Select/Checkbox用選択肢が長すぎます。最大で32byteまでです。,【お子様の名入れサービス】,"木札【中】を希望する(+税抜1,500円)"
k-2-1806,Select/Checkbox用選択肢が長すぎます。最大で32byteまでです。,【お子様の名入れサービス】,"木札【中】を希望する(+税抜1,500円)"
k-2-1807,Select/Checkbox用選択肢が長すぎます。最大で32byteまでです。,【お子様の名入れサービス】,"木札【中】を希望する(+税抜1,500円)"
k-2-1809,Select/Checkbox用選択肢が長すぎます。最大で32byteまでです。,【お子様の名入れサービス】,"木札【中】を希望する(+税抜1,500円)"
k-2-1810,Select/Checkbox用選択肢が長すぎます。最大で32byteまでです。,【お子様の名入れサービス】,"木札【中】を希望する(+税抜1,500円)"
k-2-1811,Select/Checkbox用選択肢が長すぎます。最大で32byteまでです。,【お子様の名入れサービス】,"木札【中】を希望する(+税抜1,500円)"
k-2-1812,Select/Checkbox用選択肢が長すぎます。最大で32byteまでです。,【お子様の名入れサービス】,"木札【中】を希望する(+税抜1,500円)"
k-2-1814,Select/Checkbox用選択肢が長すぎます。最大で32byteまでです。,【お子様の名入れサービス】,"木札【中】を希望する(+税抜1,500円)"
k-2-1816,Select/Checkbox用選択肢が長すぎます。最大で32byteまでです。,【お子様の名入れサービス】,"木札【中】を希望する(+税抜1,500円)"
k-2-1817,Select/Checkbox用選択肢欄に既に登録されているものがあります。同じ選択肢名は登録できません。,【お子様の名入れサービス】,"木札【大】を希望(+税抜2,000円)"
k-2-1818,Select/Checkbox用選択肢欄に既に登録されているものがあります。同じ選択肢名は登録できません。,【お子様の名入れサービス】,"木札【大】を希望(+税抜2,000円)"
k-2-1820,Select/Checkbox用選択肢欄に既に登録されているものがあります。同じ選択肢名は登録できません。,【お子様の名入れサービス】,"木札【大】を希望(+税抜2,000円)"
k-2-3123,Select/Checkbox用選択肢欄に既に登録されているものがあります。同じ選択肢名は登録できません。,【お子様の名入れサービス】,"木札【大】を希望(+税抜2,000円)"
k-3-1845,Select/Checkbox用選択肢が長すぎます。最大で32byteまでです。,【お子様の名入れサービス】,"木札【中】を希望する(+税抜1,500円)"
k-3-1846,Select/Checkbox用選択肢が長すぎます。最大で32byteまでです。,【お子様の名入れサービス】,"木札【中】を希望する(+税抜1,500円)"
k-3-1848,Select/Checkbox用選択肢が長すぎます。最大で32byteまでです。,【お子様の名入れサービス】,"木札【中】を希望する(+税抜1,500円)"
k-3-1849,Select/Checkbox用選択肢が長すぎます。最大で32byteまでです。,【お子様の名入れサービス】,"木札【中】を希望する(+税抜1,500円)"
k-3-1850,Select/Checkbox用選択肢が長すぎます。最大で32byteまでです。,【お子様の名入れサービス】,"木札【中】を希望する(+税抜1,500円)"
k-3-1851,Select/Checkbox用選択肢が長すぎます。最大で32byteまでです。,【お子様の名入れサービス】,"木札【中】を希望する(+税抜1,500円)"
k-3-1856,Select/Checkbox用選択肢欄に既に登録されているものがあります。同じ選択肢名は登録できません。,【お子様の名入れサービス】,"木札【大】を希望(+税抜2,000円)"
k-3-1857,Select/Checkbox用選択肢が長すぎます。最大で32byteまでです。,【お子様の名入れサービス】,"木札【中】を希望する(+税抜1,500円)"
k-3-1858,Select/Checkbox用選択肢欄に既に登録されているものがあります。同じ選択肢名は登録できません。,【お子様の名入れサービス】,"木札【大】を希望(+税抜2,000円)"
k-3-1859,Select/Checkbox用選択肢欄に既に登録されているものがあります。同じ選択肢名は登録できません。,【お子様の名入れサービス】,"木札【大】を希望(+税抜2,000円)"
k-3-1860,Select/Checkbox用選択肢欄に既に登録されているものがあります。同じ選択肢名は登録できません。,【お子様の名入れサービス】,"木札【大】を希望(+税抜2,000円)"
k-3-1861,Select/Checkbox用選択肢欄に既に登録されているものがあります。同じ選択肢名は登録できません。,【お子様の名入れサービス】,"木札【大】を希望(+税抜2,000円)"
sd-05,Select/Checkbox用選択肢が長すぎます。最大で32byteまでです。,【お子様の名入れサービス】,"木札【中】を希望する(+税抜1,500円)"
sd-07,Select/Checkbox用選択肢が長すぎます。最大で32byteまでです。,【お子様の名入れサービス】,"木札【中】を希望する(+税抜1,500円)"
sd-08,Select/Checkbox用選択肢が長すぎます。最大で32byteまでです。,【お子様の名入れサービス】,"木札【中】を希望する(+税抜1,500円)"
sd-09,Select/Checkbox用選択肢が長すぎます。最大で32byteまでです。,【お子様の名入れサービス】,"木札【中】を希望する(+税抜1,500円)"
sd-10,Select/Checkbox用選択肢が長すぎます。最大で32byteまでです。,【お子様の名入れサービス】,"木札【中】を希望する(+税抜1,500円)"
sd-12,Select/Checkbox用選択肢が長すぎます。最大で32byteまでです。,【お子様の名入れサービス】,"木札【中】を希望する(+税抜1,500円)"
sd-14,Select/Checkbox用選択肢が長すぎます。最大で32byteまでです。,【お子様の名入れサービス】,"木札【中】を希望する(+税抜1,500円)"
sd-15,Select/Checkbox用選択肢が長すぎます。最大で32byteまでです。,【お子様の名入れサービス】,"木札【中】を希望する(+税抜1,500円)"
sd-16,Select/Checkbox用選択肢が長すぎます。最大で32byteまでです。,【お子様の名入れサービス】,"木札【中】を希望する(+税抜1,500円)"
sd-18,Select/Checkbox用選択肢が長すぎます。最大で32byteまでです。,【お子様の名入れサービス】,"木札【中】を希望する(+税抜1,500円)"
sd-20,Select/Checkbox用選択肢欄に既に登録されているものがあります。同じ選択肢名は登録できません。,【お子様の名入れサービス】,"木札【大】を希望(+税抜2,000円)"
