"コントロールカラム","商品管理番号（商品URL）","商品名","表示先カテゴリ","優先度","URL","1ページ複数形式"
"n","ymm0645","雑煮椀 うさぎ唐草 黒内朱 総朱 ペア","メニュー\予算で選ぶ\3,001円~5,000円","3","https://item.rakuten.co.jp/dentouhonpo/c/0000001096/",""
"n","ymm0645","雑煮椀 うさぎ唐草 黒内朱 総朱 ペア","メニュー\食卓で使う\食べる\汁椀・吸物椀","3","https://item.rakuten.co.jp/dentouhonpo/c/0000000969/",""
"n","ymm0645","雑煮椀 うさぎ唐草 黒内朱 総朱 ペア","メニュー\産地で選ぶ\石川県\山中漆器","3","https://item.rakuten.co.jp/dentouhonpo/c/0000000920/",""
"n","ymm0645","雑煮椀 うさぎ唐草 黒内朱 総朱 ペア","メニュー\祝う\祝い事\結婚祝い","3","https://item.rakuten.co.jp/dentouhonpo/c/0000000757/",""
"n","ymm0645","雑煮椀 うさぎ唐草 黒内朱 総朱 ペア","メニュー\祝う\祝い事\内祝い\その他内祝い","3","https://item.rakuten.co.jp/dentouhonpo/c/0000001093/",""
