path,name,code,sub-code,original-price,price,sale-price,options,headline,caption,abstract,explanation,additional1,additional2,additional3,relevant-links,ship-weight,taxable,release-date,temporary-point-term,point-code,meta-key,meta-desc,template,sale-period-start,sale-period-end,sale-limit,sp-code,pr-rate,brand-code,person-code,yahoo-product-code,product-code,jan,isbn,delivery,astk-code,condition,taojapan,product-category,spec1,spec2,spec3,spec4,spec5,spec6,spec7,spec8,spec9,spec10,display,sort,sp-additional,sort_priority,original-price-evidence,lead-time-instock,lead-time-outstock
"メニュー:予算で選ぶ:0円~3,000円
メニュー:食卓で使う:食べる:中皿
メニュー:産地で選ぶ:佐賀県:有田焼:1616 arita japan
メニュー:祝う:祝い事:結婚祝い
メニュー:祝う:祝い事:引き出物",「有田焼 1616 arita japan」 TY Palace(パレス) 160mm 1枚 化粧箱入り ( 中皿  磁器 セット おつまみ 料理 和食 洋食 和食器 ),504220069,,,1868,,,誕生日プレゼント 還暦祝い 古希 喜寿 米寿,"<iframe src=""https://shopping.geocities.jp/dentouhonpo/item/504220069.html"" width=""840"" height=""10200"" frameborder=""0"" scrolling=""no""></iframe>","<iframe src=""http://shopping.geocities.jp/args/ps/argonauts_ps.html?param=&wlist=&p=1&sh=&yjc=&pr=&free=&fp=&fcc="" style=""width:100%; height:240px;"" frameborder=""0"" scrolling=""no"" data-trackingid=""2wmOdAWdT8""></iframe>","商品名 : TY Palace(パレス) 160mm 1枚 化粧箱入り /■ブランド : 1616 arita japan / 有田焼 (佐賀県) /■カテゴリ: 中皿 和食器 /■素材: 磁器 /■用途: 慶事 : 結婚祝い 結婚式 引き出物 引出物 新築祝い 引越し 定年 退職祝い 昇進祝い 快気祝い 父の日 母の日 敬老の日 誕生日 就職祝い 結婚内祝い 出産内祝い 新築内祝い 還暦祝い 古稀 古希祝い 喜寿 傘寿 米寿 卒寿 長寿祝い 金婚式 銀婚式 結婚記念日 初節句 入学祝い 子供 赤ちゃん の プレゼント , 法人ギフト 上場祝い 竣工祝い 周年 会社設立 事務所移転 開業 開店祝い 永年勤続 就任 記念品 弔辞 : 法事 志 法要 香典 お香典返し 父 母 両親 従兄弟 親戚 上司 部下 社長 海外 取引先 男性 女性 男の子 女の子 プレゼント ギフト お礼 御礼 お祝い 御祝い 贈り物 お返し おかえし お祝い返し お見舞い返し ご挨拶 お土産 記念品 贈答品 景品 名入れ /■関連ワード: 日本製 おすすめ おしゃれ かわいい 可愛い 人気 ペア セット 送料無料 即日発送 通販 販売",,"<iframe src=""http://shopping.geocities.jp/dentouhonpo/common/service.html"" class=""ifsr"" frameborder=""0""></iframe><iframe src=""http://shopping.geocities.jp/dev-ogaria/dentouhonpo/waigaya/top.html"" scrolling=""no"" frameborder=""0"" marginheight=""0"" marginwidth=""0"" width=""800px"" height=""500px"" vspace=""0"" hspace=""0""></iframe>",,messagecard gift-paperbag,0,1,,,,"有田焼,1616 arita japan,中皿,セット,おつまみ,料理,和食,洋食",有田焼 1616 arita japan 「TY Palace(パレス) 160mm 1枚 化粧箱入り」なら伝統工芸品専門店【伝統本舗】。92.6%の満足度で安心してご利用いただけます。,IT04,,,,,,,,,,,,0,1,0,1,43283,,,,,,,,,,,1,,"<table width=""100%"" cellpadding=""4"" cellspacing=""0""><tr><td colspan=""3"" width=""100%""><img src=""http://shopping.geocities.jp/dentouhonpo/item/img/sp_504220069_01.jpg"" alt="""" width=""100%"" /></td></tr></table><br><br><table width=""100%"" cellpadding=""10"" bgcolor=""#f2f1ef""><tr><td><img src=""http://shopping.geocities.jp/dentouhonpo/info/img/sr_maintitle_sp.png"" width=""100%""></td></tr><tr><td><a href=""http://shopping.geocities.jp/dentouhonpo/info/giftservice.html""><img src=""http://shopping.geocities.jp/dentouhonpo/info/img/sr_links_wrap.png"" width=""100%""></a></td></tr><tr><td><a href=""http://shopping.geocities.jp/dentouhonpo/info/giftservice.html#paperbag""><img src=""http://shopping.geocities.jp/dentouhonpo/info/img/sr_links_paperbag.png"" width=""100%""></a></td></tr><tr><td><a href=""http://shopping.geocities.jp/dentouhonpo/info/ns.html""><img src=""http://shopping.geocities.jp/dentouhonpo/info/img/sr_links_noshi.png"" width=""100%""></a></td></tr><tr><td><a href=""http://shopping.geocities.jp/dentouhonpo/info/oversea.html""><img src=""http://shopping.geocities.jp/dentouhonpo/info/img/sr_links_oversea.png"" width=""100%""></a></td></tr></table><br><table width=""100%"" cellpadding=""4"" cellspacing=""0""><tr><td colspan=""3"" width=""100%""><a href=""http://shopping.geocities.jp/dentouhonpo/info/improve.html""><img src=""http://shopping.c.yimg.jp/lib/dentouhonpo/sp_bnr_improve.jpg"" width=""100%"" /></a><br><br></td></tr></table>",1000,,1000,16
"メニュー:予算で選ぶ:0円~3,000円
メニュー:食卓で使う:食べる:中皿
メニュー:産地で選ぶ:佐賀県:有田焼:1616 arita japan
メニュー:祝う:祝い事:結婚祝い
メニュー:祝う:祝い事:引き出物",「有田焼 1616 arita japan」 TY Palace(パレス) 220mm 1枚 化粧箱入り ( 中皿  磁器 セット おつまみ 料理 和食 洋食 和食器 ),504220070,,,2970,,,誕生日プレゼント 還暦祝い 古希 喜寿 米寿,"<iframe src=""https://shopping.geocities.jp/dentouhonpo/item/504220070.html"" width=""840"" height=""10200"" frameborder=""0"" scrolling=""no""></iframe>","<iframe src=""http://shopping.geocities.jp/args/ps/argonauts_ps.html?param=&wlist=&p=1&sh=&yjc=&pr=&free=&fp=&fcc="" style=""width:100%; height:240px;"" frameborder=""0"" scrolling=""no"" data-trackingid=""2wmOdAWdT8""></iframe>","商品名 : TY Palace(パレス) 220mm 1枚 化粧箱入り /■ブランド : 1616 arita japan / 有田焼 (佐賀県) /■カテゴリ: 中皿 和食器 /■素材: 磁器 /■用途: 慶事 : 結婚祝い 結婚式 引き出物 引出物 新築祝い 引越し 定年 退職祝い 昇進祝い 快気祝い 父の日 母の日 敬老の日 誕生日 就職祝い 結婚内祝い 出産内祝い 新築内祝い 還暦祝い 古稀 古希祝い 喜寿 傘寿 米寿 卒寿 長寿祝い 金婚式 銀婚式 結婚記念日 初節句 入学祝い 子供 赤ちゃん の プレゼント , 法人ギフト 上場祝い 竣工祝い 周年 会社設立 事務所移転 開業 開店祝い 永年勤続 就任 記念品 弔辞 : 法事 志 法要 香典 お香典返し 父 母 両親 従兄弟 親戚 上司 部下 社長 海外 取引先 男性 女性 男の子 女の子 プレゼント ギフト お礼 御礼 お祝い 御祝い 贈り物 お返し おかえし お祝い返し お見舞い返し ご挨拶 お土産 記念品 贈答品 景品 名入れ /■関連ワード: 日本製 おすすめ おしゃれ かわいい 可愛い 人気 ペア セット 送料無料 即日発送 通販 販売",,"<iframe src=""http://shopping.geocities.jp/dentouhonpo/common/service.html"" class=""ifsr"" frameborder=""0""></iframe><iframe src=""http://shopping.geocities.jp/dev-ogaria/dentouhonpo/waigaya/top.html"" scrolling=""no"" frameborder=""0"" marginheight=""0"" marginwidth=""0"" width=""800px"" height=""500px"" vspace=""0"" hspace=""0""></iframe>",,messagecard gift-paperbag,0,1,,,,"有田焼,1616 arita japan,中皿,セット,おつまみ,料理,和食,洋食",有田焼 1616 arita japan 「TY Palace(パレス) 220mm 1枚 化粧箱入り」なら伝統工芸品専門店【伝統本舗】。92.6%の満足度で安心してご利用いただけます。,IT04,,,,,,,,,,,,0,0,0,1,43283,,,,,,,,,,,1,,"<table width=""100%"" cellpadding=""4"" cellspacing=""0""><tr><td colspan=""3"" width=""100%""><img src=""http://shopping.geocities.jp/dentouhonpo/item/img/sp_504220070_01.jpg"" alt="""" width=""100%"" /></td></tr></table><br><br><table width=""100%"" cellpadding=""10"" bgcolor=""#f2f1ef""><tr><td><img src=""http://shopping.geocities.jp/dentouhonpo/info/img/sr_maintitle_sp.png"" width=""100%""></td></tr><tr><td><a href=""http://shopping.geocities.jp/dentouhonpo/info/giftservice.html""><img src=""http://shopping.geocities.jp/dentouhonpo/info/img/sr_links_wrap.png"" width=""100%""></a></td></tr><tr><td><a href=""http://shopping.geocities.jp/dentouhonpo/info/giftservice.html#paperbag""><img src=""http://shopping.geocities.jp/dentouhonpo/info/img/sr_links_paperbag.png"" width=""100%""></a></td></tr><tr><td><a href=""http://shopping.geocities.jp/dentouhonpo/info/ns.html""><img src=""http://shopping.geocities.jp/dentouhonpo/info/img/sr_links_noshi.png"" width=""100%""></a></td></tr><tr><td><a href=""http://shopping.geocities.jp/dentouhonpo/info/oversea.html""><img src=""http://shopping.geocities.jp/dentouhonpo/info/img/sr_links_oversea.png"" width=""100%""></a></td></tr></table><br><table width=""100%"" cellpadding=""4"" cellspacing=""0""><tr><td colspan=""3"" width=""100%""><a href=""http://shopping.geocities.jp/dentouhonpo/info/improve.html""><img src=""http://shopping.c.yimg.jp/lib/dentouhonpo/sp_bnr_improve.jpg"" width=""100%"" /></a><br><br></td></tr></table>",1000,,1000,20
"メニュー:予算で選ぶ:0円~3,000円
メニュー:食卓で使う:食べる:中皿
メニュー:産地で選ぶ:佐賀県:有田焼:1616 arita japan
メニュー:祝う:祝い事:結婚祝い
メニュー:祝う:祝い事:引き出物",「有田焼 1616 arita japan」 TY Palace(パレス) 160mm 1枚 紙箱入り ( 中皿  磁器 セット おつまみ 料理 和食 洋食 和食器 ),504220069-n,,,1620,,,誕生日プレゼント 還暦祝い 古希 喜寿 米寿,"<iframe src=""https://shopping.geocities.jp/dentouhonpo/item/504220069-n.html"" width=""840"" height=""9500"" frameborder=""0"" scrolling=""no""></iframe>","<iframe src=""http://shopping.geocities.jp/args/ps/argonauts_ps.html?param=&wlist=&p=1&sh=&yjc=&pr=&free=&fp=&fcc="" style=""width:100%; height:240px;"" frameborder=""0"" scrolling=""no"" data-trackingid=""2wmOdAWdT8""></iframe>","商品名 : TY Palace(パレス) 160mm 1枚 紙箱入り /■ブランド : 1616 arita japan / 有田焼 (佐賀県) /■カテゴリ: 中皿 和食器 /■素材: 磁器 /■用途: 慶事 : 結婚祝い 結婚式 引き出物 引出物 新築祝い 引越し 定年 退職祝い 昇進祝い 快気祝い 父の日 母の日 敬老の日 誕生日 就職祝い 結婚内祝い 出産内祝い 新築内祝い 還暦祝い 古稀 古希祝い 喜寿 傘寿 米寿 卒寿 長寿祝い 金婚式 銀婚式 結婚記念日 初節句 入学祝い 子供 赤ちゃん の プレゼント , 法人ギフト 上場祝い 竣工祝い 周年 会社設立 事務所移転 開業 開店祝い 永年勤続 就任 記念品 弔辞 : 法事 志 法要 香典 お香典返し 父 母 両親 従兄弟 親戚 上司 部下 社長 海外 取引先 男性 女性 男の子 女の子 プレゼント ギフト お礼 御礼 お祝い 御祝い 贈り物 お返し おかえし お祝い返し お見舞い返し ご挨拶 お土産 記念品 贈答品 景品 名入れ /■関連ワード: 日本製 おすすめ おしゃれ かわいい 可愛い 人気 ペア セット 送料無料 即日発送 通販 販売",,"<iframe src=""http://shopping.geocities.jp/dentouhonpo/common/service.html"" class=""ifsr"" frameborder=""0""></iframe><iframe src=""http://shopping.geocities.jp/dev-ogaria/dentouhonpo/waigaya/top.html"" scrolling=""no"" frameborder=""0"" marginheight=""0"" marginwidth=""0"" width=""800px"" height=""500px"" vspace=""0"" hspace=""0""></iframe>",,messagecard gift-paperbag,0,1,,,,"有田焼,1616 arita japan,中皿,セット,おつまみ,料理,和食,洋食",有田焼 1616 arita japan 「TY Palace(パレス) 160mm 1枚 紙箱入り」なら伝統工芸品専門店【伝統本舗】。92.6%の満足度で安心してご利用いただけます。,IT04,,,,,,,,,,,,0,1,0,1,43283,,,,,,,,,,,1,,"<table width=""100%"" cellpadding=""4"" cellspacing=""0""><tr><td colspan=""3"" width=""100%""><img src=""http://shopping.geocities.jp/dentouhonpo/item/img/sp_504220069-n_01.jpg"" alt="""" width=""100%"" /></td></tr></table><br><br><table width=""100%"" cellpadding=""10"" bgcolor=""#f2f1ef""><tr><td><img src=""http://shopping.geocities.jp/dentouhonpo/info/img/sr_maintitle_sp.png"" width=""100%""></td></tr><tr><td><a href=""http://shopping.geocities.jp/dentouhonpo/info/giftservice.html""><img src=""http://shopping.geocities.jp/dentouhonpo/info/img/sr_links_wrap.png"" width=""100%""></a></td></tr><tr><td><a href=""http://shopping.geocities.jp/dentouhonpo/info/giftservice.html#paperbag""><img src=""http://shopping.geocities.jp/dentouhonpo/info/img/sr_links_paperbag.png"" width=""100%""></a></td></tr><tr><td><a href=""http://shopping.geocities.jp/dentouhonpo/info/ns.html""><img src=""http://shopping.geocities.jp/dentouhonpo/info/img/sr_links_noshi.png"" width=""100%""></a></td></tr><tr><td><a href=""http://shopping.geocities.jp/dentouhonpo/info/oversea.html""><img src=""http://shopping.geocities.jp/dentouhonpo/info/img/sr_links_oversea.png"" width=""100%""></a></td></tr></table><br><table width=""100%"" cellpadding=""4"" cellspacing=""0""><tr><td colspan=""3"" width=""100%""><a href=""http://shopping.geocities.jp/dentouhonpo/info/improve.html""><img src=""http://shopping.c.yimg.jp/lib/dentouhonpo/sp_bnr_improve.jpg"" width=""100%"" /></a><br><br></td></tr></table>",1000,,1000,16
"メニュー:予算で選ぶ:0円~3,000円
メニュー:食卓で使う:食べる:中皿
メニュー:産地で選ぶ:佐賀県:有田焼:1616 arita japan
メニュー:祝う:祝い事:結婚祝い
メニュー:祝う:祝い事:引き出物",「有田焼 1616 arita japan」 TY Palace(パレス) 220mm 1枚 紙箱入り ( 中皿  磁器 セット おつまみ 料理 和食 洋食 和食器 ),504220070-n,,,2700,,,誕生日プレゼント 還暦祝い 古希 喜寿 米寿,"<iframe src=""https://shopping.geocities.jp/dentouhonpo/item/504220070-n.html"" width=""840"" height=""9500"" frameborder=""0"" scrolling=""no""></iframe>","<iframe src=""http://shopping.geocities.jp/args/ps/argonauts_ps.html?param=&wlist=&p=1&sh=&yjc=&pr=&free=&fp=&fcc="" style=""width:100%; height:240px;"" frameborder=""0"" scrolling=""no"" data-trackingid=""2wmOdAWdT8""></iframe>","商品名 : TY Palace(パレス) 220mm 1枚 紙箱入り /■ブランド : 1616 arita japan / 有田焼 (佐賀県) /■カテゴリ: 中皿 和食器 /■素材: 磁器 /■用途: 慶事 : 結婚祝い 結婚式 引き出物 引出物 新築祝い 引越し 定年 退職祝い 昇進祝い 快気祝い 父の日 母の日 敬老の日 誕生日 就職祝い 結婚内祝い 出産内祝い 新築内祝い 還暦祝い 古稀 古希祝い 喜寿 傘寿 米寿 卒寿 長寿祝い 金婚式 銀婚式 結婚記念日 初節句 入学祝い 子供 赤ちゃん の プレゼント , 法人ギフト 上場祝い 竣工祝い 周年 会社設立 事務所移転 開業 開店祝い 永年勤続 就任 記念品 弔辞 : 法事 志 法要 香典 お香典返し 父 母 両親 従兄弟 親戚 上司 部下 社長 海外 取引先 男性 女性 男の子 女の子 プレゼント ギフト お礼 御礼 お祝い 御祝い 贈り物 お返し おかえし お祝い返し お見舞い返し ご挨拶 お土産 記念品 贈答品 景品 名入れ /■関連ワード: 日本製 おすすめ おしゃれ かわいい 可愛い 人気 ペア セット 送料無料 即日発送 通販 販売",,"<iframe src=""http://shopping.geocities.jp/dentouhonpo/common/service.html"" class=""ifsr"" frameborder=""0""></iframe><iframe src=""http://shopping.geocities.jp/dev-ogaria/dentouhonpo/waigaya/top.html"" scrolling=""no"" frameborder=""0"" marginheight=""0"" marginwidth=""0"" width=""800px"" height=""500px"" vspace=""0"" hspace=""0""></iframe>",,messagecard gift-paperbag,0,1,,,,"有田焼,1616 arita japan,中皿,セット,おつまみ,料理,和食,洋食",有田焼 1616 arita japan 「TY Palace(パレス) 220mm 1枚 紙箱入り」なら伝統工芸品専門店【伝統本舗】。92.6%の満足度で安心してご利用いただけます。,IT04,,,,,,,,,,,,0,0,0,1,43283,,,,,,,,,,,1,,"<table width=""100%"" cellpadding=""4"" cellspacing=""0""><tr><td colspan=""3"" width=""100%""><img src=""http://shopping.geocities.jp/dentouhonpo/item/img/sp_504220070-n_01.jpg"" alt="""" width=""100%"" /></td></tr></table><br><br><table width=""100%"" cellpadding=""10"" bgcolor=""#f2f1ef""><tr><td><img src=""http://shopping.geocities.jp/dentouhonpo/info/img/sr_maintitle_sp.png"" width=""100%""></td></tr><tr><td><a href=""http://shopping.geocities.jp/dentouhonpo/info/giftservice.html""><img src=""http://shopping.geocities.jp/dentouhonpo/info/img/sr_links_wrap.png"" width=""100%""></a></td></tr><tr><td><a href=""http://shopping.geocities.jp/dentouhonpo/info/giftservice.html#paperbag""><img src=""http://shopping.geocities.jp/dentouhonpo/info/img/sr_links_paperbag.png"" width=""100%""></a></td></tr><tr><td><a href=""http://shopping.geocities.jp/dentouhonpo/info/ns.html""><img src=""http://shopping.geocities.jp/dentouhonpo/info/img/sr_links_noshi.png"" width=""100%""></a></td></tr><tr><td><a href=""http://shopping.geocities.jp/dentouhonpo/info/oversea.html""><img src=""http://shopping.geocities.jp/dentouhonpo/info/img/sr_links_oversea.png"" width=""100%""></a></td></tr></table><br><table width=""100%"" cellpadding=""4"" cellspacing=""0""><tr><td colspan=""3"" width=""100%""><a href=""http://shopping.geocities.jp/dentouhonpo/info/improve.html""><img src=""http://shopping.c.yimg.jp/lib/dentouhonpo/sp_bnr_improve.jpg"" width=""100%"" /></a><br><br></td></tr></table>",1000,,1000,20
