"項目選択肢用コントロールカラム","商品管理番号（商品URL）","選択肢タイプ","Select/Checkbox用項目名","Select/Checkbox用選択肢"
"n","ymm0613","s","食用金箔を追加（＋540円 ※追加で送料無料になります）","追加しない"
"n","ymm0613","s","食用金箔を追加（＋540円 ※追加で送料無料になります）","追加する[kps0001]"
